# This file uses centimeters as units for non-parametric coordinates.

mtllib Bonfire.mtl
g default
v 0.751653 0.023001 0.002822
v 0.955961 0.030515 0.018696
v 0.739946 0.164271 0.028993
v 0.963023 0.165689 0.028993
v 0.739946 0.152138 -0.240193
v 0.991861 0.159337 -0.264378
v 0.769287 0.003246 -0.217614
v 0.954419 0.003246 -0.264378
v 0.865903 0.003246 0.028993
v 0.865903 0.187167 0.028993
v 0.865903 0.187167 -0.264378
v 0.865903 0.014891 -0.264378
v 0.739946 0.199655 -0.117693
v 0.728382 0.003246 -0.117693
v 0.865903 0.003246 -0.117693
v 0.991861 0.003246 -0.117693
v 0.991861 0.187167 -0.117693
v 0.865903 0.235696 -0.117693
v 0.739946 0.095207 0.067409
v 0.683339 0.095207 -0.117693
v 0.739946 0.095207 -0.237265
v 0.865903 0.095207 -0.319503
v 1.017406 0.095207 -0.264378
v 1.044327 0.095207 -0.117693
v 0.991861 0.095207 0.062302
v 0.865903 0.095207 0.092842
v 0.223555 0.023001 0.473896
v 0.427863 0.030515 0.489769
v 0.211848 0.164271 0.500067
v 0.434925 0.165689 0.500067
v 0.211848 0.152138 0.230880
v 0.463763 0.159337 0.206695
v 0.241189 0.003246 0.253459
v 0.426321 0.003246 0.206695
v 0.337805 0.003246 0.500067
v 0.337805 0.187167 0.500067
v 0.337805 0.187167 0.206695
v 0.337805 0.014891 0.206695
v 0.211848 0.199655 0.353381
v 0.200285 0.003246 0.353381
v 0.337805 0.003246 0.353381
v 0.463763 0.003246 0.353381
v 0.463763 0.187167 0.353381
v 0.337805 0.235696 0.353381
v 0.211848 0.095207 0.538482
v 0.155241 0.095207 0.353381
v 0.211848 0.095207 0.233809
v 0.337805 0.095207 0.151570
v 0.489308 0.095207 0.206695
v 0.516230 0.095207 0.353381
v 0.463763 0.095207 0.533376
v 0.337805 0.095207 0.563916
v -0.240039 0.023001 0.084840
v -0.035732 0.030515 0.100713
v -0.251747 0.164271 0.111011
v -0.028670 0.165689 0.111011
v -0.251747 0.152138 -0.158176
v 0.000168 0.159337 -0.182361
v -0.222406 0.003246 -0.135597
v -0.037273 0.003246 -0.182361
v -0.125790 0.003246 0.111011
v -0.125790 0.187167 0.111011
v -0.125790 0.187167 -0.182361
v -0.125790 0.014891 -0.182361
v -0.251747 0.199655 -0.035675
v -0.263310 0.003246 -0.035675
v -0.125790 0.003246 -0.035675
v 0.000168 0.003246 -0.035675
v 0.000168 0.187167 -0.035675
v -0.125790 0.235696 -0.035675
v -0.251747 0.095207 0.149427
v -0.308354 0.095207 -0.035675
v -0.251747 0.095207 -0.155247
v -0.125790 0.095207 -0.237486
v 0.025713 0.095207 -0.182361
v 0.052635 0.095207 -0.035675
v 0.000168 0.095207 0.144320
v -0.125790 0.095207 0.174860
v 0.193160 0.023001 -0.535724
v 0.397468 0.030515 -0.519851
v 0.181453 0.164271 -0.509553
v 0.404530 0.165689 -0.509553
v 0.181453 0.152138 -0.778740
v 0.433368 0.159337 -0.802925
v 0.210794 0.003246 -0.756161
v 0.395926 0.003246 -0.802925
v 0.307410 0.003246 -0.509553
v 0.307410 0.187167 -0.509553
v 0.307410 0.187167 -0.802925
v 0.307410 0.014891 -0.802925
v 0.181453 0.199655 -0.656239
v 0.169890 0.003246 -0.656239
v 0.307410 0.003246 -0.656239
v 0.433368 0.003246 -0.656239
v 0.433368 0.187167 -0.656239
v 0.307410 0.235696 -0.656239
v 0.181453 0.095207 -0.471138
v 0.124846 0.095207 -0.656239
v 0.181453 0.095207 -0.775811
v 0.307410 0.095207 -0.858050
v 0.458913 0.095207 -0.802925
v 0.485834 0.095207 -0.656239
v 0.433368 0.095207 -0.476244
v 0.307410 0.095207 -0.445704
vt 0.431361 0.675714
vt 0.445992 0.586460
vt 0.499467 0.538626
vt 0.499467 0.675714
vt 0.550617 0.567077
vt 0.576823 0.675714
vt 0.431361 0.749717
vt 0.499467 0.764270
vt 0.541631 0.766439
vt 0.152955 0.378946
vt 0.084849 0.378946
vt 0.084849 0.270309
vt 0.132344 0.270309
vt 0.084849 0.512251
vt 0.137049 0.487582
vt 0.016743 0.378946
vt 0.016743 0.270309
vt 0.036938 0.479956
vt 0.583635 0.675714
vt 0.598265 0.586460
vt 0.651741 0.538626
vt 0.651741 0.675714
vt 0.702890 0.567077
vt 0.729096 0.675714
vt 0.583635 0.749717
vt 0.651741 0.764270
vt 0.693905 0.766439
vt 0.138088 0.624645
vt 0.069982 0.624645
vt 0.069982 0.516008
vt 0.117477 0.516008
vt 0.069982 0.757950
vt 0.122182 0.733281
vt 0.001875 0.624645
vt 0.001875 0.516008
vt 0.022070 0.725655
vt 0.735909 0.675714
vt 0.750539 0.586460
vt 0.804015 0.538626
vt 0.804015 0.675714
vt 0.855164 0.567077
vt 0.881370 0.675714
vt 0.735909 0.749717
vt 0.804015 0.764270
vt 0.846179 0.766439
vt 0.281372 0.647263
vt 0.213266 0.647263
vt 0.213266 0.538626
vt 0.260761 0.538626
vt 0.213266 0.780568
vt 0.265466 0.755899
vt 0.145159 0.647263
vt 0.145159 0.538626
vt 0.165354 0.748273
vt 0.794002 0.907283
vt 0.808633 0.818029
vt 0.862108 0.770196
vt 0.862108 0.907283
vt 0.913257 0.798647
vt 0.939464 0.907283
vt 0.794002 0.981286
vt 0.862108 0.995839
vt 0.904272 0.998008
vt 0.424473 0.647263
vt 0.356366 0.647263
vt 0.356366 0.538626
vt 0.403862 0.538626
vt 0.356366 0.780568
vt 0.408567 0.755899
vt 0.288260 0.647263
vt 0.288260 0.538626
vt 0.308455 0.748273
vt 0.203867 0.049279
vt 0.297152 0.049279
vt 0.297152 0.157915
vt 0.203867 0.157915
vt 0.203867 0.020828
vt 0.297152 0.001992
vt 0.369079 0.049279
vt 0.390437 0.157915
vt 0.297152 0.266552
vt 0.203867 0.248640
vt 0.390437 0.024610
vt 0.390437 0.266552
vt 0.001875 0.110629
vt 0.103724 0.110629
vt 0.103724 0.219265
vt 0.019110 0.199883
vt 0.032170 0.036626
vt 0.103724 0.001992
vt 0.197009 0.110629
vt 0.170421 0.211638
vt 0.103724 0.266552
vt 0.010439 0.247716
vt 0.169280 0.001992
vt 0.197009 0.243934
vt 0.598312 0.049279
vt 0.691597 0.049279
vt 0.691597 0.157915
vt 0.598312 0.157915
vt 0.598312 0.020828
vt 0.691597 0.001992
vt 0.763524 0.049279
vt 0.784882 0.157915
vt 0.691597 0.266552
vt 0.598312 0.248640
vt 0.784882 0.024610
vt 0.784882 0.266552
vt 0.396503 0.110629
vt 0.498352 0.110629
vt 0.498352 0.219265
vt 0.413738 0.199883
vt 0.426797 0.036626
vt 0.498352 0.001992
vt 0.591637 0.110629
vt 0.565049 0.211638
vt 0.498352 0.266552
vt 0.405067 0.247716
vt 0.563907 0.001992
vt 0.591637 0.243934
vt 0.551985 0.317596
vt 0.645270 0.317596
vt 0.645270 0.426233
vt 0.551985 0.426233
vt 0.551985 0.289145
vt 0.645270 0.270309
vt 0.717197 0.317596
vt 0.738555 0.426233
vt 0.645270 0.534869
vt 0.551985 0.516958
vt 0.738555 0.292927
vt 0.738555 0.534869
vt 0.744330 0.378946
vt 0.846179 0.378946
vt 0.846179 0.487582
vt 0.761565 0.468200
vt 0.774624 0.304943
vt 0.846179 0.270309
vt 0.939464 0.378946
vt 0.912876 0.479956
vt 0.846179 0.534869
vt 0.752894 0.516033
vt 0.911734 0.270309
vt 0.939464 0.512251
vt 0.158731 0.317596
vt 0.252016 0.317596
vt 0.252016 0.426233
vt 0.158731 0.426233
vt 0.158731 0.289145
vt 0.252016 0.270309
vt 0.323943 0.317596
vt 0.345300 0.426233
vt 0.252016 0.534869
vt 0.158731 0.516958
vt 0.345300 0.292927
vt 0.345300 0.534869
vt 0.351076 0.378946
vt 0.452925 0.378946
vt 0.452925 0.487582
vt 0.368310 0.468200
vt 0.381370 0.304943
vt 0.452925 0.270309
vt 0.546210 0.378946
vt 0.519622 0.479956
vt 0.452925 0.534869
vt 0.359640 0.516033
vt 0.518480 0.270309
vt 0.546210 0.512251
vt 0.720120 0.975684
vt 0.720120 0.882399
vt 0.779602 0.882399
vt 0.788226 0.953954
vt 0.677956 0.975684
vt 0.652014 0.882399
vt 0.720120 0.770196
vt 0.788226 0.816844
vt 0.672625 0.789115
vt 0.578132 0.975684
vt 0.578132 0.882399
vt 0.637614 0.882399
vt 0.646238 0.953954
vt 0.535968 0.975684
vt 0.510026 0.882399
vt 0.578132 0.770196
vt 0.646238 0.816844
vt 0.530636 0.789115
vt 0.436144 0.989814
vt 0.436144 0.896529
vt 0.495626 0.896529
vt 0.504250 0.968084
vt 0.393980 0.989814
vt 0.368037 0.896529
vt 0.436144 0.784326
vt 0.504250 0.830974
vt 0.388648 0.803244
vt 0.294156 0.989814
vt 0.294156 0.896529
vt 0.353638 0.896529
vt 0.362262 0.968083
vt 0.251992 0.989814
vt 0.226049 0.896529
vt 0.294156 0.784326
vt 0.362262 0.830974
vt 0.246660 0.803244
vn -0.213958 -0.611334 0.761901
vn -0.213958 -0.611334 0.761901
vn -0.213958 -0.611334 0.761901
vn -0.213958 -0.611334 0.761901
vn -0.219453 0.938006 0.268301
vn -0.219453 0.938006 0.268301
vn -0.219453 0.938006 0.268301
vn -0.219453 0.938006 0.268301
vn -0.438637 -0.419631 -0.794675
vn -0.438637 -0.419631 -0.794675
vn -0.438637 -0.419631 -0.794675
vn -0.438637 -0.419631 -0.794675
vn -0.086326 -0.992974 0.080933
vn -0.086326 -0.992974 0.080933
vn -0.086326 -0.992974 0.080933
vn -0.086326 -0.992974 0.080933
vn 0.804429 -0.529006 0.270272
vn 0.804429 -0.529006 0.270272
vn 0.804429 -0.529006 0.270272
vn 0.804429 -0.529006 0.270272
vn -0.878222 -0.404182 0.255664
vn -0.878222 -0.404182 0.255664
vn -0.878222 -0.404182 0.255664
vn -0.878222 -0.404182 0.255664
vn 0.221342 -0.585617 0.779782
vn 0.221342 -0.585617 0.779782
vn 0.221342 -0.585617 0.779783
vn 0.221342 -0.585617 0.779782
vn 0.289994 0.924065 0.249014
vn 0.289994 0.924065 0.249014
vn 0.289994 0.924065 0.249014
vn 0.289994 0.924065 0.249014
vn 0.191936 -0.362055 -0.912183
vn 0.191936 -0.362055 -0.912183
vn 0.191936 -0.362055 -0.912183
vn 0.191936 -0.362055 -0.912183
vn 0.129684 -0.985282 0.111358
vn 0.129684 -0.985282 0.111358
vn 0.129684 -0.985282 0.111358
vn 0.129684 -0.985282 0.111358
vn -0.844676 -0.381716 -0.375253
vn -0.844676 -0.381716 -0.375253
vn -0.844676 -0.381716 -0.375253
vn -0.844676 -0.381716 -0.375253
vn 0.041615 -0.998323 -0.040238
vn 0.041615 -0.998323 -0.040238
vn 0.041615 -0.998323 -0.040238
vn 0.041615 -0.998323 -0.040238
vn -0.054185 -0.997995 -0.032698
vn -0.054185 -0.997995 -0.032698
vn -0.054185 -0.997995 -0.032698
vn -0.054185 -0.997995 -0.032698
vn 0.832704 -0.522713 -0.182688
vn 0.832704 -0.522713 -0.182688
vn 0.832704 -0.522713 -0.182688
vn 0.832704 -0.522713 -0.182688
vn 0.281480 0.928627 -0.241704
vn 0.281480 0.928627 -0.241704
vn 0.281480 0.928627 -0.241704
vn 0.281480 0.928627 -0.241704
vn -0.285566 0.902624 -0.322059
vn -0.285566 0.902624 -0.322059
vn -0.285566 0.902624 -0.322059
vn -0.285566 0.902624 -0.322059
vn -0.919310 0.342734 0.193397
vn -0.919310 0.342734 0.193397
vn -0.919310 0.342734 0.193397
vn -0.919310 0.342734 0.193397
vn -0.909015 0.313877 -0.274178
vn -0.909015 0.313877 -0.274178
vn -0.909015 0.313877 -0.274178
vn -0.909015 0.313877 -0.274178
vn -0.406313 0.302287 -0.862283
vn -0.406313 0.302287 -0.862283
vn -0.406313 0.302287 -0.862283
vn -0.406313 0.302287 -0.862283
vn 0.216334 0.356405 -0.908942
vn 0.216334 0.356405 -0.908942
vn 0.216334 0.356405 -0.908942
vn 0.216334 0.356405 -0.908942
vn 0.887654 0.443631 -0.123541
vn 0.887654 0.443631 -0.123541
vn 0.887654 0.443631 -0.123541
vn 0.887654 0.443631 -0.123541
vn 0.846922 0.473500 0.241913
vn 0.846922 0.473500 0.241913
vn 0.846922 0.473500 0.241913
vn 0.846922 0.473500 0.241913
vn 0.164884 0.527669 0.833294
vn 0.164884 0.527669 0.833294
vn 0.164884 0.527669 0.833294
vn 0.164884 0.527669 0.833294
vn -0.132766 0.531363 0.836676
vn -0.132766 0.531363 0.836676
vn -0.132766 0.531363 0.836676
vn -0.132766 0.531363 0.836676
vn -0.213958 -0.611334 0.761901
vn -0.213958 -0.611334 0.761901
vn -0.213958 -0.611334 0.761901
vn -0.213958 -0.611334 0.761901
vn -0.219453 0.938006 0.268301
vn -0.219453 0.938006 0.268301
vn -0.219453 0.938006 0.268301
vn -0.219453 0.938006 0.268301
vn -0.438637 -0.419631 -0.794675
vn -0.438637 -0.419630 -0.794675
vn -0.438637 -0.419630 -0.794675
vn -0.438637 -0.419630 -0.794675
vn -0.086326 -0.992974 0.080932
vn -0.086326 -0.992974 0.080932
vn -0.086326 -0.992974 0.080932
vn -0.086326 -0.992974 0.080932
vn 0.804429 -0.529006 0.270272
vn 0.804429 -0.529006 0.270272
vn 0.804429 -0.529006 0.270272
vn 0.804429 -0.529006 0.270272
vn -0.878222 -0.404182 0.255664
vn -0.878222 -0.404182 0.255664
vn -0.878222 -0.404182 0.255664
vn -0.878222 -0.404182 0.255664
vn 0.221343 -0.585617 0.779783
vn 0.221343 -0.585617 0.779782
vn 0.221343 -0.585617 0.779782
vn 0.221343 -0.585617 0.779782
vn 0.289994 0.924065 0.249014
vn 0.289994 0.924065 0.249014
vn 0.289994 0.924065 0.249014
vn 0.289994 0.924065 0.249014
vn 0.191936 -0.362055 -0.912183
vn 0.191936 -0.362055 -0.912183
vn 0.191936 -0.362055 -0.912183
vn 0.191936 -0.362055 -0.912183
vn 0.129684 -0.985282 0.111359
vn 0.129684 -0.985282 0.111359
vn 0.129684 -0.985282 0.111359
vn 0.129684 -0.985282 0.111359
vn -0.844677 -0.381715 -0.375253
vn -0.844677 -0.381715 -0.375253
vn -0.844677 -0.381715 -0.375253
vn -0.844677 -0.381715 -0.375253
vn 0.041615 -0.998323 -0.040238
vn 0.041615 -0.998323 -0.040238
vn 0.041615 -0.998323 -0.040238
vn 0.041615 -0.998323 -0.040238
vn -0.054185 -0.997995 -0.032698
vn -0.054185 -0.997995 -0.032698
vn -0.054185 -0.997995 -0.032698
vn -0.054185 -0.997995 -0.032698
vn 0.832703 -0.522714 -0.182688
vn 0.832703 -0.522714 -0.182688
vn 0.832703 -0.522714 -0.182688
vn 0.832703 -0.522714 -0.182688
vn 0.281480 0.928627 -0.241704
vn 0.281480 0.928627 -0.241704
vn 0.281480 0.928627 -0.241704
vn 0.281480 0.928627 -0.241704
vn -0.285566 0.902624 -0.322059
vn -0.285566 0.902624 -0.322059
vn -0.285566 0.902624 -0.322059
vn -0.285566 0.902624 -0.322059
vn -0.919310 0.342734 0.193397
vn -0.919310 0.342734 0.193397
vn -0.919310 0.342734 0.193397
vn -0.919310 0.342734 0.193397
vn -0.909015 0.313877 -0.274178
vn -0.909015 0.313877 -0.274178
vn -0.909015 0.313877 -0.274178
vn -0.909015 0.313877 -0.274178
vn -0.406313 0.302287 -0.862283
vn -0.406313 0.302287 -0.862283
vn -0.406313 0.302287 -0.862283
vn -0.406313 0.302287 -0.862283
vn 0.216334 0.356405 -0.908942
vn 0.216334 0.356405 -0.908942
vn 0.216334 0.356405 -0.908942
vn 0.216334 0.356405 -0.908942
vn 0.887653 0.443633 -0.123541
vn 0.887653 0.443633 -0.123541
vn 0.887653 0.443633 -0.123541
vn 0.887653 0.443633 -0.123541
vn 0.846922 0.473499 0.241913
vn 0.846922 0.473499 0.241913
vn 0.846922 0.473499 0.241913
vn 0.846922 0.473499 0.241913
vn 0.164884 0.527669 0.833294
vn 0.164884 0.527669 0.833294
vn 0.164884 0.527669 0.833294
vn 0.164884 0.527669 0.833294
vn -0.132766 0.531363 0.836676
vn -0.132766 0.531363 0.836676
vn -0.132766 0.531363 0.836676
vn -0.132766 0.531363 0.836676
vn -0.213958 -0.611334 0.761901
vn -0.213958 -0.611334 0.761901
vn -0.213958 -0.611334 0.761901
vn -0.213958 -0.611334 0.761901
vn -0.219453 0.938006 0.268301
vn -0.219453 0.938006 0.268301
vn -0.219453 0.938006 0.268301
vn -0.219453 0.938006 0.268301
vn -0.438637 -0.419630 -0.794675
vn -0.438637 -0.419630 -0.794675
vn -0.438637 -0.419630 -0.794675
vn -0.438637 -0.419630 -0.794675
vn -0.086326 -0.992974 0.080932
vn -0.086326 -0.992974 0.080933
vn -0.086326 -0.992974 0.080932
vn -0.086326 -0.992974 0.080932
vn 0.804429 -0.529006 0.270272
vn 0.804429 -0.529006 0.270272
vn 0.804429 -0.529006 0.270272
vn 0.804429 -0.529006 0.270272
vn -0.878222 -0.404182 0.255664
vn -0.878222 -0.404182 0.255664
vn -0.878222 -0.404182 0.255664
vn -0.878222 -0.404182 0.255664
vn 0.221342 -0.585617 0.779783
vn 0.221342 -0.585617 0.779783
vn 0.221342 -0.585617 0.779783
vn 0.221342 -0.585617 0.779783
vn 0.289994 0.924065 0.249014
vn 0.289994 0.924065 0.249014
vn 0.289994 0.924065 0.249014
vn 0.289994 0.924065 0.249014
vn 0.191936 -0.362055 -0.912183
vn 0.191936 -0.362055 -0.912183
vn 0.191936 -0.362055 -0.912183
vn 0.191936 -0.362055 -0.912183
vn 0.129684 -0.985282 0.111359
vn 0.129684 -0.985282 0.111359
vn 0.129684 -0.985282 0.111359
vn 0.129684 -0.985282 0.111359
vn -0.844677 -0.381715 -0.375253
vn -0.844677 -0.381715 -0.375253
vn -0.844677 -0.381715 -0.375253
vn -0.844677 -0.381715 -0.375253
vn 0.041615 -0.998323 -0.040238
vn 0.041615 -0.998323 -0.040238
vn 0.041615 -0.998323 -0.040238
vn 0.041615 -0.998323 -0.040238
vn -0.054185 -0.997995 -0.032698
vn -0.054185 -0.997995 -0.032698
vn -0.054185 -0.997995 -0.032698
vn -0.054185 -0.997995 -0.032698
vn 0.832703 -0.522714 -0.182688
vn 0.832703 -0.522714 -0.182688
vn 0.832703 -0.522714 -0.182688
vn 0.832703 -0.522714 -0.182688
vn 0.281480 0.928627 -0.241704
vn 0.281480 0.928627 -0.241704
vn 0.281480 0.928627 -0.241704
vn 0.281480 0.928627 -0.241704
vn -0.285566 0.902624 -0.322059
vn -0.285566 0.902624 -0.322059
vn -0.285566 0.902624 -0.322059
vn -0.285566 0.902624 -0.322059
vn -0.919310 0.342734 0.193397
vn -0.919310 0.342734 0.193397
vn -0.919310 0.342734 0.193397
vn -0.919310 0.342734 0.193397
vn -0.909015 0.313877 -0.274178
vn -0.909015 0.313877 -0.274178
vn -0.909015 0.313877 -0.274178
vn -0.909015 0.313877 -0.274178
vn -0.406313 0.302287 -0.862283
vn -0.406313 0.302287 -0.862283
vn -0.406313 0.302287 -0.862283
vn -0.406313 0.302287 -0.862283
vn 0.216334 0.356405 -0.908942
vn 0.216334 0.356405 -0.908942
vn 0.216334 0.356405 -0.908942
vn 0.216334 0.356405 -0.908942
vn 0.887653 0.443633 -0.123541
vn 0.887653 0.443633 -0.123541
vn 0.887653 0.443633 -0.123541
vn 0.887653 0.443633 -0.123541
vn 0.846922 0.473499 0.241913
vn 0.846922 0.473499 0.241913
vn 0.846922 0.473499 0.241913
vn 0.846922 0.473499 0.241913
vn 0.164884 0.527668 0.833294
vn 0.164884 0.527668 0.833294
vn 0.164884 0.527668 0.833294
vn 0.164884 0.527668 0.833294
vn -0.132766 0.531363 0.836676
vn -0.132766 0.531363 0.836676
vn -0.132766 0.531363 0.836676
vn -0.132766 0.531363 0.836676
vn -0.213958 -0.611334 0.761901
vn -0.213958 -0.611334 0.761901
vn -0.213958 -0.611334 0.761901
vn -0.213958 -0.611334 0.761901
vn -0.219453 0.938006 0.268301
vn -0.219453 0.938006 0.268301
vn -0.219453 0.938006 0.268301
vn -0.219453 0.938006 0.268301
vn -0.438637 -0.419630 -0.794675
vn -0.438637 -0.419630 -0.794675
vn -0.438637 -0.419630 -0.794675
vn -0.438637 -0.419630 -0.794675
vn -0.086326 -0.992974 0.080933
vn -0.086326 -0.992974 0.080932
vn -0.086326 -0.992974 0.080932
vn -0.086326 -0.992974 0.080932
vn 0.804429 -0.529006 0.270272
vn 0.804429 -0.529006 0.270272
vn 0.804429 -0.529006 0.270272
vn 0.804429 -0.529006 0.270272
vn -0.878222 -0.404182 0.255664
vn -0.878222 -0.404182 0.255664
vn -0.878222 -0.404182 0.255664
vn -0.878222 -0.404182 0.255664
vn 0.221342 -0.585617 0.779782
vn 0.221342 -0.585617 0.779783
vn 0.221342 -0.585617 0.779782
vn 0.221342 -0.585617 0.779782
vn 0.289994 0.924065 0.249014
vn 0.289994 0.924065 0.249014
vn 0.289994 0.924065 0.249014
vn 0.289994 0.924065 0.249014
vn 0.191936 -0.362055 -0.912183
vn 0.191936 -0.362055 -0.912183
vn 0.191936 -0.362055 -0.912183
vn 0.191936 -0.362055 -0.912183
vn 0.129684 -0.985282 0.111359
vn 0.129684 -0.985282 0.111358
vn 0.129684 -0.985282 0.111358
vn 0.129684 -0.985282 0.111358
vn -0.844677 -0.381715 -0.375253
vn -0.844677 -0.381715 -0.375253
vn -0.844677 -0.381715 -0.375253
vn -0.844677 -0.381715 -0.375253
vn 0.041614 -0.998323 -0.040238
vn 0.041614 -0.998323 -0.040238
vn 0.041614 -0.998323 -0.040238
vn 0.041614 -0.998323 -0.040238
vn -0.054185 -0.997995 -0.032698
vn -0.054185 -0.997995 -0.032698
vn -0.054185 -0.997995 -0.032698
vn -0.054185 -0.997995 -0.032698
vn 0.832703 -0.522715 -0.182688
vn 0.832703 -0.522715 -0.182688
vn 0.832703 -0.522715 -0.182688
vn 0.832703 -0.522715 -0.182688
vn 0.281480 0.928627 -0.241704
vn 0.281480 0.928627 -0.241704
vn 0.281480 0.928627 -0.241704
vn 0.281480 0.928627 -0.241704
vn -0.285566 0.902624 -0.322059
vn -0.285566 0.902624 -0.322059
vn -0.285566 0.902624 -0.322059
vn -0.285566 0.902624 -0.322059
vn -0.919310 0.342734 0.193398
vn -0.919310 0.342734 0.193398
vn -0.919310 0.342734 0.193398
vn -0.919310 0.342734 0.193398
vn -0.909015 0.313877 -0.274178
vn -0.909015 0.313877 -0.274178
vn -0.909015 0.313877 -0.274178
vn -0.909015 0.313877 -0.274178
vn -0.406313 0.302287 -0.862283
vn -0.406313 0.302287 -0.862283
vn -0.406313 0.302287 -0.862283
vn -0.406313 0.302287 -0.862283
vn 0.216334 0.356405 -0.908942
vn 0.216334 0.356405 -0.908942
vn 0.216334 0.356405 -0.908942
vn 0.216334 0.356405 -0.908942
vn 0.887653 0.443633 -0.123541
vn 0.887653 0.443633 -0.123541
vn 0.887653 0.443633 -0.123541
vn 0.887653 0.443633 -0.123541
vn 0.846922 0.473499 0.241913
vn 0.846922 0.473499 0.241913
vn 0.846922 0.473499 0.241913
vn 0.846922 0.473499 0.241913
vn 0.164884 0.527669 0.833294
vn 0.164884 0.527669 0.833294
vn 0.164884 0.527669 0.833294
vn 0.164884 0.527669 0.833294
vn -0.132766 0.531363 0.836676
vn -0.132766 0.531363 0.836676
vn -0.132766 0.531363 0.836676
vn -0.132766 0.531363 0.836676
s off
g pCube11
usemtl lambert2SG
f 1/88/1 9/87/2 26/93/3 19/94/4
f 3/73/5 10/74/6 18/75/7 13/76/8
f 21/169/9 22/170/10 12/171/11 7/172/12
f 14/85/13 15/86/14 9/87/15 1/88/16
f 2/18/17 16/16/18 24/11/19 25/14/20
f 14/1/21 1/2/22 19/3/23 20/4/24
f 9/87/25 2/92/26 25/96/27 26/93/28
f 18/75/29 10/74/30 4/79/31 17/80/32
f 12/171/33 22/170/34 23/175/35 8/176/36
f 9/87/37 15/86/38 16/91/39 2/92/40
f 7/7/41 14/1/42 20/4/43 21/8/44
f 7/89/45 12/90/46 15/86/47 14/85/48
f 16/91/49 15/86/50 12/90/51 8/95/52
f 24/11/53 16/16/54 8/17/55 23/12/56
f 11/81/57 18/75/58 17/80/59 6/84/60
f 13/76/61 18/75/62 11/81/63 5/82/64
f 20/4/65 19/3/66 3/5/67 13/6/68
f 21/8/69 20/4/70 13/6/71 5/9/72
f 5/173/73 11/174/74 22/170/75 21/169/76
f 23/175/77 22/170/78 11/174/79 6/177/80
f 17/10/81 24/11/82 23/12/83 6/13/84
f 25/14/85 24/11/86 17/10/87 4/15/88
f 26/78/89 25/83/90 4/79/91 10/74/92
f 19/77/93 26/78/94 10/74/95 3/73/96
f 27/112/97 35/111/98 52/117/99 45/118/100
f 29/97/101 36/98/102 44/99/103 39/100/104
f 47/178/105 48/179/106 38/180/107 33/181/108
f 40/109/109 41/110/110 35/111/111 27/112/112
f 28/36/113 42/34/114 50/29/115 51/32/116
f 40/19/117 27/20/118 45/21/119 46/22/120
f 35/111/121 28/116/122 51/120/123 52/117/124
f 44/99/125 36/98/126 30/103/127 43/104/128
f 38/180/129 48/179/130 49/184/131 34/185/132
f 35/111/133 41/110/134 42/115/135 28/116/136
f 33/25/137 40/19/138 46/22/139 47/26/140
f 33/113/141 38/114/142 41/110/143 40/109/144
f 42/115/145 41/110/146 38/114/147 34/119/148
f 50/29/149 42/34/150 34/35/151 49/30/152
f 37/105/153 44/99/154 43/104/155 32/108/156
f 39/100/157 44/99/158 37/105/159 31/106/160
f 46/22/161 45/21/162 29/23/163 39/24/164
f 47/26/165 46/22/166 39/24/167 31/27/168
f 31/182/169 37/183/170 48/179/171 47/178/172
f 49/184/173 48/179/174 37/183/175 32/186/176
f 43/28/177 50/29/178 49/30/179 32/31/180
f 51/32/181 50/29/182 43/28/183 30/33/184
f 52/102/185 51/107/186 30/103/187 36/98/188
f 45/101/189 52/102/190 36/98/191 29/97/192
f 53/136/193 61/135/194 78/141/195 71/142/196
f 55/121/197 62/122/198 70/123/199 65/124/200
f 73/187/201 74/188/202 64/189/203 59/190/204
f 66/133/205 67/134/206 61/135/207 53/136/208
f 54/54/209 68/52/210 76/47/211 77/50/212
f 66/37/213 53/38/214 71/39/215 72/40/216
f 61/135/217 54/140/218 77/144/219 78/141/220
f 70/123/221 62/122/222 56/127/223 69/128/224
f 64/189/225 74/188/226 75/193/227 60/194/228
f 61/135/229 67/134/230 68/139/231 54/140/232
f 59/43/233 66/37/234 72/40/235 73/44/236
f 59/137/237 64/138/238 67/134/239 66/133/240
f 68/139/241 67/134/242 64/138/243 60/143/244
f 76/47/245 68/52/246 60/53/247 75/48/248
f 63/129/249 70/123/250 69/128/251 58/132/252
f 65/124/253 70/123/254 63/129/255 57/130/256
f 72/40/257 71/39/258 55/41/259 65/42/260
f 73/44/261 72/40/262 65/42/263 57/45/264
f 57/191/265 63/192/266 74/188/267 73/187/268
f 75/193/269 74/188/270 63/192/271 58/195/272
f 69/46/273 76/47/274 75/48/275 58/49/276
f 77/50/277 76/47/278 69/46/279 56/51/280
f 78/126/281 77/131/282 56/127/283 62/122/284
f 71/125/285 78/126/286 62/122/287 55/121/288
f 79/160/289 87/159/290 104/165/291 97/166/292
f 81/145/293 88/146/294 96/147/295 91/148/296
f 99/196/297 100/197/298 90/198/299 85/199/300
f 92/157/301 93/158/302 87/159/303 79/160/304
f 80/72/305 94/70/306 102/65/307 103/68/308
f 92/55/309 79/56/310 97/57/311 98/58/312
f 87/159/313 80/164/314 103/168/315 104/165/316
f 96/147/317 88/146/318 82/151/319 95/152/320
f 90/198/321 100/197/322 101/202/323 86/203/324
f 87/159/325 93/158/326 94/163/327 80/164/328
f 85/61/329 92/55/330 98/58/331 99/62/332
f 85/161/333 90/162/334 93/158/335 92/157/336
f 94/163/337 93/158/338 90/162/339 86/167/340
f 102/65/341 94/70/342 86/71/343 101/66/344
f 89/153/345 96/147/346 95/152/347 84/156/348
f 91/148/349 96/147/350 89/153/351 83/154/352
f 98/58/353 97/57/354 81/59/355 91/60/356
f 99/62/357 98/58/358 91/60/359 83/63/360
f 83/200/361 89/201/362 100/197/363 99/196/364
f 101/202/365 100/197/366 89/201/367 84/204/368
f 95/64/369 102/65/370 101/66/371 84/67/372
f 103/68/373 102/65/374 95/64/375 82/69/376
f 104/150/377 103/155/378 82/151/379 88/146/380
f 97/149/381 104/150/382 88/146/383 81/145/384
g default
v 1.528614 0.008606 1.093244
v 1.645459 -0.002053 0.960622
v 1.472744 0.210202 1.175154
v 1.735223 0.186256 0.877235
v 0.370052 0.351540 0.142156
v 0.582992 0.332114 -0.099534
v 0.355838 0.169611 0.141042
v 0.565600 0.150474 -0.097042
v 1.587037 0.003277 1.026933
v 1.604041 0.198893 1.026192
v 0.477419 0.352148 0.021272
v 0.459436 0.145277 0.022056
v 0.909396 0.286400 0.672696
v 0.961397 0.056017 0.592433
v 1.021175 0.050564 0.524584
v 1.080953 0.045110 0.456735
v 1.171875 0.262454 0.374777
v 1.043281 0.304861 0.523621
v 1.493420 0.139974 1.145254
v 0.966970 0.183666 0.598171
v 0.370411 0.233754 0.130665
v 0.466366 0.225000 0.021754
v 0.562322 0.216246 -0.087158
v 1.097486 0.171759 0.450034
v 1.702759 0.120876 0.907649
v 1.598090 0.130425 1.026451
v 0.285598 0.004037 1.487977
v 0.462671 0.004037 1.487977
v 0.175247 0.194775 1.531718
v 0.573021 0.194775 1.531718
v 0.212785 0.581666 0.064784
v 0.535484 0.581666 0.064784
v 0.215192 0.403812 0.023997
v 0.533076 0.403812 0.023997
v 0.374134 0.004037 1.487977
v 0.374134 0.195424 1.531867
v 0.374134 0.591765 0.067100
v 0.374134 0.389366 0.020684
v 0.175247 0.392525 0.799238
v 0.283544 0.173501 0.749010
v 0.374134 0.173501 0.749010
v 0.464725 0.173501 0.749010
v 0.573021 0.392525 0.799238
v 0.374134 0.422301 0.806066
v 0.215512 0.128437 1.516505
v 0.275239 0.297901 0.777538
v 0.228718 0.467365 0.038571
v 0.374134 0.467365 0.038571
v 0.519550 0.467365 0.038571
v 0.473029 0.297901 0.777538
v 0.532756 0.128437 1.516505
v 0.374134 0.128437 1.516505
v -0.916821 -0.011625 0.984220
v -0.793113 -0.015158 1.110863
v -1.003008 0.185529 0.919617
v -0.725111 0.177592 1.204107
v 0.103525 0.361714 -0.103873
v 0.328973 0.355276 0.126923
v 0.113686 0.179882 -0.115504
v 0.335769 0.173539 0.111848
v -0.854967 -0.013392 1.047541
v -0.864091 0.182225 1.061911
v 0.215768 0.368816 0.012283
v 0.225416 0.161945 -0.002913
v -0.463059 0.278396 0.394772
v -0.376959 0.052371 0.455782
v -0.313670 0.050564 0.520572
v -0.250380 0.048756 0.585363
v -0.185162 0.270459 0.679262
v -0.325530 0.304861 0.539252
v -0.971716 0.116922 0.943434
v -0.388691 0.179686 0.459182
v 0.120106 0.244569 -0.101059
v 0.221698 0.241668 0.002943
v 0.323290 0.238766 0.106945
v -0.250509 0.175739 0.600642
v -0.750079 0.110592 1.170329
v -0.860897 0.113757 1.056881
v -1.338787 -0.010835 -0.143708
v -1.339764 0.004840 0.032666
v -1.381678 0.169419 -0.270753
v -1.383873 0.204631 0.125453
v 0.085512 0.556992 -0.259383
v 0.083732 0.585559 0.062044
v 0.126061 0.380018 -0.241013
v 0.124307 0.408158 0.075618
v -1.339275 -0.002997 -0.055521
v -1.382924 0.187672 -0.072708
v 0.082319 0.581336 -0.099577
v 0.128479 0.379696 -0.081400
v -0.648961 0.365832 -0.284150
v -0.599607 0.157217 -0.156611
v -0.600107 0.165236 -0.066377
v -0.600607 0.173256 0.023856
v -0.651156 0.401045 0.112057
v -0.656849 0.413103 -0.088720
v -1.366771 0.106894 -0.224689
v -0.627932 0.280415 -0.176054
v 0.111493 0.444530 -0.233248
v 0.110690 0.457403 -0.088405
v 0.109887 0.470275 0.056438
v -0.629024 0.297924 0.020956
v -1.368522 0.134978 0.091304
v -1.367646 0.120936 -0.066693
v -0.509697 0.003963 -1.552900
v -0.661633 -0.005606 -1.462465
v -0.430871 0.204879 -1.615276
v -0.772179 0.183382 -1.412123
v 0.301907 0.354644 -0.294823
v 0.025017 0.337205 -0.130013
v 0.314630 0.172730 -0.287983
v 0.041872 0.155551 -0.125632
v -0.585665 -0.000822 -1.507682
v -0.601579 0.194795 -1.513720
v 0.162622 0.356246 -0.212736
v 0.179452 0.149375 -0.206351
v -0.048735 0.285176 -0.964771
v -0.123446 0.055460 -0.902552
v -0.201177 0.050564 -0.856285
v -0.278908 0.045668 -0.810018
v -0.390043 0.263679 -0.761618
v -0.221865 0.304861 -0.864134
v -0.459904 0.134899 -1.592619
v -0.126665 0.183057 -0.910717
v 0.297740 0.236956 -0.283079
v 0.172966 0.229098 -0.208812
v 0.048193 0.221239 -0.134545
v -0.296377 0.172368 -0.809701
v -0.732113 0.117755 -1.430595
v -0.596009 0.126327 -1.511607
v 0.394570 -0.009889 -1.571790
v 0.217928 0.002375 -1.573244
v 0.518143 0.170619 -1.622956
v 0.121338 0.198168 -1.626223
v 0.500062 0.623893 -0.174783
v 0.178149 0.646243 -0.177433
v 0.485080 0.448618 -0.126247
v 0.167970 0.470634 -0.128858
v 0.306249 -0.003757 -1.572517
v 0.319787 0.185034 -1.624767
v 0.339820 0.645029 -0.178865
v 0.325503 0.445376 -0.123609
v 0.528130 0.400202 -0.899890
v 0.404605 0.191650 -0.840985
v 0.314235 0.197924 -0.841729
v 0.223865 0.204198 -0.842473
v 0.131325 0.427751 -0.903157
v 0.331834 0.443349 -0.909653
v 0.473284 0.107969 -1.605176
v 0.421689 0.313787 -0.874879
v 0.476082 0.512246 -0.143709
v 0.331021 0.522317 -0.144903
v 0.185959 0.532388 -0.146097
v 0.224380 0.327486 -0.876503
v 0.156813 0.129941 -1.607781
v 0.315048 0.118955 -1.606479
v 1.274647 0.001019 0.047115
v 1.275259 -0.002322 -0.129925
v 1.391968 0.159415 0.154902
v 1.393342 0.151909 -0.242799
v 0.210348 1.109793 0.095337
v 0.211464 1.103704 -0.227302
v 0.100605 0.963992 0.095302
v 0.101704 0.957994 -0.222524
v 1.274953 -0.000652 -0.041405
v 1.393056 0.156194 -0.043957
v 0.217138 1.115024 -0.066117
v 0.092240 0.949154 -0.063418
v 0.803749 0.638485 0.143828
v 0.668967 0.456947 0.038472
v 0.669280 0.455238 -0.052102
v 0.669593 0.453529 -0.142676
v 0.805124 0.630980 -0.253873
v 0.822811 0.659134 -0.055420
v 1.351171 0.104290 0.115529
v 0.745704 0.559052 0.045116
v 0.139870 1.015820 0.080931
v 0.140372 1.013076 -0.064458
v 0.140875 1.010332 -0.209848
v 0.746387 0.555320 -0.152638
v 1.352267 0.098304 -0.201657
v 1.351719 0.101297 -0.043064
v 1.674335 0.008606 -1.071875
v 1.568006 -0.002053 -1.213068
v 1.743293 0.210202 -1.000633
v 1.504437 0.186256 -1.317806
v 0.509120 0.351540 -0.128951
v 0.315345 0.332114 -0.386261
v 0.505161 0.169611 -0.115254
v 0.314278 0.150474 -0.368724
v 1.621170 0.003277 -1.142471
v 1.623874 0.198893 -1.159276
v 0.412375 0.352148 -0.258492
v 0.409516 0.145277 -0.240721
v 1.137538 0.286400 -0.550204
v 1.069413 0.056017 -0.617325
v 1.015015 0.050564 -0.689559
v 0.960617 0.045110 -0.761793
v 0.898681 0.262454 -0.867377
v 1.018530 0.304861 -0.711405
v 1.718177 0.139974 -1.026914
v 1.076157 0.183666 -0.621626
v 0.497937 0.233754 -0.131619
v 0.410618 0.225000 -0.247569
v 0.323298 0.216246 -0.363520
v 0.957388 0.171759 -0.779338
v 1.527678 0.120876 -1.279875
v 1.622928 0.130425 -1.153394
vt 0.202929 0.237488
vt 0.230203 0.118558
vt 0.250224 0.123149
vt 0.222950 0.242079
vt 0.267269 0.001873
vt 0.277498 0.004219
vt 0.265453 0.126641
vt 0.233627 0.244528
vt 0.295894 0.008437
vt 0.329599 0.127843
vt 0.302326 0.008913
vt 0.322347 0.004321
vt 0.349620 0.123252
vt 0.333023 0.001873
vt 0.364849 0.119759
vt 0.366666 0.244528
vt 0.376894 0.242182
vt 0.395290 0.237963
vt 0.175644 0.855260
vt 0.176905 0.841067
vt 0.196851 0.842865
vt 0.194591 0.868294
vt 0.178166 0.826874
vt 0.199111 0.817437
vt 0.207592 0.843834
vt 0.204654 0.875707
vt 0.210321 0.811941
vt 0.227006 0.888605
vt 0.229078 0.911916
vt 0.216572 0.913043
vt 0.216623 0.887355
vt 0.245106 0.884399
vt 0.249024 0.910118
vt 0.231150 0.935227
vt 0.221152 0.938314
vt 0.249704 0.936130
vt 0.692608 0.116580
vt 0.684320 0.011912
vt 0.705393 0.005519
vt 0.713144 0.115266
vt 0.716656 0.001873
vt 0.729579 0.106566
vt 0.711482 0.215489
vt 0.721819 0.216279
vt 0.740759 0.214389
vt 0.720554 0.228231
vt 0.707723 0.228627
vt 0.741017 0.227600
vt 0.719289 0.240184
vt 0.708717 0.241619
vt 0.737953 0.240913
vt 0.650597 0.111968
vt 0.630206 0.112019
vt 0.647891 0.001873
vt 0.658463 0.003307
vt 0.621954 0.217025
vt 0.641808 0.211896
vt 0.665293 0.104230
vt 0.677126 0.002578
vt 0.652370 0.208923
vt 0.622724 0.224302
vt 0.643187 0.224934
vt 0.654207 0.225274
vt 0.623494 0.231580
vt 0.644567 0.237972
vt 0.655830 0.241619
vt 0.401722 0.234335
vt 0.434204 0.116723
vt 0.454046 0.122200
vt 0.422253 0.239893
vt 0.477084 0.001873
vt 0.487023 0.004647
vt 0.470183 0.126490
vt 0.433233 0.242861
vt 0.505347 0.009691
vt 0.545248 0.127725
vt 0.512812 0.010108
vt 0.531781 0.004734
vt 0.564905 0.122270
vt 0.541864 0.001873
vt 0.578813 0.118244
vt 0.586605 0.242756
vt 0.596846 0.239945
vt 0.614814 0.234944
vt 0.118809 0.290766
vt 0.142783 0.269635
vt 0.223668 0.359884
vt 0.199676 0.381432
vt 0.166757 0.248522
vt 0.247623 0.339188
vt 0.304517 0.450955
vt 0.285061 0.468235
vt 0.323959 0.433964
vt 0.917407 0.806964
vt 0.906487 0.797343
vt 0.987336 0.706272
vt 0.998008 0.715675
vt 0.844759 0.904423
vt 0.825609 0.887750
vt 0.895567 0.787722
vt 0.976664 0.696870
vt 0.806442 0.870664
vt 0.819599 0.244929
vt 0.851608 0.244905
vt 0.851608 0.361716
vt 0.819599 0.362815
vt 0.883618 0.244929
vt 0.883618 0.362815
vt 0.851608 0.480647
vt 0.825641 0.481019
vt 0.877576 0.481019
vt 0.900753 0.362123
vt 0.915333 0.362123
vt 0.915333 0.481053
vt 0.901084 0.481053
vt 0.889753 0.245438
vt 0.915333 0.244905
vt 0.929913 0.362123
vt 0.929582 0.481053
vt 0.940914 0.245438
vt 0.231175 0.696588
vt 0.208274 0.674231
vt 0.292391 0.587554
vt 0.315644 0.609688
vt 0.185388 0.651863
vt 0.269858 0.564963
vt 0.377202 0.500437
vt 0.395897 0.518501
vt 0.358752 0.482217
vt 0.573534 0.813297
vt 0.583962 0.803111
vt 0.668773 0.890228
vt 0.658582 0.900183
vt 0.481591 0.734331
vt 0.499711 0.716349
vt 0.594389 0.792925
vt 0.678964 0.880273
vt 0.518181 0.698589
vt 0.991705 0.238005
vt 0.959832 0.238205
vt 0.962409 0.121350
vt 0.993861 0.120080
vt 0.927939 0.238358
vt 0.930095 0.120433
vt 0.964156 0.002387
vt 0.989875 0.001873
vt 0.938145 0.002159
vt 0.960633 0.359529
vt 0.975155 0.359609
vt 0.976902 0.478572
vt 0.962709 0.478493
vt 0.947049 0.242739
vt 0.972737 0.242349
vt 0.989677 0.359690
vt 0.991095 0.478651
vt 0.998008 0.243021
vt 0.803566 0.240913
vt 0.776092 0.224569
vt 0.837204 0.120023
vt 0.865068 0.136220
vt 0.748636 0.208218
vt 0.810137 0.103524
vt 0.899084 0.015187
vt 0.921501 0.028398
vt 0.876938 0.001873
vt 0.416711 0.353187
vt 0.404201 0.360634
vt 0.342321 0.255797
vt 0.354548 0.248519
vt 0.487216 0.452097
vt 0.465460 0.465235
vt 0.391691 0.368080
vt 0.330095 0.263074
vt 0.443318 0.478226
vt 0.811857 0.477976
vt 0.779933 0.478267
vt 0.781872 0.363176
vt 0.813464 0.361605
vt 0.747994 0.478502
vt 0.749601 0.362131
vt 0.783157 0.245562
vt 0.808947 0.244905
vt 0.757137 0.245331
vt 0.728907 0.363461
vt 0.714363 0.363341
vt 0.713078 0.245727
vt 0.727292 0.245844
vt 0.741859 0.478492
vt 0.716176 0.478916
vt 0.699819 0.363221
vt 0.698863 0.245610
vt 0.690823 0.478072
vt 0.633641 0.246853
vt 0.659173 0.266072
vt 0.587092 0.363497
vt 0.561149 0.344344
vt 0.684687 0.285294
vt 0.612195 0.382786
vt 0.514200 0.461053
vt 0.493351 0.445482
vt 0.534763 0.476669
vt 0.097872 0.569583
vt 0.086246 0.578338
vt 0.013354 0.480783
vt 0.024716 0.472226
vt 0.178676 0.660395
vt 0.158483 0.675788
vt 0.074621 0.587093
vt 0.001992 0.489339
vt 0.137882 0.691116
vt 0.097686 0.847996
vt 0.097686 0.833746
vt 0.117707 0.833746
vt 0.117707 0.859275
vt 0.097686 0.819497
vt 0.117707 0.808218
vt 0.128488 0.833746
vt 0.128383 0.865756
vt 0.128383 0.801737
vt 0.316500 0.933770
vt 0.316500 0.910366
vt 0.329053 0.910366
vt 0.326728 0.935947
vt 0.298104 0.936334
vt 0.296479 0.910366
vt 0.316500 0.886963
vt 0.326728 0.884786
vt 0.298104 0.884399
vt 0.001992 0.237503
vt 0.029097 0.118542
vt 0.049161 0.123115
vt 0.022937 0.242131
vt 0.066903 0.001873
vt 0.076900 0.004194
vt 0.065758 0.126677
vt 0.034147 0.244602
vt 0.095454 0.008403
vt 0.167873 0.118663
vt 0.194919 0.237628
vt 0.175972 0.242132
vt 0.148045 0.123222
vt 0.165909 0.244531
vt 0.134298 0.126606
vt 0.132015 0.001873
vt 0.121632 0.004218
vt 0.103532 0.008399
vt 0.168201 0.831829
vt 0.167214 0.846044
vt 0.147464 0.844628
vt 0.149232 0.819161
vt 0.166227 0.860258
vt 0.145696 0.870094
vt 0.136829 0.843865
vt 0.139150 0.811941
vt 0.134716 0.875804
vt 0.268262 0.888258
vt 0.269883 0.911605
vt 0.257500 0.912493
vt 0.258021 0.886810
vt 0.286231 0.884399
vt 0.289632 0.910188
vt 0.271504 0.934951
vt 0.261565 0.937846
vt 0.289828 0.936208
vt 0.718103 0.501912
vt 0.644738 0.599389
vt 0.628355 0.587030
vt 0.701908 0.489519
vt 0.563549 0.690786
vt 0.555125 0.684482
vt 0.616179 0.577577
vt 0.693281 0.482908
vt 0.540098 0.673121
vt 0.798626 0.601405
vt 0.725248 0.503926
vt 0.741869 0.491611
vt 0.815059 0.589055
vt 0.750741 0.485045
vt 0.827843 0.579713
vt 0.880230 0.692878
vt 0.888572 0.686559
vt 0.903696 0.675216
vt 0.404240 0.517606
vt 0.403955 0.507415
vt 0.424419 0.505912
vt 0.424928 0.524170
vt 0.403671 0.497224
vt 0.423909 0.487654
vt 0.435438 0.505103
vt 0.435970 0.528004
vt 0.414539 0.602654
vt 0.435030 0.602107
vt 0.434693 0.482217
vt 0.435061 0.694598
vt 0.445472 0.692273
vt 0.450916 0.612473
vt 0.464326 0.692726
vt 0.492123 0.689161
vt 0.502608 0.597475
vt 0.517852 0.610128
vt 0.502906 0.694598
vt 0.471884 0.679591
vt 0.482171 0.595016
vt 0.512751 0.518019
vt 0.531503 0.521234
vt 0.502254 0.518808
vt 0.513218 0.501281
vt 0.533682 0.502784
vt 0.500388 0.500338
vt 0.532539 0.484089
vt 0.513685 0.484542
vt 0.503274 0.482217
vt 0.300830 0.701118
vt 0.315076 0.700849
vt 0.315343 0.717256
vt 0.289819 0.717738
vt 0.329323 0.700580
vt 0.340868 0.716775
vt 0.315487 0.726092
vt 0.283482 0.726610
vt 0.347489 0.725402
vt 0.317332 0.807036
vt 0.285265 0.803712
vt 0.349271 0.802504
vt 0.319054 0.880407
vt 0.293069 0.879565
vt 0.344995 0.878585
vt 0.275029 0.864441
vt 0.251629 0.863999
vt 0.251797 0.853712
vt 0.277341 0.856100
vt 0.277347 0.879565
vt 0.251362 0.880407
vt 0.228230 0.863558
vt 0.226190 0.855134
vt 0.253618 0.774220
vt 0.268195 0.774495
vt 0.225421 0.878585
vt 0.239041 0.773945
vt 0.255340 0.700849
vt 0.269586 0.701118
vt 0.241093 0.700580
vt 0.393358 0.703214
vt 0.391949 0.721875
vt 0.379118 0.720773
vt 0.383035 0.700580
vt 0.412315 0.702784
vt 0.412412 0.723633
vt 0.390540 0.740536
vt 0.379955 0.741374
vt 0.409188 0.744196
vt 0.383380 0.807459
vt 0.362997 0.804635
vt 0.397977 0.821628
vt 0.355407 0.877264
vt 0.375191 0.888016
vt 0.385713 0.894120
vt 0.748241 0.888837
vt 0.747383 0.878165
vt 0.767846 0.878088
vt 0.769383 0.897208
vt 0.746525 0.867493
vt 0.766309 0.858967
vt 0.778866 0.878046
vt 0.780686 0.902020
vt 0.754116 0.786397
vt 0.774499 0.785318
vt 0.776832 0.854073
vt 0.771073 0.697271
vt 0.781658 0.698862
vt 0.789095 0.773206
vt 0.800306 0.696870
vt 0.721335 0.864971
vt 0.719926 0.882500
vt 0.707096 0.882451
vt 0.711012 0.863301
vt 0.740292 0.863122
vt 0.740390 0.882577
vt 0.718517 0.900028
vt 0.707932 0.901619
vt 0.692730 0.790654
vt 0.713274 0.789730
vt 0.737165 0.902020
vt 0.729808 0.777736
vt 0.685100 0.710053
vt 0.706242 0.701682
vt 0.717545 0.696870
vt 0.136428 0.700332
vt 0.062779 0.797746
vt 0.050667 0.785773
vt 0.131533 0.695107
vt 0.012358 0.801737
vt 0.090295 0.895570
vt 0.086461 0.900606
vt 0.001992 0.813706
vt 0.420263 0.738169
vt 0.419406 0.726808
vt 0.439869 0.725050
vt 0.441406 0.745406
vt 0.418548 0.715446
vt 0.438332 0.704694
vt 0.450888 0.724103
vt 0.452708 0.749635
vt 0.427894 0.811326
vt 0.448438 0.810633
vt 0.448854 0.698589
vt 0.446176 0.892130
vt 0.456499 0.889496
vt 0.464972 0.822128
vt 0.475456 0.889925
vt 0.207791 0.807950
vt 0.142563 0.704622
vt 0.146793 0.700580
vt 0.219286 0.798071
vn 0.746372 -0.062373 0.662600
vn 0.746372 -0.062373 0.662600
vn 0.746372 -0.062373 0.662600
vn 0.746372 -0.062373 0.662600
vn 0.077729 0.992629 0.092980
vn 0.077729 0.992629 0.092980
vn 0.077729 0.992629 0.092980
vn 0.077729 0.992629 0.092980
vn -0.746373 0.062372 -0.662599
vn -0.746373 0.062372 -0.662599
vn -0.746373 0.062372 -0.662599
vn -0.746373 0.062372 -0.662599
vn -0.086603 -0.996236 0.003774
vn -0.086603 -0.996236 0.003774
vn -0.086603 -0.996236 0.003774
vn -0.086603 -0.996236 0.003774
vn 0.577851 -0.347514 -0.738459
vn 0.577851 -0.347515 -0.738459
vn 0.577851 -0.347514 -0.738459
vn 0.577851 -0.347514 -0.738459
vn -0.682905 -0.232496 0.692522
vn -0.682904 -0.232496 0.692522
vn -0.682905 -0.232496 0.692522
vn -0.682904 -0.232496 0.692522
vn 0.746373 -0.062371 0.662599
vn 0.746373 -0.062371 0.662599
vn 0.746373 -0.062371 0.662599
vn 0.746373 -0.062371 0.662599
vn 0.180806 0.983226 -0.024014
vn 0.180806 0.983226 -0.024014
vn 0.180806 0.983226 -0.024014
vn 0.180806 0.983226 -0.024014
vn -0.746373 0.062372 -0.662599
vn -0.746373 0.062372 -0.662599
vn -0.746373 0.062372 -0.662599
vn -0.746373 0.062372 -0.662599
vn -0.086603 -0.996236 0.003774
vn -0.086603 -0.996236 0.003774
vn -0.086603 -0.996236 0.003774
vn -0.086603 -0.996236 0.003774
vn -0.598165 0.082110 0.797155
vn -0.598165 0.082110 0.797155
vn -0.598165 0.082110 0.797155
vn -0.598165 0.082110 0.797155
vn -0.177215 -0.984170 0.001943
vn -0.177215 -0.984170 0.001943
vn -0.177215 -0.984170 0.001943
vn -0.177215 -0.984170 0.001943
vn -0.099156 -0.991292 -0.086655
vn -0.099156 -0.991292 -0.086655
vn -0.099156 -0.991292 -0.086655
vn -0.099156 -0.991292 -0.086655
vn 0.717213 -0.037891 -0.695824
vn 0.717213 -0.037891 -0.695824
vn 0.717213 -0.037891 -0.695824
vn 0.717213 -0.037891 -0.695824
vn 0.168287 0.982376 -0.081341
vn 0.168287 0.982376 -0.081341
vn 0.168287 0.982376 -0.081341
vn 0.168287 0.982376 -0.081341
vn 0.019380 0.995961 0.087671
vn 0.019380 0.995961 0.087671
vn 0.019380 0.995961 0.087671
vn 0.019380 0.995961 0.087671
vn -0.590136 -0.595846 0.544708
vn -0.590136 -0.595846 0.544708
vn -0.590136 -0.595846 0.544708
vn -0.590136 -0.595846 0.544708
vn -0.622457 -0.420899 0.659841
vn -0.622457 -0.420899 0.659841
vn -0.622457 -0.420899 0.659841
vn -0.622457 -0.420899 0.659841
vn -0.746373 0.062372 -0.662599
vn -0.746373 0.062372 -0.662599
vn -0.746373 0.062372 -0.662599
vn -0.746373 0.062372 -0.662599
vn -0.746373 0.062372 -0.662599
vn -0.746373 0.062372 -0.662599
vn -0.746373 0.062372 -0.662599
vn -0.746373 0.062372 -0.662599
vn 0.538386 -0.526802 -0.657738
vn 0.538386 -0.526802 -0.657738
vn 0.538386 -0.526802 -0.657738
vn 0.538386 -0.526802 -0.657738
vn 0.414858 -0.687532 -0.595980
vn 0.414858 -0.687532 -0.595980
vn 0.414858 -0.687532 -0.595980
vn 0.414858 -0.687532 -0.595980
vn 0.746372 -0.062373 0.662599
vn 0.746372 -0.062373 0.662599
vn 0.746372 -0.062373 0.662599
vn 0.746372 -0.062373 0.662600
vn 0.746373 -0.062371 0.662599
vn 0.746373 -0.062371 0.662599
vn 0.746373 -0.062371 0.662599
vn 0.746373 -0.062371 0.662599
vn 0.000000 -0.223523 0.974699
vn 0.000000 -0.223523 0.974699
vn 0.000000 -0.223523 0.974699
vn 0.000000 -0.223523 0.974699
vn -0.078104 0.957192 0.278718
vn -0.078104 0.957192 0.278718
vn -0.078104 0.957192 0.278718
vn -0.078104 0.957192 0.278718
vn 0.000000 0.223523 -0.974699
vn 0.000000 0.223523 -0.974699
vn 0.000000 0.223523 -0.974699
vn 0.000000 0.223523 -0.974699
vn 0.000000 -0.974699 -0.223523
vn 0.000000 -0.974699 -0.223523
vn 0.000000 -0.974699 -0.223523
vn 0.000000 -0.974699 -0.223523
vn 0.955307 -0.277831 -0.100992
vn 0.955307 -0.277831 -0.100992
vn 0.955307 -0.277831 -0.100992
vn 0.955307 -0.277831 -0.100992
vn -0.955307 -0.277831 -0.100992
vn -0.955307 -0.277831 -0.100992
vn -0.955307 -0.277831 -0.100992
vn -0.955307 -0.277831 -0.100992
vn 0.000000 -0.223523 0.974699
vn 0.000000 -0.223523 0.974699
vn 0.000000 -0.223523 0.974699
vn 0.000000 -0.223523 0.974699
vn 0.078104 0.957192 0.278718
vn 0.078104 0.957192 0.278718
vn 0.078104 0.957192 0.278718
vn 0.078104 0.957192 0.278718
vn -0.000000 0.223523 -0.974699
vn -0.000000 0.223523 -0.974699
vn -0.000000 0.223523 -0.974699
vn -0.000000 0.223523 -0.974699
vn 0.000000 -0.974699 -0.223523
vn 0.000000 -0.974699 -0.223523
vn 0.000000 -0.974699 -0.223523
vn 0.000000 -0.974699 -0.223523
vn -0.996695 0.009181 0.080714
vn -0.996695 0.009181 0.080714
vn -0.996695 0.009181 0.080714
vn -0.996695 0.009181 0.080714
vn -0.059147 -0.955068 -0.290424
vn -0.059147 -0.955068 -0.290424
vn -0.059147 -0.955068 -0.290424
vn -0.059147 -0.955068 -0.290424
vn 0.059147 -0.955068 -0.290424
vn 0.059147 -0.955068 -0.290424
vn 0.059147 -0.955068 -0.290424
vn 0.059147 -0.955068 -0.290424
vn 0.996695 0.009181 0.080714
vn 0.996695 0.009181 0.080714
vn 0.996695 0.009181 0.080714
vn 0.996695 0.009181 0.080714
vn 0.112830 0.966088 0.232255
vn 0.112830 0.966088 0.232255
vn 0.112830 0.966089 0.232255
vn 0.112830 0.966089 0.232255
vn -0.112830 0.966089 0.232255
vn -0.112830 0.966089 0.232255
vn -0.112830 0.966089 0.232255
vn -0.112830 0.966089 0.232255
vn -0.761510 -0.620931 -0.185870
vn -0.761510 -0.620931 -0.185870
vn -0.761510 -0.620931 -0.185870
vn -0.761510 -0.620931 -0.185870
vn -0.879601 -0.463425 -0.107427
vn -0.879601 -0.463425 -0.107427
vn -0.879601 -0.463425 -0.107427
vn -0.879601 -0.463425 -0.107427
vn -0.000000 0.223523 -0.974699
vn -0.000000 0.223523 -0.974699
vn -0.000000 0.223523 -0.974699
vn -0.000000 0.223523 -0.974699
vn 0.000000 0.223523 -0.974699
vn 0.000000 0.223523 -0.974699
vn 0.000000 0.223523 -0.974699
vn 0.000000 0.223523 -0.974699
vn 0.879601 -0.463425 -0.107427
vn 0.879601 -0.463425 -0.107427
vn 0.879601 -0.463424 -0.107427
vn 0.879601 -0.463425 -0.107427
vn 0.761510 -0.620931 -0.185870
vn 0.761510 -0.620931 -0.185870
vn 0.761510 -0.620931 -0.185870
vn 0.761510 -0.620931 -0.185870
vn 0.000001 -0.223524 0.974698
vn 0.000001 -0.223524 0.974698
vn 0.000001 -0.223524 0.974698
vn 0.000001 -0.223524 0.974698
vn -0.000001 -0.223524 0.974698
vn -0.000001 -0.223524 0.974698
vn -0.000001 -0.223524 0.974698
vn -0.000001 -0.223524 0.974698
vn -0.713972 -0.084357 0.695074
vn -0.713972 -0.084357 0.695074
vn -0.713972 -0.084357 0.695074
vn -0.713972 -0.084357 0.695074
vn -0.142015 0.988217 0.057088
vn -0.142015 0.988217 0.057088
vn -0.142015 0.988217 0.057088
vn -0.142015 0.988217 0.057088
vn 0.713973 0.084357 -0.695073
vn 0.713973 0.084357 -0.695073
vn 0.713973 0.084357 -0.695073
vn 0.713973 0.084357 -0.695073
vn 0.046464 -0.996236 -0.073180
vn 0.046464 -0.996236 -0.073180
vn 0.046464 -0.996236 -0.073180
vn 0.046464 -0.996236 -0.073180
vn 0.706980 -0.308267 0.636515
vn 0.706980 -0.308267 0.636515
vn 0.706980 -0.308267 0.636515
vn 0.706980 -0.308267 0.636515
vn -0.627832 -0.270145 -0.729965
vn -0.627832 -0.270145 -0.729965
vn -0.627832 -0.270145 -0.729965
vn -0.627832 -0.270145 -0.729965
vn -0.713973 -0.084357 0.695073
vn -0.713973 -0.084357 0.695073
vn -0.713973 -0.084357 0.695073
vn -0.713973 -0.084357 0.695073
vn -0.032883 0.985100 0.168808
vn -0.032883 0.985100 0.168808
vn -0.032883 0.985100 0.168808
vn -0.032883 0.985100 0.168808
vn 0.713973 0.084357 -0.695073
vn 0.713973 0.084357 -0.695073
vn 0.713973 0.084357 -0.695073
vn 0.713973 0.084357 -0.695073
vn 0.046464 -0.996236 -0.073180
vn 0.046464 -0.996236 -0.073180
vn 0.046464 -0.996236 -0.073180
vn 0.046464 -0.996236 -0.073180
vn -0.752279 0.040312 -0.657610
vn -0.752280 0.040312 -0.657610
vn -0.752279 0.040312 -0.657610
vn -0.752279 0.040312 -0.657610
vn 0.054638 -0.985021 -0.163551
vn 0.054638 -0.985021 -0.163551
vn 0.054638 -0.985021 -0.163551
vn 0.054638 -0.985021 -0.163551
vn 0.137281 -0.987381 -0.078947
vn 0.137281 -0.987381 -0.078947
vn 0.137281 -0.987381 -0.078947
vn 0.137281 -0.987381 -0.078947
vn 0.640363 0.000538 0.768072
vn 0.640363 0.000538 0.768072
vn 0.640363 0.000538 0.768072
vn 0.640363 0.000538 0.768072
vn 0.025211 0.986688 0.160659
vn 0.025211 0.986688 0.160659
vn 0.025211 0.986688 0.160659
vn 0.025211 0.986688 0.160659
vn -0.132442 0.991190 -0.000735
vn -0.132442 0.991191 -0.000735
vn -0.132442 0.991190 -0.000735
vn -0.132442 0.991190 -0.000735
vn -0.471708 -0.625563 -0.621419
vn -0.471708 -0.625563 -0.621419
vn -0.471708 -0.625563 -0.621419
vn -0.471708 -0.625563 -0.621419
vn -0.591611 -0.456276 -0.664687
vn -0.591611 -0.456276 -0.664687
vn -0.591611 -0.456276 -0.664687
vn -0.591611 -0.456276 -0.664687
vn 0.713973 0.084357 -0.695073
vn 0.713973 0.084357 -0.695073
vn 0.713973 0.084357 -0.695073
vn 0.713973 0.084357 -0.695073
vn 0.713973 0.084357 -0.695073
vn 0.713973 0.084357 -0.695073
vn 0.713973 0.084357 -0.695073
vn 0.713973 0.084357 -0.695073
vn 0.637420 -0.491377 0.593502
vn 0.637420 -0.491377 0.593502
vn 0.637420 -0.491377 0.593502
vn 0.637420 -0.491377 0.593502
vn 0.592319 -0.655952 0.467852
vn 0.592319 -0.655952 0.467852
vn 0.592319 -0.655952 0.467852
vn 0.592319 -0.655952 0.467852
vn -0.713972 -0.084359 0.695073
vn -0.713972 -0.084359 0.695073
vn -0.713972 -0.084359 0.695073
vn -0.713972 -0.084359 0.695073
vn -0.713973 -0.084358 0.695073
vn -0.713973 -0.084358 0.695073
vn -0.713973 -0.084358 0.695073
vn -0.713973 -0.084358 0.695073
vn -0.974964 -0.221901 0.014319
vn -0.974964 -0.221901 0.014319
vn -0.974964 -0.221901 0.014319
vn -0.974964 -0.221901 0.014319
vn -0.277078 0.946733 -0.164088
vn -0.277078 0.946733 -0.164088
vn -0.277078 0.946733 -0.164088
vn -0.277078 0.946733 -0.164088
vn 0.974964 0.221900 -0.014319
vn 0.974964 0.221900 -0.014319
vn 0.974964 0.221900 -0.014319
vn 0.974964 0.221900 -0.014319
vn 0.222293 -0.971043 0.087532
vn 0.222293 -0.971043 0.087532
vn 0.222293 -0.971043 0.087532
vn 0.222293 -0.971043 0.087532
vn 0.095369 -0.192250 0.976701
vn 0.095369 -0.192250 0.976701
vn 0.095369 -0.192250 0.976701
vn 0.095369 -0.192250 0.976701
vn 0.105913 -0.361385 -0.926382
vn 0.105913 -0.361385 -0.926382
vn 0.105913 -0.361385 -0.926382
vn 0.105913 -0.361385 -0.926382
vn -0.974964 -0.221901 0.014320
vn -0.974964 -0.221901 0.014320
vn -0.974964 -0.221901 0.014320
vn -0.974964 -0.221901 0.014320
vn -0.277940 0.960561 -0.008496
vn -0.277940 0.960561 -0.008496
vn -0.277940 0.960561 -0.008496
vn -0.277940 0.960561 -0.008496
vn 0.974964 0.221900 -0.014319
vn 0.974964 0.221900 -0.014319
vn 0.974964 0.221900 -0.014319
vn 0.974964 0.221900 -0.014319
vn 0.222293 -0.971043 0.087532
vn 0.222293 -0.971043 0.087532
vn 0.222293 -0.971043 0.087532
vn 0.222293 -0.971043 0.087532
vn -0.075200 -0.079025 -0.994032
vn -0.075200 -0.079025 -0.994032
vn -0.075200 -0.079025 -0.994032
vn -0.075200 -0.079025 -0.994032
vn 0.289544 -0.956777 0.027256
vn 0.289544 -0.956776 0.027256
vn 0.289544 -0.956777 0.027256
vn 0.289544 -0.956777 0.027256
vn 0.288891 -0.946305 0.145083
vn 0.288891 -0.946305 0.145083
vn 0.288891 -0.946305 0.145083
vn 0.288891 -0.946305 0.145083
vn -0.086201 0.097438 0.991502
vn -0.086201 0.097438 0.991502
vn -0.086201 0.097438 0.991502
vn -0.086201 0.097438 0.991502
vn -0.231658 0.972461 0.025567
vn -0.231658 0.972461 0.025567
vn -0.231658 0.972461 0.025567
vn -0.231658 0.972461 0.025567
vn -0.230413 0.952485 -0.199204
vn -0.230413 0.952485 -0.199204
vn -0.230413 0.952485 -0.199204
vn -0.230413 0.952485 -0.199204
vn 0.189288 -0.686047 -0.702503
vn 0.189288 -0.686047 -0.702503
vn 0.189288 -0.686047 -0.702503
vn 0.189288 -0.686047 -0.702503
vn 0.111696 -0.539553 -0.834510
vn 0.111696 -0.539553 -0.834510
vn 0.111696 -0.539553 -0.834510
vn 0.111696 -0.539553 -0.834510
vn 0.974964 0.221900 -0.014319
vn 0.974964 0.221900 -0.014319
vn 0.974964 0.221900 -0.014319
vn 0.974964 0.221900 -0.014319
vn 0.974964 0.221900 -0.014319
vn 0.974964 0.221900 -0.014319
vn 0.974964 0.221900 -0.014319
vn 0.974964 0.221900 -0.014319
vn 0.101988 -0.383822 0.917758
vn 0.101988 -0.383822 0.917758
vn 0.101988 -0.383822 0.917758
vn 0.101988 -0.383822 0.917758
vn 0.180883 -0.551223 0.814515
vn 0.180883 -0.551223 0.814515
vn 0.180883 -0.551223 0.814515
vn 0.180883 -0.551223 0.814515
vn -0.974964 -0.221899 0.014320
vn -0.974964 -0.221900 0.014320
vn -0.974964 -0.221899 0.014320
vn -0.974964 -0.221900 0.014320
vn -0.974964 -0.221900 0.014319
vn -0.974964 -0.221900 0.014319
vn -0.974964 -0.221900 0.014319
vn -0.974964 -0.221900 0.014319
vn -0.507139 -0.067777 -0.859195
vn -0.507139 -0.067777 -0.859195
vn -0.507139 -0.067777 -0.859195
vn -0.507139 -0.067777 -0.859195
vn -0.042916 0.991836 -0.120079
vn -0.042916 0.991836 -0.120079
vn -0.042916 0.991836 -0.120079
vn -0.042916 0.991836 -0.120079
vn 0.507140 0.067777 0.859195
vn 0.507140 0.067777 0.859195
vn 0.507140 0.067777 0.859195
vn 0.507140 0.067777 0.859195
vn 0.081048 -0.996236 0.030749
vn 0.081048 -0.996236 0.030749
vn 0.081048 -0.996236 0.030749
vn 0.081048 -0.996236 0.030749
vn -0.777491 -0.341435 0.528138
vn -0.777491 -0.341435 0.528138
vn -0.777491 -0.341435 0.528138
vn -0.777491 -0.341435 0.528139
vn 0.861900 -0.238182 -0.447658
vn 0.861900 -0.238182 -0.447658
vn 0.861900 -0.238182 -0.447658
vn 0.861900 -0.238182 -0.447658
vn -0.507140 -0.067777 -0.859195
vn -0.507140 -0.067777 -0.859195
vn -0.507140 -0.067778 -0.859195
vn -0.507140 -0.067777 -0.859195
vn -0.176949 0.983395 -0.040300
vn -0.176949 0.983395 -0.040300
vn -0.176949 0.983395 -0.040300
vn -0.176949 0.983395 -0.040300
vn 0.507140 0.067777 0.859195
vn 0.507140 0.067777 0.859195
vn 0.507140 0.067777 0.859195
vn 0.507140 0.067777 0.859195
vn 0.081048 -0.996236 0.030749
vn 0.081048 -0.996236 0.030749
vn 0.081048 -0.996236 0.030749
vn 0.081048 -0.996236 0.030749
vn 0.814165 0.075558 -0.575697
vn 0.814165 0.075558 -0.575697
vn 0.814165 0.075558 -0.575697
vn 0.814165 0.075558 -0.575697
vn 0.166755 -0.984158 0.060210
vn 0.166755 -0.984158 0.060210
vn 0.166755 -0.984158 0.060210
vn 0.166755 -0.984158 0.060210
vn 0.065254 -0.990551 0.120625
vn 0.065254 -0.990551 0.120625
vn 0.065254 -0.990551 0.120625
vn 0.065254 -0.990551 0.120625
vn -0.896253 -0.032168 0.442376
vn -0.896253 -0.032168 0.442376
vn -0.896253 -0.032168 0.442376
vn -0.896253 -0.032168 0.442376
vn -0.182631 0.983015 0.018108
vn -0.182631 0.983015 0.018108
vn -0.182631 0.983015 0.018108
vn -0.182631 0.983015 0.018108
vn 0.010996 0.995210 -0.097142
vn 0.010996 0.995210 -0.097142
vn 0.010996 0.995210 -0.097142
vn 0.010996 0.995210 -0.097142
vn 0.727318 -0.600307 -0.332626
vn 0.727318 -0.600307 -0.332626
vn 0.727318 -0.600307 -0.332626
vn 0.727318 -0.600307 -0.332626
vn 0.793861 -0.426310 -0.433641
vn 0.793861 -0.426310 -0.433641
vn 0.793861 -0.426310 -0.433641
vn 0.793861 -0.426310 -0.433641
vn 0.507140 0.067777 0.859195
vn 0.507140 0.067777 0.859195
vn 0.507140 0.067777 0.859195
vn 0.507140 0.067777 0.859195
vn 0.507140 0.067777 0.859195
vn 0.507140 0.067777 0.859195
vn 0.507140 0.067777 0.859195
vn 0.507140 0.067777 0.859195
vn -0.715612 -0.521380 0.464825
vn -0.715612 -0.521380 0.464825
vn -0.715612 -0.521380 0.464825
vn -0.715612 -0.521380 0.464825
vn -0.579500 -0.682613 0.445217
vn -0.579500 -0.682614 0.445217
vn -0.579500 -0.682614 0.445217
vn -0.579500 -0.682613 0.445217
vn -0.507140 -0.067777 -0.859195
vn -0.507140 -0.067777 -0.859195
vn -0.507140 -0.067777 -0.859195
vn -0.507140 -0.067777 -0.859195
vn -0.507140 -0.067778 -0.859195
vn -0.507140 -0.067778 -0.859195
vn -0.507140 -0.067778 -0.859195
vn -0.507140 -0.067778 -0.859195
vn -0.010532 -0.266017 -0.963911
vn -0.010532 -0.266017 -0.963911
vn -0.010532 -0.266017 -0.963911
vn -0.010532 -0.266017 -0.963911
vn 0.145924 0.936171 -0.319828
vn 0.145924 0.936171 -0.319828
vn 0.145924 0.936171 -0.319828
vn 0.145924 0.936171 -0.319828
vn 0.010534 0.266017 0.963911
vn 0.010534 0.266017 0.963911
vn 0.010534 0.266017 0.963911
vn 0.010534 0.266017 0.963911
vn -0.068944 -0.961477 0.266099
vn -0.068944 -0.961477 0.266099
vn -0.068944 -0.961477 0.266099
vn -0.068944 -0.961477 0.266099
vn -0.972824 -0.206244 0.105246
vn -0.972824 -0.206244 0.105246
vn -0.972824 -0.206244 0.105246
vn -0.972824 -0.206244 0.105246
vn 0.933137 -0.338572 0.120936
vn 0.933137 -0.338572 0.120936
vn 0.933137 -0.338572 0.120936
vn 0.933137 -0.338571 0.120936
vn -0.010534 -0.266017 -0.963911
vn -0.010534 -0.266017 -0.963911
vn -0.010534 -0.266017 -0.963911
vn -0.010534 -0.266017 -0.963911
vn -0.009903 0.946990 -0.321111
vn -0.009903 0.946990 -0.321111
vn -0.009903 0.946990 -0.321111
vn -0.009903 0.946990 -0.321111
vn 0.010534 0.266018 0.963911
vn 0.010534 0.266018 0.963911
vn 0.010534 0.266018 0.963911
vn 0.010534 0.266018 0.963911
vn -0.068944 -0.961477 0.266099
vn -0.068944 -0.961477 0.266099
vn -0.068944 -0.961477 0.266099
vn -0.068944 -0.961477 0.266099
vn 0.995322 -0.063462 -0.072851
vn 0.995322 -0.063462 -0.072851
vn 0.995322 -0.063462 -0.072851
vn 0.995322 -0.063462 -0.072851
vn -0.008920 -0.943041 0.332557
vn -0.008920 -0.943041 0.332557
vn -0.008920 -0.943041 0.332557
vn -0.008920 -0.943041 0.332557
vn -0.126925 -0.934848 0.331586
vn -0.126925 -0.934848 0.331586
vn -0.126925 -0.934848 0.331586
vn -0.126925 -0.934848 0.331586
vn -0.993214 0.074598 -0.089221
vn -0.993214 0.074598 -0.089221
vn -0.993214 0.074598 -0.089221
vn -0.993214 0.074598 -0.089221
vn -0.044165 0.960323 -0.275370
vn -0.044165 0.960323 -0.275370
vn -0.044165 0.960323 -0.275370
vn -0.044165 0.960323 -0.275370
vn 0.180945 0.944694 -0.273517
vn 0.180945 0.944694 -0.273517
vn 0.180945 0.944694 -0.273517
vn 0.180945 0.944694 -0.273517
vn 0.715511 -0.663320 0.219203
vn 0.715511 -0.663320 0.219203
vn 0.715511 -0.663320 0.219203
vn 0.715511 -0.663320 0.219203
vn 0.844673 -0.518007 0.134892
vn 0.844673 -0.518007 0.134892
vn 0.844673 -0.518007 0.134892
vn 0.844673 -0.518007 0.134892
vn 0.010534 0.266017 0.963911
vn 0.010534 0.266018 0.963911
vn 0.010534 0.266018 0.963911
vn 0.010534 0.266017 0.963911
vn 0.010533 0.266017 0.963911
vn 0.010533 0.266017 0.963911
vn 0.010533 0.266017 0.963911
vn 0.010533 0.266017 0.963911
vn -0.910244 -0.396167 0.120445
vn -0.910244 -0.396167 0.120445
vn -0.910244 -0.396167 0.120445
vn -0.910244 -0.396167 0.120445
vn -0.803800 -0.557837 0.206695
vn -0.803800 -0.557837 0.206695
vn -0.803800 -0.557837 0.206695
vn -0.803800 -0.557837 0.206695
vn -0.010534 -0.266018 -0.963910
vn -0.010534 -0.266019 -0.963910
vn -0.010534 -0.266019 -0.963910
vn -0.010534 -0.266019 -0.963910
vn -0.010534 -0.266018 -0.963911
vn -0.010534 -0.266018 -0.963911
vn -0.010534 -0.266018 -0.963911
vn -0.010534 -0.266018 -0.963911
vn 0.798885 -0.601319 0.014110
vn 0.798885 -0.601319 0.014110
vn 0.798885 -0.601319 0.014110
vn 0.798885 -0.601319 0.014110
vn 0.644467 0.761781 0.065969
vn 0.644467 0.761781 0.065969
vn 0.644467 0.761781 0.065969
vn 0.644467 0.761782 0.065969
vn -0.798885 0.601319 -0.014110
vn -0.798885 0.601319 -0.014110
vn -0.798885 0.601319 -0.014110
vn -0.798885 0.601319 -0.014110
vn -0.601475 -0.798786 0.012996
vn -0.601475 -0.798786 0.012996
vn -0.601475 -0.798786 0.012996
vn -0.601475 -0.798786 0.012996
vn -0.202184 -0.230520 -0.951831
vn -0.202184 -0.230520 -0.951831
vn -0.202184 -0.230520 -0.951831
vn -0.202184 -0.230520 -0.951831
vn -0.208787 -0.194470 0.958431
vn -0.208787 -0.194470 0.958431
vn -0.208787 -0.194470 0.958431
vn -0.208787 -0.194470 0.958431
vn 0.798884 -0.601320 0.014110
vn 0.798884 -0.601319 0.014110
vn 0.798884 -0.601319 0.014110
vn 0.798884 -0.601320 0.014110
vn 0.645007 0.758834 -0.090209
vn 0.645007 0.758834 -0.090209
vn 0.645006 0.758834 -0.090209
vn 0.645007 0.758834 -0.090209
vn -0.798885 0.601319 -0.014110
vn -0.798885 0.601319 -0.014110
vn -0.798885 0.601319 -0.014110
vn -0.798885 0.601319 -0.014110
vn -0.601475 -0.798786 0.012996
vn -0.601475 -0.798786 0.012996
vn -0.601475 -0.798786 0.012996
vn -0.601475 -0.798786 0.012996
vn 0.073999 -0.005707 0.997242
vn 0.073999 -0.005707 0.997242
vn 0.073999 -0.005707 0.997242
vn 0.073999 -0.005707 0.997242
vn -0.654765 -0.752482 0.071096
vn -0.654765 -0.752482 0.071096
vn -0.654765 -0.752482 0.071096
vn -0.654765 -0.752482 0.071096
vn -0.654356 -0.754714 -0.047177
vn -0.654356 -0.754714 -0.047177
vn -0.654356 -0.754714 -0.047177
vn -0.654356 -0.754714 -0.047177
vn 0.080888 -0.043320 -0.995781
vn 0.080888 -0.043320 -0.995781
vn 0.080888 -0.043320 -0.995781
vn 0.080889 -0.043320 -0.995781
vn 0.606327 0.785238 -0.125574
vn 0.606327 0.785238 -0.125574
vn 0.606327 0.785238 -0.125574
vn 0.606327 0.785238 -0.125574
vn 0.605547 0.789496 0.100045
vn 0.605547 0.789496 0.100045
vn 0.605548 0.789496 0.100045
vn 0.605547 0.789496 0.100045
vn -0.425498 -0.476779 0.769177
vn -0.425498 -0.476779 0.769177
vn -0.425498 -0.476779 0.769177
vn -0.425498 -0.476779 0.769177
vn -0.290065 -0.362720 0.885605
vn -0.290065 -0.362720 0.885605
vn -0.290065 -0.362720 0.885605
vn -0.290065 -0.362720 0.885605
vn -0.798885 0.601319 -0.014109
vn -0.798885 0.601319 -0.014109
vn -0.798885 0.601319 -0.014109
vn -0.798884 0.601319 -0.014109
vn -0.798884 0.601319 -0.014110
vn -0.798884 0.601319 -0.014110
vn -0.798884 0.601319 -0.014110
vn -0.798884 0.601319 -0.014110
vn -0.283985 -0.395914 -0.873272
vn -0.283985 -0.395914 -0.873272
vn -0.283985 -0.395914 -0.873272
vn -0.283985 -0.395914 -0.873272
vn -0.420234 -0.505516 -0.753563
vn -0.420234 -0.505516 -0.753563
vn -0.420234 -0.505516 -0.753563
vn -0.420234 -0.505516 -0.753563
vn 0.798885 -0.601319 0.014110
vn 0.798885 -0.601319 0.014110
vn 0.798885 -0.601319 0.014110
vn 0.798885 -0.601319 0.014110
vn 0.798883 -0.601321 0.014109
vn 0.798883 -0.601321 0.014109
vn 0.798883 -0.601321 0.014109
vn 0.798883 -0.601321 0.014109
vn 0.799519 -0.062372 -0.597393
vn 0.799520 -0.062372 -0.597393
vn 0.799519 -0.062372 -0.597393
vn 0.799519 -0.062372 -0.597393
vn 0.106747 0.992629 -0.057378
vn 0.106747 0.992629 -0.057378
vn 0.106747 0.992629 -0.057378
vn 0.106747 0.992629 -0.057378
vn -0.799520 0.062372 0.597393
vn -0.799520 0.062372 0.597393
vn -0.799520 0.062372 0.597393
vn -0.799520 0.062372 0.597393
vn -0.013771 -0.996236 0.085584
vn -0.013771 -0.996236 0.085584
vn -0.013771 -0.996236 0.085584
vn -0.013771 -0.996236 0.085584
vn -0.606735 -0.347515 -0.714917
vn -0.606735 -0.347515 -0.714917
vn -0.606735 -0.347515 -0.714917
vn -0.606735 -0.347515 -0.714917
vn 0.540554 -0.232495 0.808547
vn 0.540554 -0.232495 0.808547
vn 0.540554 -0.232495 0.808547
vn 0.540554 -0.232495 0.808547
vn 0.799520 -0.062372 -0.597393
vn 0.799520 -0.062372 -0.597393
vn 0.799520 -0.062372 -0.597393
vn 0.799520 -0.062372 -0.597393
vn 0.012947 0.983226 -0.181933
vn 0.012947 0.983226 -0.181933
vn 0.012947 0.983226 -0.181933
vn 0.012947 0.983226 -0.181933
vn -0.799520 0.062372 0.597393
vn -0.799520 0.062372 0.597393
vn -0.799520 0.062372 0.597393
vn -0.799520 0.062372 0.597393
vn -0.013771 -0.996236 0.085584
vn -0.013771 -0.996236 0.085584
vn -0.013771 -0.996236 0.085584
vn -0.013771 -0.996236 0.085584
vn 0.660128 0.082110 0.746652
vn 0.660128 0.082110 0.746652
vn 0.660128 0.082110 0.746652
vn 0.660128 0.082110 0.746652
vn -0.033840 -0.984170 0.173965
vn -0.033840 -0.984170 0.173965
vn -0.033840 -0.984170 0.173965
vn -0.033840 -0.984170 0.173965
vn -0.104873 -0.991292 0.079641
vn -0.104873 -0.991292 0.079641
vn -0.104873 -0.991292 0.079641
vn -0.104873 -0.991292 0.079641
vn -0.536867 -0.037892 -0.842816
vn -0.536867 -0.037892 -0.842816
vn -0.536867 -0.037892 -0.842816
vn -0.536867 -0.037892 -0.842816
vn -0.045727 0.982376 -0.181234
vn -0.045727 0.982376 -0.181234
vn -0.045727 0.982376 -0.181234
vn -0.045727 0.982376 -0.181234
vn 0.089778 0.995961 -0.001299
vn 0.089778 0.995961 -0.001299
vn 0.089778 0.995961 -0.001299
vn 0.089778 0.995961 -0.001299
vn 0.414487 -0.595847 0.687871
vn 0.414487 -0.595847 0.687871
vn 0.414487 -0.595847 0.687871
vn 0.414487 -0.595847 0.687871
vn 0.520736 -0.420899 0.742750
vn 0.520736 -0.420899 0.742750
vn 0.520736 -0.420899 0.742750
vn 0.520736 -0.420899 0.742750
vn -0.799520 0.062372 0.597392
vn -0.799520 0.062372 0.597393
vn -0.799520 0.062372 0.597392
vn -0.799520 0.062372 0.597392
vn -0.799520 0.062372 0.597393
vn -0.799520 0.062372 0.597393
vn -0.799520 0.062372 0.597393
vn -0.799520 0.062372 0.597393
vn -0.535633 -0.526802 -0.659983
vn -0.535633 -0.526802 -0.659983
vn -0.535633 -0.526802 -0.659983
vn -0.535633 -0.526802 -0.659983
vn -0.500059 -0.687531 -0.526538
vn -0.500059 -0.687531 -0.526538
vn -0.500059 -0.687531 -0.526538
vn -0.500059 -0.687531 -0.526538
vn 0.799520 -0.062373 -0.597392
vn 0.799520 -0.062373 -0.597392
vn 0.799520 -0.062373 -0.597392
vn 0.799520 -0.062373 -0.597392
vn 0.799519 -0.062373 -0.597393
vn 0.799519 -0.062373 -0.597393
vn 0.799519 -0.062373 -0.597393
vn 0.799519 -0.062373 -0.597393
s off
g pCube2
usemtl initialShadingGroup
f 105/562/385 113/563/386 130/564/387 123/565/388
f 107/289/389 114/290/390 122/291/391 117/292/392
f 125/577/393 126/578/394 116/579/395 111/580/396
f 118/298/397 119/299/398 113/300/399 105/301/400
f 106/566/401 120/570/402 128/571/403 129/567/404
f 118/585/405 105/589/406 123/590/407 124/586/408
f 113/563/409 106/566/410 129/567/411 130/564/412
f 122/291/413 114/290/414 108/293/415 121/294/416
f 116/579/417 126/578/418 127/583/419 112/584/420
f 113/300/421 119/299/422 120/304/423 106/305/424
f 111/580/425 118/585/426 124/586/427 125/577/428
f 111/302/429 116/303/430 119/299/431 118/298/432
f 120/304/433 119/299/434 116/303/435 112/306/436
f 128/571/437 120/570/438 112/573/439 127/574/440
f 115/295/441 122/291/442 121/294/443 110/297/444
f 117/292/445 122/291/446 115/295/447 109/296/448
f 124/586/449 123/590/450 107/591/451 117/588/452
f 125/577/453 124/586/454 117/588/455 109/581/456
f 109/581/457 115/582/458 126/578/459 125/577/460
f 127/583/461 126/578/462 115/582/463 110/587/464
f 121/575/465 128/571/466 127/574/467 110/576/468
f 129/592/469 128/593/470 121/594/471 108/595/472
f 130/564/473 129/567/474 108/572/475 114/568/476
f 123/565/477 130/564/478 114/568/479 107/569/480
f 131/415/481 139/416/482 156/417/483 149/418/484
f 133/307/485 140/308/486 148/309/487 143/310/488
f 151/424/489 152/425/490 142/426/491 137/427/492
f 144/316/493 145/317/494 139/318/495 131/319/496
f 132/205/497 146/206/498 154/207/499 155/208/500
f 144/214/501 131/215/502 149/216/503 150/217/504
f 139/416/505 132/419/506 155/420/507 156/417/508
f 148/309/509 140/308/510 134/311/511 147/312/512
f 142/426/513 152/425/514 153/430/515 138/431/516
f 139/318/517 145/317/518 146/322/519 132/323/520
f 137/220/521 144/214/522 150/217/523 151/221/524
f 137/320/525 142/321/526 145/317/527 144/316/528
f 146/322/529 145/317/530 142/321/531 138/324/532
f 154/207/533 146/206/534 138/209/535 153/210/536
f 141/313/537 148/309/538 147/312/539 136/315/540
f 143/310/541 148/309/542 141/313/543 135/314/544
f 150/217/545 149/216/546 133/218/547 143/219/548
f 151/221/549 150/217/550 143/219/551 135/222/552
f 135/428/553 141/429/554 152/425/555 151/424/556
f 153/430/557 152/425/558 141/429/559 136/432/560
f 147/211/561 154/207/562 153/210/563 136/213/564
f 155/208/565 154/207/566 147/211/567 134/212/568
f 156/417/569 155/420/570 134/423/571 140/421/572
f 149/418/573 156/417/574 140/421/575 133/422/576
f 157/487/577 165/488/578 182/489/579 175/490/580
f 159/325/581 166/326/582 174/327/583 169/328/584
f 177/515/585 178/511/586 168/513/587 163/516/588
f 170/334/589 171/335/590 165/336/591 157/337/592
f 158/506/593 172/507/594 180/503/595 181/502/596
f 170/495/597 157/487/598 175/490/599 176/496/600
f 165/488/601 158/491/602 181/492/603 182/489/604
f 174/327/605 166/326/606 160/329/607 173/330/608
f 168/513/609 178/511/610 179/508/611 164/510/612
f 165/336/613 171/335/614 172/340/615 158/341/616
f 163/498/617 170/495/618 176/496/619 177/499/620
f 163/338/621 168/339/622 171/335/623 170/334/624
f 172/340/625 171/335/626 168/339/627 164/342/628
f 180/503/629 172/507/630 164/510/631 179/508/632
f 167/331/633 174/327/634 173/330/635 162/333/636
f 169/328/637 174/327/638 167/331/639 161/332/640
f 176/596/641 175/597/642 159/598/643 169/599/644
f 177/499/645 176/496/646 169/500/647 161/501/648
f 161/514/649 167/512/650 178/511/651 177/515/652
f 179/508/653 178/511/654 167/512/655 162/509/656
f 173/504/657 180/503/658 179/508/659 162/509/660
f 181/502/661 180/503/662 173/504/663 160/505/664
f 182/489/665 181/492/666 160/497/667 166/493/668
f 175/490/669 182/489/670 166/493/671 159/494/672
f 183/223/673 191/224/674 208/225/675 201/226/676
f 185/343/677 192/344/678 200/345/679 195/346/680
f 203/232/681 204/233/682 194/234/683 189/235/684
f 196/352/685 197/353/686 191/354/687 183/355/688
f 184/433/689 198/434/690 206/435/691 207/436/692
f 196/442/693 183/443/694 201/444/695 202/445/696
f 191/224/697 184/227/698 207/228/699 208/225/700
f 200/345/701 192/344/702 186/347/703 199/348/704
f 194/234/705 204/233/706 205/238/707 190/239/708
f 191/354/709 197/353/710 198/358/711 184/359/712
f 189/448/713 196/442/714 202/445/715 203/449/716
f 189/356/717 194/357/718 197/353/719 196/352/720
f 198/358/721 197/353/722 194/357/723 190/360/724
f 206/435/725 198/434/726 190/437/727 205/438/728
f 193/349/729 200/345/730 199/348/731 188/351/732
f 195/346/733 200/345/734 193/349/735 187/350/736
f 202/445/737 201/444/738 185/446/739 195/447/740
f 203/449/741 202/445/742 195/447/743 187/450/744
f 187/236/745 193/237/746 204/233/747 203/232/748
f 205/238/749 204/233/750 193/237/751 188/240/752
f 199/439/753 206/435/754 205/438/755 188/441/756
f 207/436/757 206/435/758 199/439/759 186/440/760
f 208/225/761 207/228/762 186/231/763 192/229/764
f 201/226/765 208/225/766 192/229/767 185/230/768
f 209/268/769 217/265/770 234/266/771 227/269/772
f 211/361/773 218/362/774 226/363/775 221/364/776
f 229/248/777 230/250/778 220/251/779 215/247/780
f 222/370/781 223/371/782 217/372/783 209/373/784
f 210/260/785 224/257/786 232/256/787 233/261/788
f 222/241/789 209/242/790 227/243/791 228/244/792
f 217/265/793 210/260/794 233/261/795 234/266/796
f 226/363/797 218/362/798 212/365/799 225/366/800
f 220/251/801 230/250/802 231/253/803 216/254/804
f 217/372/805 223/371/806 224/376/807 210/377/808
f 215/247/809 222/241/810 228/244/811 229/248/812
f 215/374/813 220/375/814 223/371/815 222/370/816
f 224/376/817 223/371/818 220/375/819 216/378/820
f 232/256/821 224/257/822 216/258/823 231/259/824
f 219/367/825 226/363/826 225/366/827 214/369/828
f 221/364/829 226/363/830 219/367/831 213/368/832
f 228/244/833 227/243/834 211/245/835 221/246/836
f 229/248/837 228/244/838 221/246/839 213/249/840
f 213/249/841 219/252/842 230/250/843 229/248/844
f 231/253/845 230/250/846 219/252/847 214/255/848
f 225/262/849 232/256/850 231/259/851 214/263/852
f 233/261/853 232/256/854 225/262/855 212/264/856
f 234/266/857 233/261/858 212/264/859 218/267/860
f 227/269/861 234/266/862 218/267/863 211/270/864
f 235/451/865 243/452/866 260/453/867 253/454/868
f 237/379/869 244/380/870 252/381/871 247/382/872
f 255/460/873 256/461/874 246/462/875 241/463/876
f 248/388/877 249/389/878 243/390/879 235/391/880
f 236/271/881 250/272/882 258/273/883 259/274/884
f 248/280/885 235/281/886 253/282/887 254/283/888
f 243/452/889 236/455/890 259/456/891 260/453/892
f 252/381/893 244/380/894 238/383/895 251/384/896
f 246/462/897 256/461/898 257/466/899 242/467/900
f 243/390/901 249/389/902 250/394/903 236/395/904
f 241/286/905 248/280/906 254/283/907 255/287/908
f 241/392/909 246/393/910 249/389/911 248/388/912
f 250/394/913 249/389/914 246/393/915 242/396/916
f 258/273/917 250/272/918 242/275/919 257/276/920
f 245/385/921 252/381/922 251/384/923 240/387/924
f 247/382/925 252/381/926 245/385/927 239/386/928
f 254/283/929 253/282/930 237/284/931 247/285/932
f 255/287/933 254/283/934 247/285/935 239/288/936
f 239/464/937 245/465/938 256/461/939 255/460/940
f 257/466/941 256/461/942 245/465/943 240/468/944
f 251/277/945 258/273/946 257/276/947 240/279/948
f 259/274/949 258/273/950 251/277/951 238/278/952
f 260/453/953 259/456/954 238/459/955 244/457/956
f 253/454/957 260/453/958 244/457/959 237/458/960
f 261/517/961 269/518/962 286/519/963 279/520/964
f 263/524/965 270/523/966 278/526/967 273/527/968
f 281/532/969 282/533/970 272/534/971 267/535/972
f 274/541/973 275/540/974 269/544/975 261/545/976
f 262/469/977 276/470/978 284/471/979 285/472/980
f 274/478/981 261/479/982 279/480/983 280/481/984
f 269/518/985 262/521/986 285/522/987 286/519/988
f 278/526/989 270/523/990 264/525/991 277/528/992
f 272/534/993 282/533/994 283/538/995 268/539/996
f 269/544/997 275/540/998 276/543/999 262/546/1000
f 267/484/1001 274/478/1002 280/481/1003 281/485/1004
f 267/535/1005 272/534/1006 275/540/1007 274/541/1008
f 276/543/1009 275/540/1010 272/534/1011 268/539/1012
f 284/471/1013 276/470/1014 268/473/1015 283/474/1016
f 271/529/1017 278/526/1018 277/528/1019 266/531/1020
f 273/527/1021 278/526/1022 271/529/1023 265/530/1024
f 280/481/1025 279/480/1026 263/482/1027 273/483/1028
f 281/485/1029 280/481/1030 273/483/1031 265/486/1032
f 265/536/1033 271/537/1034 282/533/1035 281/532/1036
f 283/538/1037 282/533/1038 271/537/1039 266/542/1040
f 277/475/1041 284/471/1042 283/474/1043 266/477/1044
f 285/472/1045 284/471/1046 277/475/1047 264/476/1048
f 286/519/1049 285/522/1050 264/525/1051 270/523/1052
f 279/520/1053 286/519/1054 270/523/1055 263/524/1056
f 287/600/1057 295/601/1058 312/602/1059 305/603/1060
f 289/397/1061 296/398/1062 304/399/1063 299/400/1064
f 307/547/1065 308/548/1066 298/549/1067 293/550/1068
f 300/406/1069 301/407/1070 295/408/1071 287/409/1072
f 288/559/1073 302/557/1074 310/556/1075 311/560/1076
f 300/608/1077 287/600/1078 305/603/1079 306/609/1080
f 295/601/1081 288/604/1082 311/605/1083 312/602/1084
f 304/399/1085 296/398/1086 290/401/1087 303/402/1088
f 298/549/1089 308/548/1090 309/553/1091 294/554/1092
f 295/408/1093 301/407/1094 302/412/1095 288/413/1096
f 293/611/1097 300/608/1098 306/609/1099 307/612/1100
f 293/410/1101 298/411/1102 301/407/1103 300/406/1104
f 302/412/1105 301/407/1106 298/411/1107 294/414/1108
f 310/556/1109 302/557/1110 294/554/1111 309/553/1112
f 297/403/1113 304/399/1114 303/402/1115 292/405/1116
f 299/400/1117 304/399/1118 297/403/1119 291/404/1120
f 306/615/1121 305/616/1122 289/617/1123 299/618/1124
f 307/612/1125 306/609/1126 299/613/1127 291/614/1128
f 291/551/1129 297/552/1130 308/548/1131 307/547/1132
f 309/553/1133 308/548/1134 297/552/1135 292/555/1136
f 303/558/1137 310/556/1138 309/553/1139 292/555/1140
f 311/560/1141 310/556/1142 303/558/1143 290/561/1144
f 312/602/1145 311/605/1146 290/610/1147 296/606/1148
f 305/603/1149 312/602/1150 296/606/1151 289/607/1152
