# This file uses centimeters as units for non-parametric coordinates.

mtllib Rock_04.mtl
g default
v 1.320709 0.005428 7.820441
v 1.867002 0.005428 7.822248
v 1.422945 0.284743 7.706958
v 1.766249 0.284743 7.762285
v 1.436986 0.284743 7.443177
v 1.784643 0.284743 7.399428
v 1.323881 0.005428 7.264914
v 1.906756 0.005428 7.238446
v 1.595613 0.005428 8.005457
v 1.595613 0.306473 7.742654
v 1.595613 0.284743 7.337933
v 1.595613 0.005428 7.092830
v 1.331484 0.284743 7.556311
v 1.175102 0.005428 7.556311
v 1.595613 0.005428 7.556311
v 1.996769 0.005428 7.556311
v 1.859742 0.284743 7.556311
v 1.595613 0.336097 7.556311
v 1.331484 0.145086 7.820441
v 1.180813 0.145086 7.556311
v 1.331484 0.145086 7.292182
v 1.595613 0.145086 7.152939
v 1.859742 0.145086 7.292182
v 1.982499 0.145086 7.556311
v 1.846884 0.145086 7.800598
v 1.595613 0.145086 7.903329
vt 0.671598 0.285251
vt 0.671598 0.156220
vt 0.799752 0.156220
vt 0.799752 0.274747
vt 0.671598 0.001992
vt 0.799752 0.028065
vt 0.927907 0.156220
vt 0.927907 0.256158
vt 0.927907 0.080100
vt 0.001852 0.856623
vt 0.001852 0.728468
vt 0.130007 0.728468
vt 0.130007 0.856623
vt 0.258162 0.783530
vt 0.258162 0.856623
vt 0.001852 0.998008
vt 0.130007 0.984778
vt 0.258162 0.911516
vt 0.452311 0.028837
vt 0.536089 0.011517
vt 0.536089 0.101930
vt 0.407934 0.101930
vt 0.618881 0.001992
vt 0.664244 0.101930
vt 0.536089 0.207887
vt 0.459124 0.156823
vt 0.627806 0.178049
vt 0.536089 0.297645
vt 0.407934 0.230085
vt 0.001852 0.226872
vt 0.205883 0.226872
vt 0.205883 0.444796
vt 0.072500 0.355027
vt 0.074039 0.085487
vt 0.205883 0.001992
vt 0.400522 0.226872
vt 0.337560 0.355904
vt 0.356848 0.072644
vt 0.138819 0.448507
vt 0.272202 0.448507
vt 0.272202 0.576662
vt 0.144047 0.576662
vt 0.403879 0.448507
vt 0.394118 0.576662
vt 0.272202 0.724757
vt 0.188424 0.704817
vt 0.354994 0.704817
vt 0.537739 0.580477
vt 0.537739 0.452322
vt 0.665893 0.452322
vt 0.665893 0.584166
vt 0.537739 0.324167
vt 0.665893 0.301356
vt 0.409584 0.452322
vt 0.409584 0.360605
vn -0.420787 0.325794 0.846638
vn -0.420787 0.325794 0.846638
vn -0.420787 0.325794 0.846638
vn -0.420787 0.325794 0.846638
vn -0.174124 0.975697 0.133028
vn -0.174124 0.975697 0.133028
vn -0.174124 0.975697 0.133028
vn -0.174124 0.975697 0.133028
vn -0.483225 0.273340 -0.831733
vn -0.483225 0.273340 -0.831733
vn -0.483225 0.273340 -0.831733
vn -0.483225 0.273340 -0.831732
vn 0.000000 -1.000000 0.000000
vn 0.000000 -1.000000 0.000000
vn 0.000000 -1.000000 0.000000
vn 0.000000 -1.000000 0.000000
vn 0.877990 0.143489 0.456667
vn 0.877990 0.143489 0.456667
vn 0.877990 0.143489 0.456667
vn 0.877990 0.143489 0.456667
vn -0.871034 0.051409 0.488525
vn -0.871034 0.051409 0.488525
vn -0.871034 0.051409 0.488525
vn -0.871034 0.051409 0.488525
vn 0.441980 0.389846 0.807882
vn 0.441980 0.389846 0.807882
vn 0.441980 0.389846 0.807882
vn 0.441980 0.389846 0.807882
vn 0.159803 0.980759 0.112139
vn 0.159803 0.980759 0.112139
vn 0.159803 0.980759 0.112139
vn 0.159803 0.980759 0.112139
vn 0.406178 0.402701 -0.820275
vn 0.406178 0.402701 -0.820275
vn 0.406178 0.402701 -0.820275
vn 0.406178 0.402701 -0.820275
vn 0.000000 -1.000000 0.000000
vn 0.000000 -1.000000 0.000000
vn 0.000000 -1.000000 0.000000
vn 0.000000 -1.000000 0.000000
vn -0.876850 0.087939 -0.472654
vn -0.876850 0.087939 -0.472654
vn -0.876850 0.087939 -0.472654
vn -0.876850 0.087939 -0.472654
vn 0.000000 -1.000000 0.000000
vn 0.000000 -1.000000 0.000000
vn 0.000000 -1.000000 0.000000
vn 0.000000 -1.000000 0.000000
vn 0.000000 -1.000000 0.000000
vn 0.000000 -1.000000 0.000000
vn 0.000000 -1.000000 0.000000
vn 0.000000 -1.000000 0.000000
vn 0.906248 0.262575 -0.331314
vn 0.906248 0.262575 -0.331314
vn 0.906248 0.262575 -0.331314
vn 0.906248 0.262575 -0.331314
vn 0.132608 0.978105 -0.160390
vn 0.132608 0.978105 -0.160390
vn 0.132608 0.978105 -0.160390
vn 0.132608 0.978105 -0.160390
vn -0.167682 0.964754 -0.202812
vn -0.167682 0.964754 -0.202812
vn -0.167682 0.964754 -0.202812
vn -0.167682 0.964754 -0.202812
vn -0.625035 0.690072 0.364873
vn -0.625035 0.690072 0.364873
vn -0.625035 0.690072 0.364873
vn -0.625035 0.690072 0.364873
vn -0.567019 0.728181 -0.385023
vn -0.567019 0.728181 -0.385023
vn -0.567019 0.728181 -0.385023
vn -0.567019 0.728180 -0.385023
vn -0.315748 0.776023 -0.545977
vn -0.315748 0.776023 -0.545977
vn -0.315748 0.776024 -0.545977
vn -0.315748 0.776023 -0.545977
vn 0.277166 0.729169 -0.625692
vn 0.277166 0.729169 -0.625692
vn 0.277166 0.729169 -0.625692
vn 0.277166 0.729169 -0.625692
vn 0.705199 0.626786 -0.331411
vn 0.705199 0.626786 -0.331411
vn 0.705199 0.626786 -0.331411
vn 0.705199 0.626786 -0.331411
vn 0.726301 0.579574 0.369568
vn 0.726301 0.579574 0.369568
vn 0.726301 0.579574 0.369568
vn 0.726301 0.579574 0.369568
vn 0.186429 0.576014 0.795897
vn 0.186429 0.576014 0.795897
vn 0.186429 0.576014 0.795897
vn 0.186429 0.576014 0.795897
vn -0.220894 0.692520 0.686747
vn -0.220894 0.692520 0.686747
vn -0.220894 0.692520 0.686747
vn -0.220894 0.692520 0.686747
s off
g pCube5
usemtl initialShadingGroup
f 1/39/1 9/40/2 26/41/3 19/42/4
f 3/19/5 10/20/6 18/21/7 13/22/8
f 21/48/9 22/49/10 12/50/11 7/51/12
f 14/30/13 15/31/14 9/32/15 1/33/16
f 2/1/17 16/2/18 24/3/19 25/4/20
f 14/10/21 1/11/22 19/12/23 20/13/24
f 9/40/25 2/43/26 25/44/27 26/41/28
f 18/21/29 10/20/30 4/23/31 17/24/32
f 12/50/33 22/49/34 23/52/35 8/53/36
f 9/32/37 15/31/38 16/36/39 2/37/40
f 7/16/41 14/10/42 20/13/43 21/17/44
f 7/34/45 12/35/46 15/31/47 14/30/48
f 16/36/49 15/31/50 12/35/51 8/38/52
f 24/3/53 16/2/54 8/5/55 23/6/56
f 11/25/57 18/21/58 17/24/59 6/27/60
f 13/22/61 18/21/62 11/25/63 5/26/64
f 20/13/65 19/12/66 3/14/67 13/15/68
f 21/17/69 20/13/70 13/15/71 5/18/72
f 5/26/73 11/25/74 22/28/75 21/29/76
f 23/52/77 22/49/78 11/54/79 6/55/80
f 17/7/81 24/3/82 23/6/83 6/9/84
f 25/4/85 24/3/86 17/7/87 4/8/88
f 26/41/89 25/44/90 4/47/91 10/45/92
f 19/42/93 26/41/94 10/45/95 3/46/96
