# This file uses centimeters as units for non-parametric coordinates.

mtllib Convenience Store.mtl
g default
v -16.441174 2.697010 3.402189
v -16.540710 2.697010 3.402189
v -16.441174 4.934743 3.402189
v -16.540710 4.934743 3.402189
v -16.441174 4.934743 4.666423
v -16.540710 4.934743 4.666423
v -16.441174 2.697010 4.666423
v -16.540710 2.697010 4.666423
v -16.540710 2.785451 4.571231
v -16.540710 2.785451 3.497379
v -16.540710 4.846301 4.571231
v -16.540710 4.846301 3.497379
v -16.455442 2.785451 4.571231
v -16.455442 2.785451 3.497379
v -16.455442 4.846301 4.571231
v -16.455442 4.846301 3.497379
v -16.471199 3.777675 3.644069
v -16.471199 3.736008 3.644069
v -16.471199 3.715175 3.601742
v -16.471199 3.736008 3.559415
v -16.471199 3.777675 3.559415
v -16.471199 3.798508 3.601742
v -16.447666 3.777675 3.644069
v -16.447666 3.736008 3.644069
v -16.447666 3.715175 3.601742
v -16.447666 3.736008 3.559415
v -16.447666 3.777675 3.559415
v -16.447666 3.798508 3.601742
v -16.471199 3.756841 3.601742
v -16.447666 3.756841 3.601742
vt 0.684420 0.001992
vt 0.942926 0.001992
vt 0.942926 0.498096
vt 0.684420 0.498096
vt 0.063440 0.001992
vt 0.367777 0.001992
vt 0.367777 0.540677
vt 0.063440 0.540677
vt 0.373930 0.001992
vt 0.678267 0.001992
vt 0.655352 0.023282
vt 0.396845 0.023282
vt 0.678267 0.540677
vt 0.655352 0.519386
vt 0.373930 0.540677
vt 0.396845 0.519386
vt 0.748832 0.501904
vt 0.758862 0.501904
vt 0.753847 0.512093
vt 0.763877 0.512093
vt 0.743817 0.512093
vt 0.758862 0.522283
vt 0.748832 0.522283
vt 0.732949 0.522283
vt 0.722918 0.522283
vt 0.727934 0.512093
vt 0.717903 0.512093
vt 0.737964 0.512093
vt 0.722918 0.501904
vt 0.732949 0.501904
vt 0.899300 0.806241
vt 0.875339 0.806241
vt 0.875339 0.501904
vt 0.899300 0.501904
vt 0.869486 0.806241
vt 0.845525 0.806241
vt 0.845525 0.501904
vt 0.869486 0.501904
vt 0.819146 0.760410
vt 0.819146 0.501904
vt 0.839672 0.501904
vt 0.839672 0.760410
vt 0.792767 0.760410
vt 0.792767 0.501904
vt 0.813293 0.501904
vt 0.813293 0.760410
vt 0.781248 0.522282
vt 0.781248 0.512093
vt 0.786913 0.512093
vt 0.786913 0.522282
vt 0.781248 0.501904
vt 0.786913 0.501904
vt 0.769730 0.522282
vt 0.769730 0.512093
vt 0.775396 0.512093
vt 0.775396 0.522282
vt 0.769730 0.501904
vt 0.775396 0.501904
vt 0.025861 0.540677
vt 0.001900 0.540677
vt 0.001900 0.001992
vt 0.025861 0.001992
vt 0.055795 0.540677
vt 0.031834 0.540677
vt 0.031834 0.001992
vt 0.055795 0.001992
vt 0.931532 0.998008
vt 0.931532 0.501904
vt 0.952058 0.501904
vt 0.952058 0.998008
vt 0.905153 0.998008
vt 0.905153 0.501904
vt 0.925680 0.501904
vt 0.925680 0.998008
vt 0.706385 0.511934
vt 0.706385 0.501904
vt 0.712051 0.501904
vt 0.712051 0.511934
vt 0.694867 0.511934
vt 0.694867 0.501904
vt 0.700532 0.501904
vt 0.700532 0.511934
vn 0.000000 0.000000 -1.000000
vn 0.000000 0.000000 -1.000000
vn 0.000000 0.000000 -1.000000
vn 0.000000 0.000000 -1.000000
vn 0.000000 1.000000 0.000000
vn 0.000000 1.000000 0.000000
vn 0.000000 1.000000 0.000000
vn 0.000000 1.000000 0.000000
vn 0.000000 0.000000 1.000000
vn 0.000000 0.000000 1.000000
vn 0.000000 0.000000 1.000000
vn 0.000000 0.000000 1.000000
vn 0.000000 -1.000000 0.000000
vn 0.000000 -1.000000 0.000000
vn 0.000000 -1.000000 0.000000
vn 0.000000 -1.000000 0.000000
vn -1.000000 0.000000 0.000000
vn -1.000000 0.000000 0.000000
vn -1.000000 0.000000 0.000000
vn -1.000000 0.000000 0.000000
vn 1.000000 0.000000 0.000000
vn 1.000000 0.000000 0.000000
vn 1.000000 0.000000 0.000000
vn 1.000000 0.000000 0.000000
vn -1.000000 -0.000005 0.000000
vn -1.000000 -0.000005 0.000000
vn -1.000000 -0.000005 0.000000
vn -1.000000 -0.000005 0.000000
vn -1.000000 0.000000 0.000000
vn -1.000000 0.000000 0.000000
vn -1.000000 0.000000 0.000000
vn -1.000000 0.000000 0.000000
vn -1.000000 -0.000005 0.000000
vn -1.000000 -0.000005 0.000000
vn -1.000000 -0.000005 0.000000
vn -1.000000 -0.000005 0.000000
vn -1.000000 0.000000 0.000000
vn -1.000000 0.000000 0.000000
vn -1.000000 0.000000 0.000000
vn -1.000000 0.000000 0.000000
vn 0.000000 1.000000 0.000000
vn 0.000000 1.000000 0.000000
vn 0.000000 1.000000 0.000000
vn 0.000000 1.000000 0.000000
vn 0.000000 0.000000 -1.000000
vn 0.000000 0.000000 -1.000000
vn 0.000000 0.000000 -1.000000
vn 0.000000 0.000000 -1.000000
vn 0.000000 -1.000000 0.000000
vn 0.000000 -1.000000 0.000000
vn 0.000000 -1.000000 0.000000
vn 0.000000 -1.000000 0.000000
vn 0.000000 0.000000 1.000000
vn 0.000000 0.000000 1.000000
vn 0.000000 0.000000 1.000000
vn 0.000000 0.000000 1.000000
vn 0.000000 0.000000 1.000000
vn 0.000000 0.000000 1.000000
vn 0.000000 0.000000 1.000000
vn 0.000000 0.000000 1.000000
vn 0.000000 -0.897215 0.441595
vn 0.000000 -0.897215 0.441595
vn 0.000000 -0.897215 0.441595
vn 0.000000 -0.897215 0.441595
vn 0.000000 -0.897215 -0.441595
vn 0.000000 -0.897215 -0.441595
vn 0.000000 -0.897215 -0.441595
vn 0.000000 -0.897215 -0.441595
vn 0.000000 0.000000 -1.000000
vn 0.000000 0.000000 -1.000000
vn 0.000000 0.000000 -1.000000
vn 0.000000 0.000000 -1.000000
vn 0.000000 0.897217 -0.441589
vn 0.000000 0.897217 -0.441589
vn 0.000000 0.897217 -0.441589
vn 0.000000 0.897217 -0.441589
vn 0.000000 0.897217 0.441589
vn 0.000000 0.897217 0.441589
vn 0.000000 0.897217 0.441589
vn 0.000000 0.897217 0.441589
vn -1.000000 0.000000 0.000000
vn -1.000000 0.000000 0.000000
vn -1.000000 0.000000 0.000000
vn -1.000000 0.000000 0.000000
vn -1.000000 0.000000 0.000000
vn -1.000000 0.000000 0.000000
vn -1.000000 0.000000 0.000000
vn -1.000000 0.000000 0.000000
vn -1.000000 0.000000 0.000000
vn -1.000000 0.000000 0.000000
vn -1.000000 0.000000 0.000000
vn -1.000000 0.000000 0.000000
vn -1.000000 0.000000 0.000000
vn -1.000000 0.000000 0.000000
vn -1.000000 0.000000 0.000000
vn -1.000000 0.000000 0.000000
vn -1.000000 0.000000 0.000000
vn -1.000000 0.000000 0.000000
vn 1.000000 0.000000 0.000000
vn 1.000000 0.000000 0.000000
vn 1.000000 0.000000 0.000000
vn 1.000000 0.000000 0.000000
vn 1.000000 0.000000 0.000000
vn 1.000000 0.000000 0.000000
vn 1.000000 0.000000 0.000000
vn 1.000000 0.000000 0.000000
vn 1.000000 0.000000 0.000000
vn 1.000000 0.000000 0.000000
vn 1.000000 0.000000 0.000000
vn 1.000000 0.000000 0.000000
vn 1.000000 0.000000 0.000000
vn 1.000000 0.000000 0.000000
vn 1.000000 0.000000 0.000000
vn 1.000000 0.000000 0.000000
vn 1.000000 0.000000 0.000000
vn 1.000000 0.000000 0.000000
s off
g polySurface410
usemtl blinn17SG
f 1/59/1 2/60/2 4/61/3 3/62/4
f 3/31/5 4/32/6 6/33/7 5/34/8
f 5/63/9 6/64/10 8/65/11 7/66/12
f 7/35/13 8/36/14 2/37/15 1/38/16
f 14/1/17 13/2/18 15/3/19 16/4/20
f 7/5/21 1/6/22 3/7/23 5/8/24
f 2/9/25 8/10/26 9/11/27 10/12/28
f 8/10/29 6/13/30 11/14/31 9/11/32
f 6/13/33 4/15/34 12/16/35 11/14/36
f 4/15/37 2/9/38 10/12/39 12/16/40
f 10/39/41 9/40/42 13/41/43 14/42/44
f 9/67/45 11/68/46 15/69/47 13/70/48
f 11/43/49 12/44/50 16/45/51 15/46/52
f 12/71/53 10/72/54 14/73/55 16/74/56
f 17/75/57 18/76/58 24/77/59 23/78/60
f 18/47/61 19/48/62 25/49/63 24/50/64
f 19/48/65 20/51/66 26/52/67 25/49/68
f 20/79/69 21/80/70 27/81/71 26/82/72
f 21/53/73 22/54/74 28/55/75 27/56/76
f 22/54/77 17/57/78 23/58/79 28/55/80
f 18/17/81 17/18/82 29/19/83
f 19/21/84 18/17/85 29/19/86
f 20/23/87 19/21/88 29/19/89
f 21/22/90 20/23/91 29/19/92
f 22/20/93 21/22/94 29/19/95
f 17/18/96 22/20/97 29/19/98
f 23/24/99 24/25/100 30/26/101
f 24/25/102 25/27/103 30/26/104
f 25/27/105 26/29/106 30/26/107
f 26/29/108 27/30/109 30/26/110
f 27/30/111 28/28/112 30/26/113
f 28/28/114 23/24/115 30/26/116
g default
v -16.608685 2.558218 5.303626
v -12.224303 2.558218 5.303626
v -12.224303 2.694047 5.303626
v -16.608685 2.694047 5.303626
v -16.608685 2.558218 0.004345
v -16.608685 2.694047 0.004345
v -12.224303 2.558218 0.004345
v -12.224303 2.694047 0.004345
v -12.224303 2.694047 5.303626
v -16.608685 2.694047 5.303626
v -16.608685 2.694047 -0.445704
v -16.608685 2.558218 -0.445704
v -16.608685 2.694047 0.004345
v -13.391356 2.558218 -0.445704
v -13.391356 2.694047 -0.445704
v -12.224303 2.694047 0.004345
v -12.582252 2.694047 5.093595
v -16.443993 2.694047 5.093595
v -16.608685 2.694047 -0.445704
v -16.608685 2.558218 -5.303626
v -16.608685 2.694047 -5.303626
v -16.443993 2.694047 0.004173
v -13.391356 2.558218 -5.303626
v -13.391356 2.694047 -5.303626
v -13.391356 2.694047 -0.445704
v -12.582252 2.694047 0.004173
v -12.582252 6.221924 5.093595
v -16.443993 6.221924 5.093595
v -16.608685 2.694047 -5.303626
v -16.443993 2.694047 -0.428053
v -16.443993 6.221924 0.004173
v -13.391356 2.694047 -5.303626
v -13.610184 2.694047 -0.428053
v -12.582252 5.641582 4.587412
v -12.582252 5.641582 0.506954
v -12.582252 3.661954 0.506954
v -12.582252 6.221924 0.004173
v -12.582252 3.661954 4.587412
v -12.264357 6.221924 5.310412
v -16.761887 6.221924 5.310412
v -16.443993 2.694047 -5.093595
v -16.443993 6.221923 -0.428053
v -16.761887 6.221924 0.004350
v -13.610184 2.694047 -5.093595
v -13.610184 6.221923 -0.428053
v -12.264357 6.221924 0.004350
v -12.264357 6.518636 5.310412
v -16.761887 6.518636 5.310412
v -16.443993 6.221923 -5.093595
v -16.761887 6.221923 -0.446274
v -16.761887 6.518636 0.004350
v -13.610184 6.221923 -5.093595
v -13.461526 6.221923 -0.446274
v -12.264357 6.518636 0.004350
v -16.761887 6.221923 -5.310412
v -16.761887 6.518635 -0.446275
v -13.461526 6.221923 -5.310412
v -13.461526 6.518635 -0.446275
v -16.761887 6.518635 -5.310412
v -13.461526 6.518635 -5.310412
v -12.725283 3.661954 4.587412
v -12.725283 5.641582 4.587412
v -12.725283 5.641582 0.506954
v -12.725283 3.661954 0.506954
vt 0.186020 0.700847
vt 0.178279 0.700847
vt 0.178279 0.700847
vt 0.178279 0.700847
vt 0.178279 0.700847
vt 0.178279 0.760876
vt 0.178279 0.760876
vt 0.186020 0.760876
vt 0.186020 0.760876
vt 0.186020 0.700847
vt 0.178279 0.766196
vt 0.178279 0.766196
vt 0.186020 0.766196
vt 0.186020 0.766196
vt 0.178279 0.826225
vt 0.178279 0.826225
vt 0.186020 0.826225
vt 0.186020 0.826225
vt 0.186020 0.826225
vt 0.186020 0.826225
vt 0.466632 0.254808
vt 0.466632 0.001992
vt 0.473112 0.001992
vt 0.473112 0.254808
vt 0.473112 0.276279
vt 0.466632 0.276279
vt 0.466632 0.508038
vt 0.473112 0.508038
vt 0.789865 0.764818
vt 0.789865 0.512002
vt 0.796345 0.512002
vt 0.796345 0.764818
vt 0.589127 0.743761
vt 0.582647 0.743761
vt 0.582647 0.512002
vt 0.589127 0.512002
vt 0.822685 0.754806
vt 0.822685 0.512002
vt 0.990992 0.512002
vt 0.990992 0.754806
vt 0.822685 0.775426
vt 0.990992 0.775426
vt 0.822685 0.998008
vt 0.990992 0.998008
vt 0.756087 0.730657
vt 0.756087 0.535988
vt 0.661643 0.535988
vt 0.615467 0.512002
vt 0.783773 0.512002
vt 0.783773 0.754806
vt 0.615467 0.754806
vt 0.661643 0.730657
vt 0.222790 0.255131
vt 0.222790 0.001992
vt 0.236946 0.001992
vt 0.236946 0.255131
vt 0.222790 0.276630
vt 0.236945 0.276630
vt 0.222790 0.508686
vt 0.236945 0.508686
vt 0.408248 0.735231
vt 0.408248 0.512649
vt 0.576555 0.512649
vt 0.576555 0.735231
vt 0.802438 0.765141
vt 0.802438 0.512002
vt 0.816593 0.512002
vt 0.816593 0.765141
vt 0.595219 0.744058
vt 0.595219 0.512002
vt 0.609375 0.512002
vt 0.609375 0.744058
vt 0.261977 0.512649
vt 0.356421 0.512649
vt 0.356421 0.707318
vt 0.261977 0.707318
vt 0.480178 0.255222
vt 0.689347 0.255222
vt 0.689347 0.508038
vt 0.480178 0.508038
vt 0.480178 0.233752
vt 0.633669 0.233752
vt 0.480178 0.001992
vt 0.633669 0.001992
vt 0.696927 0.001992
vt 0.906095 0.001992
vt 0.889018 0.012012
vt 0.704784 0.012012
vt 0.906095 0.254808
vt 0.889018 0.254816
vt 0.696927 0.254808
vt 0.704784 0.254816
vt 0.850417 0.276279
vt 0.839978 0.275437
vt 0.696927 0.276279
vt 0.704784 0.275437
vt 0.850417 0.508038
vt 0.839978 0.498018
vt 0.696927 0.508038
vt 0.704784 0.498018
vt 0.017144 0.498342
vt 0.201378 0.498342
vt 0.216544 0.508686
vt 0.001978 0.508686
vt 0.201378 0.255538
vt 0.216544 0.255547
vt 0.017144 0.255538
vt 0.001978 0.255547
vt 0.152338 0.234918
vt 0.159430 0.234048
vt 0.017144 0.234918
vt 0.001978 0.234048
vt 0.152338 0.012336
vt 0.159430 0.001992
vt 0.017144 0.012336
vt 0.001978 0.001992
vt 0.244078 0.001992
vt 0.458644 0.001992
vt 0.458644 0.255131
vt 0.244078 0.255131
vt 0.244078 0.276630
vt 0.401530 0.276630
vt 0.401530 0.508686
vt 0.244078 0.508686
vt 0.369336 0.512649
vt 0.369336 0.707318
vt 0.362513 0.707318
vt 0.362513 0.512649
vt 0.255885 0.512649
vt 0.255885 0.707318
vt 0.249061 0.707318
vt 0.249061 0.512649
vt 0.375429 0.721818
vt 0.375429 0.512649
vt 0.381909 0.512649
vt 0.381909 0.721818
vt 0.242143 0.766959
vt 0.242143 0.711282
vt 0.248623 0.711282
vt 0.248623 0.766959
vt 0.074663 0.696884
vt 0.074663 0.512649
vt 0.242969 0.512649
vt 0.242969 0.696884
vt 0.164733 0.854338
vt 0.164733 0.700847
vt 0.171213 0.700847
vt 0.171213 0.854338
vt 0.068571 0.680956
vt 0.019530 0.680956
vt 0.019530 0.512649
vt 0.068571 0.512649
vt 0.388001 0.727216
vt 0.388001 0.512649
vt 0.402156 0.512649
vt 0.402156 0.727216
vt 0.137172 0.869153
vt 0.001978 0.869153
vt 0.001978 0.700847
vt 0.137172 0.700847
vt 0.235010 0.700847
vt 0.235010 0.757961
vt 0.220855 0.757961
vt 0.220855 0.700847
vt 0.157600 0.700847
vt 0.157600 0.858299
vt 0.143445 0.858299
vt 0.143445 0.700847
vt 0.200585 0.700847
vt 0.200585 0.795290
vt 0.193761 0.795290
vt 0.193761 0.700847
vt 0.214132 0.700847
vt 0.214132 0.795290
vt 0.207308 0.795290
vt 0.207308 0.700847
vn 0.000000 0.000000 1.000000
vn 0.000000 0.000000 1.000000
vn 0.000000 0.000000 1.000000
vn 0.000000 0.000000 1.000000
vn -1.000000 -0.000007 0.000000
vn -1.000000 -0.000007 0.000000
vn -1.000000 -0.000007 0.000000
vn -1.000000 -0.000007 0.000000
vn 0.000000 -1.000000 0.000000
vn 0.000000 -1.000000 0.000000
vn 0.000000 -1.000000 0.000000
vn 0.000000 -1.000000 0.000000
vn 1.000000 0.000000 0.000000
vn 0.980013 0.000000 -0.198932
vn 0.980013 0.000000 -0.198932
vn 1.000000 0.000000 0.000000
vn 0.000000 0.000000 0.000000
vn 0.000000 0.000000 0.000000
vn 0.000000 0.000000 0.000000
vn 0.000000 0.000000 0.000000
vn -1.000000 -0.000001 0.000000
vn -1.000000 -0.000001 0.000000
vn 0.000000 0.000000 0.000000
vn 0.000000 0.000000 0.000000
vn 0.000000 0.000000 0.000000
vn 0.000000 0.000000 0.000000
vn 0.000000 -1.000000 0.000000
vn 0.000000 -1.000000 0.000000
vn 0.976672 0.000001 -0.214739
vn 0.976672 0.000001 -0.214739
vn 0.000000 0.000000 0.000000
vn 0.000000 0.000000 0.000000
vn 0.000000 0.000000 0.000000
vn 0.000000 0.000000 0.000000
vn 0.000000 1.000000 0.000000
vn 0.000000 1.000000 0.000000
vn 0.000000 1.000000 0.000000
vn 0.000000 1.000000 0.000000
vn 0.000000 0.000000 0.000000
vn 0.000000 0.000000 0.000000
vn 0.000000 0.000000 0.000000
vn 0.000000 0.000000 0.000000
vn -1.000000 0.000000 0.000000
vn -1.000000 0.000000 0.000000
vn 0.000000 1.000000 0.000000
vn 0.000000 1.000000 0.000000
vn 0.000000 1.000000 0.000000
vn 0.000000 1.000000 0.000000
vn 0.000000 -1.000000 0.000000
vn 0.000000 -1.000000 0.000000
vn 1.000000 0.000000 0.000000
vn 1.000000 0.000000 0.000000
vn 0.000000 0.000000 0.000000
vn 0.000000 0.000000 0.000000
vn 0.000000 0.000000 0.000000
vn 0.000000 0.000000 0.000000
vn 0.000000 1.000000 0.000000
vn 0.000000 1.000000 0.000000
vn 0.000000 1.000000 0.000000
vn 0.000000 1.000000 0.000000
vn 0.000000 0.000000 1.000000
vn 0.000000 0.000000 1.000000
vn 0.000000 0.000000 1.000000
vn 0.000000 0.000000 1.000000
vn 0.000000 0.000000 0.000000
vn 0.000000 0.000000 0.000000
vn 0.000000 0.000000 0.000000
vn 0.000000 0.000000 0.000000
vn 0.000000 1.000000 0.000000
vn 0.000000 1.000000 0.000000
vn 0.000000 1.000000 0.000000
vn 0.000000 1.000000 0.000000
vn 0.000000 0.000000 -1.000000
vn 0.000000 0.000000 -1.000000
vn 0.000000 0.000000 -1.000000
vn 0.000000 0.000000 -1.000000
vn -1.000000 0.000000 0.000000
vn -1.000000 0.000000 0.000000
vn -1.000000 0.000000 0.000000
vn -1.000000 0.000000 0.000000
vn 0.000000 0.000000 0.000000
vn 0.000000 0.000000 0.000000
vn 0.000000 0.000000 0.000000
vn 0.000000 0.000000 0.000000
vn 0.000000 1.000000 0.000001
vn 0.000000 1.000000 0.000001
vn 0.000000 1.000000 0.000001
vn 0.000000 1.000000 0.000001
vn 1.000000 -0.000000 0.000000
vn 1.000000 0.000001 0.000000
vn 1.000000 0.000000 0.000000
vn 1.000000 -0.000000 0.000000
vn 1.000000 0.000001 0.000000
vn 1.000000 0.000000 0.000000
vn 1.000000 -0.000001 0.000000
vn 1.000000 -0.000001 0.000000
vn 0.000000 -1.000000 0.000001
vn 0.000000 -1.000000 0.000001
vn 0.000000 -1.000000 0.000001
vn 0.000000 -1.000000 0.000001
vn 0.000000 0.000000 0.000000
vn 0.000000 0.000000 0.000000
vn 0.000000 0.000000 0.000000
vn 0.000000 0.000000 0.000000
vn 0.000000 1.000000 0.000000
vn 0.000000 1.000000 0.000000
vn 0.000000 1.000000 0.000000
vn 0.000000 1.000000 0.000000
vn -1.000000 0.000000 0.000000
vn -1.000000 0.000000 0.000000
vn 0.000000 -1.000000 0.000000
vn 0.000000 -1.000000 0.000000
vn 0.000000 -1.000000 0.000000
vn 0.000000 -1.000000 0.000000
vn 0.000000 1.000000 0.000000
vn 0.000000 1.000000 0.000000
vn 0.000000 1.000000 0.000000
vn 0.000000 1.000000 0.000000
vn 0.387609 0.000000 -0.921824
vn 0.387609 0.000000 -0.921824
vn 0.387609 0.000000 -0.921824
vn 0.387609 0.000000 -0.921824
vn 0.000000 -1.000000 0.000000
vn 0.000000 -1.000000 0.000000
vn 0.000000 -1.000000 0.000000
vn 0.000000 -1.000000 0.000000
vn 0.000000 0.000000 1.000000
vn 0.000000 0.000000 1.000000
vn 0.000000 0.000000 1.000000
vn 0.000000 0.000000 1.000000
vn 0.000000 1.000000 0.000001
vn 0.000000 1.000000 0.000001
vn 0.000000 1.000000 0.000001
vn 0.000000 1.000000 0.000001
vn -1.000000 0.000000 0.000000
vn -1.000000 0.000000 0.000000
vn -0.000000 -1.000000 0.000002
vn -0.000000 -1.000000 0.000002
vn -0.000000 -1.000000 0.000002
vn -0.000000 -1.000000 0.000002
vn -1.000000 0.000001 0.000000
vn -1.000000 0.000002 0.000000
vn -1.000000 0.000002 0.000000
vn -1.000000 0.000001 0.000000
vn 1.000000 0.000000 0.000000
vn 1.000000 0.000000 0.000000
vn 1.000000 0.000000 0.000000
vn 1.000000 0.000000 0.000000
vn 0.000000 -1.000000 0.000003
vn 0.000000 -1.000000 0.000003
vn 0.000000 -1.000000 0.000003
vn 0.000000 -1.000000 0.000003
vn 1.000000 0.000000 0.000000
vn 1.000000 0.000000 0.000000
vn 1.000000 0.000000 0.000000
vn 1.000000 0.000000 0.000000
vn 0.000000 1.000000 0.000000
vn 0.000000 1.000000 0.000000
vn 0.000000 1.000000 -0.000000
vn 0.000000 1.000000 -0.000000
vn 0.000000 0.000000 -1.000000
vn 0.000000 0.000000 -1.000000
vn 0.000000 0.000000 -1.000000
vn 0.000000 0.000000 -1.000000
vn -0.000000 -1.000000 0.000000
vn -0.000000 -1.000000 0.000000
vn -0.000000 -1.000000 0.000000
vn -0.000000 -1.000000 0.000000
vn -1.000000 0.000005 0.000000
vn -1.000000 0.000005 0.000000
vn 0.000000 -1.000000 0.000000
vn 0.000000 -1.000000 0.000000
vn 0.000000 -1.000000 0.000000
vn 0.000000 -1.000000 0.000000
vn 0.352279 -0.000001 -0.935895
vn 0.352279 -0.000001 -0.935895
vn 0.352279 -0.000001 -0.935895
vn 0.352279 -0.000001 -0.935895
vn 0.000000 1.000000 -0.000000
vn 0.000000 1.000000 -0.000000
vn 0.000000 -1.000000 -0.000001
vn 0.000000 -1.000000 -0.000001
vn 0.000000 -1.000000 -0.000001
vn 0.000000 -1.000000 -0.000001
vn -1.000000 0.000005 0.000000
vn -1.000000 0.000005 0.000000
vn 1.000000 -0.000003 0.000000
vn 1.000000 -0.000003 0.000000
vn 1.000000 -0.000003 0.000000
vn 1.000000 -0.000003 0.000000
vn 0.000000 1.000000 -0.000000
vn 0.000000 1.000000 -0.000000
vn 0.000000 0.000000 -1.000000
vn 0.000000 0.000000 -1.000000
vn 0.000000 0.000000 -1.000000
vn 0.000000 0.000000 -1.000000
vn 0.000000 0.000000 -1.000000
vn 0.000000 0.000000 -1.000000
vn 0.000000 0.000000 -1.000000
vn 0.000000 0.000000 -1.000000
vn 0.000000 -1.000000 0.000000
vn 0.000000 -1.000000 0.000000
vn 0.000000 -1.000000 0.000000
vn 0.000000 -1.000000 0.000000
vn 1.000000 0.000000 0.000000
vn 1.000000 0.000000 0.000000
vn 1.000000 0.000000 0.000000
vn 1.000000 0.000000 0.000000
vn 0.000000 1.000000 0.000000
vn 0.000000 1.000000 0.000000
vn 0.000000 1.000000 0.000000
vn 0.000000 1.000000 0.000000
vn 0.000000 0.000000 1.000000
vn 0.000000 0.000000 1.000000
vn 0.000000 0.000000 1.000000
vn 0.000000 0.000000 1.000000
s off
g pCube128
usemtl blinn5SG
f 31/215/117 32/216/118 33/217/119 34/218/120
s 1
f 35/103/121 31/104/122 34/105/123 36/106/124
s 2
f 35/159/125 37/160/126 32/161/127 31/162/128
s 3
f 32/111/129 37/112/130 38/113/131 33/114/132
s off
f 34/84/133 33/85/134 39/86/135 40/87/136
s 1
f 35/103/121 36/106/124 41/107/137 42/108/138
s off
f 36/88/139 34/84/140 40/87/141 43/89/142
s 2
f 37/160/126 35/159/125 42/163/143 44/164/144
s 3
f 45/219/145 38/220/131 37/221/130 44/222/146
s off
f 33/83/147 38/90/148 46/91/149 39/92/150
f 40/167/151 39/168/152 47/169/153 48/170/154
f 41/93/155 36/88/156 43/89/157 49/94/158
s 1
f 50/109/159 42/108/138 41/107/137 51/110/160
s off
f 43/173/161 40/167/162 48/170/163 52/174/164
s 2
f 50/165/165 53/166/166 44/164/144 42/163/143
s 3
f 45/115/145 44/116/146 53/117/167 54/118/168
s off
f 38/90/169 45/95/170 55/96/171 46/91/172
f 39/168/173 46/171/174 56/172/175 47/169/176
f 48/223/177 47/224/178 57/225/179 58/226/180
f 51/97/181 41/93/182 49/94/183 59/98/184
f 49/177/185 43/173/186 52/174/187 60/178/188
f 51/227/189 54/228/190 53/229/191 50/230/192
s 4
f 52/119/193 48/120/194 58/121/195 61/122/196
s off
f 45/95/197 54/99/198 62/100/199 55/96/200
f 46/171/201 55/175/202 63/176/203 56/172/204
s 5
f 64/127/205 65/128/206 66/129/207 56/130/208 67/131/209 57/132/210
f 47/133/211 56/130/208 66/129/207 68/134/212 64/127/205 57/132/210
s off
f 58/183/213 57/184/214 69/185/215 70/186/216
f 54/99/217 51/101/218 59/102/219 62/100/220
f 59/181/221 49/177/222 60/178/223 71/182/224
s 4
f 60/123/225 52/119/193 61/122/196 72/124/226
s off
f 61/189/227 58/183/228 70/186/229 73/190/230
f 55/175/231 62/179/232 74/180/233 63/176/234
f 56/231/235 63/232/236 75/233/237 67/234/238
f 57/184/239 67/187/240 76/188/241 69/185/242
f 70/235/243 69/236/244 77/237/245 78/238/246
f 62/179/247 59/181/248 71/182/249 74/180/250
s 4
f 71/125/251 60/123/225 72/124/226 79/126/252
s off
f 72/193/253 61/189/254 73/190/255 80/194/256
s 6
f 73/135/257 70/136/258 78/137/259 81/138/260
s off
f 63/143/261 74/144/262 82/145/263 75/146/264
f 67/187/265 75/191/266 83/192/267 76/188/268
f 69/147/269 76/148/270 84/149/271 77/150/272
s 7
f 78/199/273 77/200/274 84/201/275 81/202/276
s off
f 74/239/277 71/240/278 79/241/279 82/242/280
f 79/197/281 72/193/282 80/194/283 85/198/284
s 6
f 80/139/285 73/135/257 81/138/260 86/140/286
s off
f 75/191/287 82/195/288 87/196/289 83/192/290
f 76/243/291 83/244/292 88/245/293 84/246/294
s 7
f 86/203/295 81/202/276 84/201/275 88/204/296
s off
f 82/195/297 79/197/298 85/198/299 87/196/300
s 6
f 85/141/301 80/139/285 86/140/286 89/142/302
s off
f 83/151/303 87/152/304 90/153/305 88/154/306
s 7
f 86/203/295 88/204/296 90/205/307 89/206/308
s off
f 87/247/309 85/248/310 89/249/311 90/250/312
f 64/251/313 68/252/314 91/253/315 92/254/316
f 65/207/317 64/208/318 92/209/319 93/210/320
f 94/155/321 93/156/322 92/157/323 91/158/324
f 68/211/325 66/212/326 94/213/327 91/214/328
f 66/255/329 65/256/330 93/257/331 94/258/332
g default
v -13.589111 3.777675 -3.166331
v -13.589111 3.736008 -3.166331
v -13.589111 3.715175 -3.124004
v -13.589111 3.736008 -3.081677
v -13.589111 3.777675 -3.081677
v -13.589111 3.798508 -3.124004
v -13.612646 3.777675 -3.166331
v -13.612646 3.736008 -3.166331
v -13.612646 3.715175 -3.124004
v -13.612646 3.736008 -3.081677
v -13.612646 3.777675 -3.081677
v -13.612646 3.798508 -3.124004
v -13.589111 3.756841 -3.124004
v -13.612646 3.756841 -3.124004
v -13.540682 3.765623 -3.139816
v -13.540682 3.750912 -3.139816
v -13.540682 3.743557 -3.124873
v -13.540682 3.750912 -3.109929
v -13.540682 3.765623 -3.109929
v -13.540682 3.772979 -3.124873
v -13.551451 3.771008 -3.150756
v -13.551451 3.745528 -3.150756
v -13.551451 3.732788 -3.124873
v -13.551451 3.745528 -3.098989
v -13.551451 3.771008 -3.098989
v -13.551451 3.783748 -3.124873
v -13.566162 3.772979 -3.154760
v -13.566162 3.743557 -3.154760
v -13.566162 3.728846 -3.124873
v -13.566162 3.743557 -3.094985
v -13.566162 3.772979 -3.094985
v -13.566162 3.787690 -3.124873
v -13.580872 3.771008 -3.150756
v -13.580872 3.745528 -3.150756
v -13.580872 3.732788 -3.124873
v -13.580872 3.745528 -3.098989
v -13.580872 3.771008 -3.098989
v -13.580872 3.783748 -3.124873
v -13.591642 3.765623 -3.139816
v -13.591642 3.750912 -3.139816
v -13.591642 3.743557 -3.124873
v -13.591642 3.750912 -3.109929
v -13.591642 3.765623 -3.109929
v -13.591642 3.772979 -3.124873
v -13.536739 3.758268 -3.124873
v -13.595583 3.758268 -3.124873
v -13.540682 3.765623 -2.705939
v -13.540682 3.750912 -2.705939
v -13.540682 3.743557 -2.720883
v -13.540682 3.750912 -2.735826
v -13.540682 3.765623 -2.735826
v -13.540682 3.772979 -2.720883
v -13.551451 3.771008 -2.694999
v -13.551451 3.745528 -2.694999
v -13.551451 3.732788 -2.720883
v -13.551451 3.745528 -2.746767
v -13.551451 3.771008 -2.746767
v -13.551451 3.783748 -2.720883
v -13.566162 3.772979 -2.690995
v -13.566162 3.743557 -2.690995
v -13.566162 3.728846 -2.720883
v -13.566162 3.743557 -2.750771
v -13.566162 3.772979 -2.750771
v -13.566162 3.787690 -2.720883
v -13.580872 3.771008 -2.694999
v -13.580872 3.745528 -2.694999
v -13.580872 3.732788 -2.720883
v -13.580872 3.745528 -2.746767
v -13.580872 3.771008 -2.746767
v -13.580872 3.783748 -2.720883
v -13.591642 3.765623 -2.705939
v -13.591642 3.750912 -2.705939
v -13.591642 3.743557 -2.720883
v -13.591642 3.750912 -2.735826
v -13.591642 3.765623 -2.735826
v -13.591642 3.772979 -2.720883
v -13.536739 3.758268 -2.720883
v -13.595583 3.758268 -2.720883
v -13.589111 3.777675 -2.679425
v -13.589111 3.736008 -2.679425
v -13.589111 3.715175 -2.721752
v -13.589111 3.736008 -2.764079
v -13.589111 3.777675 -2.764079
v -13.589111 3.798508 -2.721752
v -13.612646 3.777675 -2.679425
v -13.612646 3.736008 -2.679425
v -13.612646 3.715175 -2.721752
v -13.612646 3.736008 -2.764079
v -13.612646 3.777675 -2.764079
v -13.612646 3.798508 -2.721752
v -13.589111 3.756841 -2.721752
v -13.612646 3.756841 -2.721752
v -13.657878 2.697010 -2.924451
v -13.558342 2.697010 -2.924451
v -13.657878 4.934743 -2.924451
v -13.558342 4.934743 -2.924451
v -13.657878 4.934743 -4.188685
v -13.558342 4.934743 -4.188685
v -13.657878 2.697010 -4.188685
v -13.558342 2.697010 -4.188685
v -13.558342 2.785451 -4.093493
v -13.558342 2.785451 -3.019641
v -13.558342 4.846301 -4.093493
v -13.558342 4.846301 -3.019641
v -13.643609 2.785451 -4.093493
v -13.643609 2.785451 -3.019641
v -13.643609 4.846301 -4.093493
v -13.643609 4.846301 -3.019641
v -13.657878 2.697010 -2.921305
v -13.558342 2.697010 -2.921305
v -13.657878 4.934743 -2.921305
v -13.558342 4.934743 -2.921305
v -13.657878 4.934743 -1.657070
v -13.558342 4.934743 -1.657070
v -13.657878 2.697010 -1.657070
v -13.558342 2.697010 -1.657070
v -13.558342 2.785451 -1.752262
v -13.558342 2.785451 -2.826115
v -13.558342 4.846301 -1.752262
v -13.558342 4.846301 -2.826115
v -13.643609 2.785451 -1.752262
v -13.643609 2.785451 -2.826115
v -13.643609 4.846301 -1.752262
v -13.643609 4.846301 -2.826115
vt 0.055186 0.689393
vt 0.063736 0.689393
vt 0.059461 0.698079
vt 0.068012 0.698079
vt 0.050911 0.698079
vt 0.063736 0.706765
vt 0.055186 0.706765
vt 0.087124 0.745833
vt 0.078573 0.745833
vt 0.082849 0.737147
vt 0.074298 0.737147
vt 0.091399 0.737147
vt 0.078573 0.728461
vt 0.087124 0.728461
vt 0.226138 0.894178
vt 0.229157 0.894178
vt 0.227647 0.897245
vt 0.225033 0.891933
vt 0.230262 0.891933
vt 0.230666 0.897245
vt 0.224629 0.897245
vt 0.222419 0.897245
vt 0.232876 0.897245
vt 0.229157 0.900311
vt 0.226138 0.900311
vt 0.225033 0.902556
vt 0.230262 0.902556
vt 0.246697 0.900312
vt 0.243678 0.900312
vt 0.245188 0.897245
vt 0.247802 0.902556
vt 0.242574 0.902556
vt 0.242169 0.897245
vt 0.248207 0.897245
vt 0.239959 0.897245
vt 0.250417 0.897245
vt 0.243678 0.894178
vt 0.246697 0.894178
vt 0.242574 0.891933
vt 0.247802 0.891933
vt 0.261219 0.900312
vt 0.262729 0.897245
vt 0.264238 0.900312
vt 0.259710 0.897245
vt 0.265747 0.897245
vt 0.265343 0.902556
vt 0.260114 0.902556
vt 0.261219 0.894178
vt 0.257500 0.897245
vt 0.264238 0.894178
vt 0.267957 0.897245
vt 0.260114 0.891933
vt 0.265343 0.891933
vt 0.281778 0.894178
vt 0.280269 0.897245
vt 0.278760 0.894178
vt 0.283288 0.897245
vt 0.277250 0.897245
vt 0.282883 0.891933
vt 0.277655 0.891933
vt 0.281778 0.900312
vt 0.285498 0.897245
vt 0.278760 0.900312
vt 0.275040 0.897245
vt 0.282883 0.902556
vt 0.277655 0.902556
vt 0.125348 0.745833
vt 0.129624 0.737147
vt 0.133899 0.745833
vt 0.121073 0.737147
vt 0.138174 0.737147
vt 0.125348 0.728461
vt 0.133899 0.728461
vt 0.157286 0.728461
vt 0.153011 0.737147
vt 0.148736 0.728461
vt 0.161561 0.737147
vt 0.144460 0.737147
vt 0.157286 0.745833
vt 0.148736 0.745833
vt 0.512078 0.465038
vt 0.732441 0.465038
vt 0.732441 0.887942
vt 0.512078 0.887942
vt 0.056758 0.001845
vt 0.316189 0.001845
vt 0.316189 0.461047
vt 0.056758 0.461047
vt 0.323764 0.001845
vt 0.583196 0.001845
vt 0.563662 0.019994
vt 0.343298 0.019994
vt 0.583196 0.461047
vt 0.563662 0.442898
vt 0.323764 0.461047
vt 0.343298 0.442898
vt 0.458677 0.465038
vt 0.458677 0.887942
vt 0.238313 0.887942
vt 0.238313 0.465038
vt 0.904773 0.001845
vt 0.904773 0.461047
vt 0.645341 0.461047
vt 0.645341 0.001845
vt 0.998008 0.465038
vt 0.978474 0.483187
vt 0.758111 0.483187
vt 0.738576 0.465038
vt 0.998008 0.924240
vt 0.978474 0.906091
vt 0.758111 0.906091
vt 0.738576 0.924240
vt 0.032353 0.689393
vt 0.032353 0.698079
vt 0.027523 0.698079
vt 0.027523 0.689393
vt 0.032353 0.706765
vt 0.027523 0.706765
vt 0.044047 0.689393
vt 0.044047 0.698079
vt 0.039217 0.698079
vt 0.039217 0.689393
vt 0.044047 0.706765
vt 0.039217 0.706765
vt 0.173885 0.729283
vt 0.173885 0.734595
vt 0.170866 0.734595
vt 0.170866 0.728461
vt 0.173885 0.739906
vt 0.170866 0.740728
vt 0.167848 0.734595
vt 0.167848 0.729283
vt 0.167848 0.739906
vt 0.187528 0.892755
vt 0.187528 0.898067
vt 0.184509 0.898067
vt 0.184509 0.891933
vt 0.187528 0.903378
vt 0.184509 0.904200
vt 0.181490 0.898067
vt 0.181490 0.892755
vt 0.181490 0.903378
vt 0.201170 0.903378
vt 0.198152 0.904200
vt 0.198152 0.898067
vt 0.201170 0.898067
vt 0.195133 0.903378
vt 0.195133 0.898067
vt 0.198152 0.891934
vt 0.201170 0.892755
vt 0.195133 0.892755
vt 0.214813 0.903378
vt 0.211794 0.904200
vt 0.211794 0.898067
vt 0.214813 0.898067
vt 0.208776 0.903378
vt 0.208776 0.898067
vt 0.211794 0.891933
vt 0.214813 0.892755
vt 0.208776 0.892755
vt 0.102515 0.745833
vt 0.097685 0.745833
vt 0.097685 0.737147
vt 0.102515 0.737147
vt 0.097685 0.728461
vt 0.102515 0.728461
vt 0.114209 0.745833
vt 0.109379 0.745833
vt 0.109379 0.737147
vt 0.114209 0.737147
vt 0.109379 0.728461
vt 0.114209 0.728461
vt 0.164487 0.465038
vt 0.184912 0.465038
vt 0.184912 0.724470
vt 0.164487 0.724470
vt 0.137926 0.465038
vt 0.158352 0.465038
vt 0.158352 0.724470
vt 0.137926 0.724470
vt 0.078670 0.465038
vt 0.078670 0.685402
vt 0.061172 0.685402
vt 0.061172 0.465038
vt 0.055037 0.465038
vt 0.055037 0.685402
vt 0.037539 0.685402
vt 0.037539 0.465038
vt 0.111366 0.724470
vt 0.111366 0.465038
vt 0.131791 0.465038
vt 0.131791 0.724470
vt 0.084805 0.724470
vt 0.084805 0.465038
vt 0.105230 0.465038
vt 0.105230 0.724470
vt 0.031404 0.685402
vt 0.013907 0.685402
vt 0.013907 0.465038
vt 0.031404 0.465038
vt 0.019489 0.909757
vt 0.001992 0.909757
vt 0.001992 0.689393
vt 0.019489 0.689393
vt 0.297410 0.891933
vt 0.297410 0.900484
vt 0.292581 0.900484
vt 0.292581 0.891933
vt 0.309104 0.891933
vt 0.309104 0.900484
vt 0.304274 0.900484
vt 0.304274 0.891933
vt 0.345393 0.892338
vt 0.345393 0.897566
vt 0.342374 0.897971
vt 0.342374 0.891933
vt 0.339356 0.897566
vt 0.339356 0.892338
vt 0.359035 0.892338
vt 0.359035 0.897566
vt 0.356017 0.897971
vt 0.356017 0.891933
vt 0.352998 0.897566
vt 0.352998 0.892338
vt 0.372678 0.897566
vt 0.369659 0.897971
vt 0.369659 0.891933
vt 0.372678 0.892338
vt 0.366641 0.897566
vt 0.366641 0.892338
vt 0.386321 0.897566
vt 0.383302 0.897971
vt 0.383302 0.891933
vt 0.386321 0.892338
vt 0.380284 0.897566
vt 0.380284 0.892338
vt 0.320798 0.900484
vt 0.315968 0.900484
vt 0.315968 0.891933
vt 0.320798 0.891933
vt 0.332492 0.900484
vt 0.327662 0.900484
vt 0.327662 0.891933
vt 0.332492 0.891933
vt 0.001992 0.001845
vt 0.022418 0.001845
vt 0.022418 0.461047
vt 0.001992 0.461047
vt 0.029472 0.001845
vt 0.049898 0.001845
vt 0.049898 0.461047
vt 0.029472 0.461047
vt 0.505942 0.465038
vt 0.505942 0.887942
vt 0.488445 0.887942
vt 0.488445 0.465038
vt 0.482310 0.465038
vt 0.482310 0.887942
vt 0.464812 0.887942
vt 0.464812 0.465038
vt 0.590771 0.461047
vt 0.590771 0.001845
vt 0.611196 0.001845
vt 0.611196 0.461047
vt 0.618056 0.461047
vt 0.618056 0.001845
vt 0.638481 0.001845
vt 0.638481 0.461047
vt 0.232178 0.887942
vt 0.214680 0.887942
vt 0.214680 0.465038
vt 0.232178 0.465038
vt 0.208545 0.887942
vt 0.191048 0.887942
vt 0.191048 0.465038
vt 0.208545 0.465038
vn 0.000000 0.000000 -1.000000
vn 0.000000 0.000000 -1.000000
vn 0.000000 0.000000 -1.000000
vn 0.000000 0.000000 -1.000000
vn 0.000000 -0.897212 -0.441600
vn 0.000000 -0.897212 -0.441600
vn 0.000000 -0.897212 -0.441600
vn 0.000000 -0.897212 -0.441600
vn 0.000000 -0.897212 0.441600
vn 0.000000 -0.897212 0.441600
vn 0.000000 -0.897212 0.441600
vn 0.000000 -0.897212 0.441600
vn 0.000000 0.000000 1.000000
vn 0.000000 0.000000 1.000000
vn 0.000000 0.000000 1.000000
vn 0.000000 0.000000 1.000000
vn 0.000000 0.897212 0.441600
vn 0.000000 0.897212 0.441600
vn 0.000000 0.897212 0.441600
vn 0.000000 0.897212 0.441600
vn 0.000000 0.897212 -0.441600
vn 0.000000 0.897212 -0.441600
vn 0.000000 0.897212 -0.441600
vn 0.000000 0.897212 -0.441600
vn 1.000000 0.000000 0.000000
vn 1.000000 0.000000 0.000000
vn 1.000000 0.000000 0.000000
vn 1.000000 0.000000 0.000000
vn 1.000000 0.000000 0.000000
vn 1.000000 0.000000 0.000000
vn 1.000000 0.000000 0.000000
vn 1.000000 0.000000 0.000000
vn 1.000000 0.000000 0.000000
vn 1.000000 0.000000 0.000000
vn 1.000000 0.000000 0.000000
vn 1.000000 0.000000 0.000000
vn 1.000000 0.000000 0.000000
vn 1.000000 0.000000 0.000000
vn 1.000000 0.000000 0.000000
vn 1.000000 0.000000 0.000000
vn 1.000000 0.000000 0.000000
vn 1.000000 0.000000 0.000000
vn -1.000000 0.000000 0.000000
vn -1.000000 0.000000 0.000000
vn -1.000000 0.000000 0.000000
vn -1.000000 0.000000 0.000000
vn -1.000000 0.000000 0.000000
vn -1.000000 0.000000 0.000000
vn -1.000000 0.000000 0.000000
vn -1.000000 0.000000 0.000000
vn -1.000000 0.000000 0.000000
vn -1.000000 0.000000 0.000000
vn -1.000000 0.000000 0.000000
vn -1.000000 0.000000 0.000000
vn -1.000000 0.000000 0.000000
vn -1.000000 0.000000 0.000000
vn -1.000000 0.000000 0.000000
vn -1.000000 0.000000 0.000000
vn -1.000000 0.000000 0.000000
vn -1.000000 0.000000 0.000000
vn 0.712661 0.000000 -0.701509
vn 0.712661 0.000000 -0.701509
vn 0.712661 0.000000 -0.701509
vn 0.712661 0.000000 -0.701509
vn 0.667815 -0.667820 -0.328693
vn 0.667815 -0.667820 -0.328693
vn 0.667815 -0.667820 -0.328693
vn 0.667815 -0.667820 -0.328693
vn 0.667838 -0.667793 0.328702
vn 0.667838 -0.667793 0.328702
vn 0.667838 -0.667793 0.328702
vn 0.667838 -0.667793 0.328702
vn 0.712649 0.000000 0.701521
vn 0.712649 0.000000 0.701521
vn 0.712649 0.000000 0.701521
vn 0.712649 0.000000 0.701521
vn 0.667821 0.667815 0.328691
vn 0.667821 0.667815 0.328691
vn 0.667821 0.667815 0.328691
vn 0.667821 0.667815 0.328691
vn 0.667838 0.667793 -0.328702
vn 0.667838 0.667793 -0.328702
vn 0.667838 0.667793 -0.328702
vn 0.667838 0.667793 -0.328702
vn 0.262626 0.000000 -0.964898
vn 0.262626 0.000000 -0.964898
vn 0.262626 0.000000 -0.964898
vn 0.262626 0.000000 -0.964898
vn 0.233742 -0.872352 -0.429379
vn 0.233742 -0.872352 -0.429379
vn 0.233742 -0.872352 -0.429379
vn 0.233742 -0.872352 -0.429379
vn 0.233743 -0.872349 0.429386
vn 0.233743 -0.872349 0.429385
vn 0.233743 -0.872349 0.429385
vn 0.233743 -0.872349 0.429386
vn 0.262619 0.000000 0.964900
vn 0.262619 0.000000 0.964900
vn 0.262619 0.000000 0.964900
vn 0.262619 0.000000 0.964900
vn 0.233740 0.872350 0.429386
vn 0.233740 0.872350 0.429386
vn 0.233740 0.872350 0.429386
vn 0.233740 0.872350 0.429386
vn 0.233746 0.872345 -0.429392
vn 0.233746 0.872345 -0.429392
vn 0.233746 0.872345 -0.429392
vn 0.233746 0.872345 -0.429391
vn -0.262657 0.000000 -0.964889
vn -0.262657 0.000000 -0.964889
vn -0.262657 0.000000 -0.964889
vn -0.262657 0.000000 -0.964889
vn -0.233775 -0.872338 -0.429391
vn -0.233774 -0.872338 -0.429391
vn -0.233774 -0.872338 -0.429391
vn -0.233775 -0.872338 -0.429391
vn -0.233773 -0.872336 0.429394
vn -0.233773 -0.872336 0.429394
vn -0.233773 -0.872336 0.429394
vn -0.233773 -0.872336 0.429394
vn -0.262651 0.000000 0.964891
vn -0.262651 0.000000 0.964891
vn -0.262651 0.000000 0.964891
vn -0.262651 0.000000 0.964891
vn -0.233773 0.872338 0.429391
vn -0.233773 0.872338 0.429391
vn -0.233773 0.872338 0.429391
vn -0.233773 0.872338 0.429391
vn -0.233777 0.872336 -0.429394
vn -0.233777 0.872335 -0.429394
vn -0.233777 0.872336 -0.429394
vn -0.233777 0.872336 -0.429394
vn -0.712601 0.000000 -0.701570
vn -0.712601 0.000000 -0.701570
vn -0.712601 0.000000 -0.701570
vn -0.712601 0.000000 -0.701570
vn -0.667765 -0.667856 -0.328723
vn -0.667765 -0.667856 -0.328723
vn -0.667765 -0.667856 -0.328723
vn -0.667765 -0.667856 -0.328723
vn -0.667765 -0.667856 0.328723
vn -0.667765 -0.667856 0.328723
vn -0.667765 -0.667856 0.328723
vn -0.667765 -0.667856 0.328723
vn -0.712589 0.000000 0.701582
vn -0.712589 0.000000 0.701582
vn -0.712589 0.000000 0.701582
vn -0.712589 0.000000 0.701582
vn -0.667766 0.667851 0.328731
vn -0.667766 0.667851 0.328731
vn -0.667766 0.667851 0.328731
vn -0.667766 0.667851 0.328731
vn -0.667763 0.667853 -0.328733
vn -0.667763 0.667853 -0.328733
vn -0.667763 0.667853 -0.328733
vn -0.667763 0.667853 -0.328733
vn 0.966913 0.000000 -0.255107
vn 0.966913 0.000000 -0.255107
vn 0.966913 0.000000 -0.255107
vn 0.958165 -0.256801 -0.126387
vn 0.958165 -0.256801 -0.126387
vn 0.958165 -0.256801 -0.126387
vn 0.958162 -0.256809 0.126391
vn 0.958162 -0.256809 0.126391
vn 0.958162 -0.256809 0.126391
vn 0.966915 0.000000 0.255099
vn 0.966915 0.000000 0.255099
vn 0.966915 0.000000 0.255099
vn 0.958162 0.256809 0.126391
vn 0.958162 0.256809 0.126391
vn 0.958162 0.256809 0.126391
vn 0.958165 0.256801 -0.126387
vn 0.958165 0.256801 -0.126387
vn 0.958165 0.256801 -0.126387
vn -0.966943 0.000000 -0.254992
vn -0.966943 0.000000 -0.254992
vn -0.966943 0.000000 -0.254992
vn -0.958205 -0.256682 -0.126327
vn -0.958205 -0.256682 -0.126327
vn -0.958205 -0.256682 -0.126327
vn -0.958202 -0.256690 0.126331
vn -0.958202 -0.256690 0.126331
vn -0.958202 -0.256690 0.126331
vn -0.966945 0.000000 0.254984
vn -0.966945 0.000000 0.254984
vn -0.966945 0.000000 0.254984
vn -0.958201 0.256689 0.126339
vn -0.958201 0.256689 0.126339
vn -0.958201 0.256689 0.126339
vn -0.958204 0.256681 -0.126335
vn -0.958204 0.256681 -0.126335
vn -0.958204 0.256681 -0.126335
vn 0.712664 0.000000 0.701506
vn 0.712664 0.000000 0.701506
vn 0.712664 0.000000 0.701506
vn 0.712664 0.000000 0.701506
vn 0.667821 -0.667815 0.328691
vn 0.667821 -0.667815 0.328691
vn 0.667821 -0.667815 0.328691
vn 0.667821 -0.667815 0.328691
vn 0.667818 -0.667818 -0.328692
vn 0.667818 -0.667818 -0.328692
vn 0.667818 -0.667818 -0.328692
vn 0.667818 -0.667818 -0.328692
vn 0.712658 0.000000 -0.701512
vn 0.712658 0.000000 -0.701512
vn 0.712658 0.000000 -0.701512
vn 0.712658 0.000000 -0.701512
vn 0.667818 0.667818 -0.328692
vn 0.667818 0.667818 -0.328692
vn 0.667818 0.667818 -0.328692
vn 0.667818 0.667818 -0.328692
vn 0.667824 0.667813 0.328690
vn 0.667824 0.667813 0.328690
vn 0.667824 0.667813 0.328690
vn 0.667824 0.667813 0.328690
vn 0.262614 0.000000 0.964901
vn 0.262614 0.000000 0.964901
vn 0.262614 0.000000 0.964901
vn 0.262614 0.000000 0.964901
vn 0.233748 -0.872348 0.429385
vn 0.233748 -0.872348 0.429385
vn 0.233748 -0.872348 0.429385
vn 0.233748 -0.872348 0.429385
vn 0.233741 -0.872349 -0.429386
vn 0.233741 -0.872349 -0.429386
vn 0.233741 -0.872349 -0.429386
vn 0.233741 -0.872349 -0.429386
vn 0.262631 0.000000 -0.964896
vn 0.262631 0.000000 -0.964896
vn 0.262631 0.000000 -0.964896
vn 0.262631 0.000000 -0.964896
vn 0.233747 0.872345 -0.429391
vn 0.233747 0.872345 -0.429391
vn 0.233747 0.872345 -0.429391
vn 0.233747 0.872345 -0.429391
vn 0.233740 0.872346 0.429392
vn 0.233740 0.872346 0.429392
vn 0.233740 0.872346 0.429392
vn 0.233740 0.872346 0.429392
vn -0.262646 0.000000 0.964892
vn -0.262646 0.000000 0.964892
vn -0.262646 0.000000 0.964892
vn -0.262646 0.000000 0.964892
vn -0.233771 -0.872337 0.429394
vn -0.233771 -0.872337 0.429394
vn -0.233771 -0.872337 0.429394
vn -0.233771 -0.872337 0.429394
vn -0.233779 -0.872335 -0.429394
vn -0.233779 -0.872335 -0.429394
vn -0.233779 -0.872335 -0.429394
vn -0.233779 -0.872335 -0.429394
vn -0.262662 0.000000 -0.964888
vn -0.262662 0.000000 -0.964888
vn -0.262662 0.000000 -0.964888
vn -0.262662 0.000000 -0.964888
vn -0.233779 0.872335 -0.429394
vn -0.233779 0.872335 -0.429394
vn -0.233779 0.872335 -0.429394
vn -0.233779 0.872335 -0.429394
vn -0.233771 0.872337 0.429394
vn -0.233771 0.872337 0.429394
vn -0.233771 0.872337 0.429394
vn -0.233771 0.872337 0.429394
vn -0.712598 0.000000 0.701573
vn -0.712598 0.000000 0.701573
vn -0.712598 0.000000 0.701573
vn -0.712598 0.000000 0.701573
vn -0.667751 -0.667876 0.328710
vn -0.667751 -0.667876 0.328710
vn -0.667751 -0.667876 0.328710
vn -0.667751 -0.667876 0.328710
vn -0.667745 -0.667881 -0.328713
vn -0.667745 -0.667881 -0.328713
vn -0.667745 -0.667881 -0.328713
vn -0.667745 -0.667881 -0.328713
vn -0.712598 0.000000 -0.701573
vn -0.712598 0.000000 -0.701573
vn -0.712598 0.000000 -0.701573
vn -0.712598 0.000000 -0.701573
vn -0.667742 0.667878 -0.328723
vn -0.667742 0.667878 -0.328723
vn -0.667742 0.667878 -0.328723
vn -0.667742 0.667878 -0.328723
vn -0.667742 0.667878 0.328723
vn -0.667742 0.667878 0.328723
vn -0.667742 0.667878 0.328723
vn -0.667742 0.667878 0.328723
vn 0.966915 0.000000 0.255099
vn 0.966915 0.000000 0.255099
vn 0.966915 0.000000 0.255099
vn 0.958165 -0.256801 0.126387
vn 0.958165 -0.256801 0.126387
vn 0.958165 -0.256801 0.126387
vn 0.958162 -0.256809 -0.126391
vn 0.958162 -0.256809 -0.126391
vn 0.958162 -0.256809 -0.126391
vn 0.966915 0.000000 -0.255099
vn 0.966915 0.000000 -0.255099
vn 0.966915 0.000000 -0.255099
vn 0.958162 0.256809 -0.126391
vn 0.958162 0.256809 -0.126391
vn 0.958162 0.256809 -0.126391
vn 0.958165 0.256801 0.126387
vn 0.958165 0.256801 0.126387
vn 0.958165 0.256801 0.126387
vn -0.966945 0.000000 0.254984
vn -0.966945 0.000000 0.254984
vn -0.966945 0.000000 0.254984
vn -0.958205 -0.256682 0.126327
vn -0.958205 -0.256682 0.126327
vn -0.958205 -0.256682 0.126327
vn -0.958202 -0.256690 -0.126331
vn -0.958202 -0.256690 -0.126331
vn -0.958202 -0.256690 -0.126331
vn -0.966945 0.000000 -0.254984
vn -0.966945 0.000000 -0.254984
vn -0.966945 0.000000 -0.254984
vn -0.958201 0.256689 -0.126339
vn -0.958201 0.256689 -0.126339
vn -0.958201 0.256689 -0.126339
vn -0.958204 0.256681 0.126335
vn -0.958204 0.256681 0.126335
vn -0.958204 0.256681 0.126335
vn 0.000000 0.000000 1.000000
vn 0.000000 0.000000 1.000000
vn 0.000000 0.000000 1.000000
vn 0.000000 0.000000 1.000000
vn 0.000000 -0.897212 0.441600
vn 0.000000 -0.897212 0.441600
vn 0.000000 -0.897212 0.441600
vn 0.000000 -0.897212 0.441600
vn 0.000000 -0.897212 -0.441600
vn 0.000000 -0.897212 -0.441600
vn 0.000000 -0.897212 -0.441600
vn 0.000000 -0.897212 -0.441600
vn 0.000000 0.000000 -1.000000
vn 0.000000 0.000000 -1.000000
vn 0.000000 0.000000 -1.000000
vn 0.000000 0.000000 -1.000000
vn 0.000000 0.897212 -0.441600
vn 0.000000 0.897212 -0.441600
vn 0.000000 0.897212 -0.441600
vn 0.000000 0.897212 -0.441600
vn 0.000000 0.897212 0.441600
vn 0.000000 0.897212 0.441600
vn 0.000000 0.897212 0.441600
vn 0.000000 0.897212 0.441600
vn 1.000000 0.000000 0.000000
vn 1.000000 0.000000 0.000000
vn 1.000000 0.000000 0.000000
vn 1.000000 0.000000 0.000000
vn 1.000000 0.000000 0.000000
vn 1.000000 0.000000 0.000000
vn 1.000000 0.000000 0.000000
vn 1.000000 0.000000 0.000000
vn 1.000000 0.000000 0.000000
vn 1.000000 0.000000 0.000000
vn 1.000000 0.000000 0.000000
vn 1.000000 0.000000 0.000000
vn 1.000000 0.000000 0.000000
vn 1.000000 0.000000 0.000000
vn 1.000000 0.000000 0.000000
vn 1.000000 0.000000 0.000000
vn 1.000000 0.000000 0.000000
vn 1.000000 0.000000 0.000000
vn -1.000000 0.000000 0.000000
vn -1.000000 0.000000 0.000000
vn -1.000000 0.000000 0.000000
vn -1.000000 0.000000 0.000000
vn -1.000000 0.000000 0.000000
vn -1.000000 0.000000 0.000000
vn -1.000000 0.000000 0.000000
vn -1.000000 0.000000 0.000000
vn -1.000000 0.000000 0.000000
vn -1.000000 0.000000 0.000000
vn -1.000000 0.000000 0.000000
vn -1.000000 0.000000 0.000000
vn -1.000000 0.000000 0.000000
vn -1.000000 0.000000 0.000000
vn -1.000000 0.000000 0.000000
vn -1.000000 0.000000 0.000000
vn -1.000000 0.000000 0.000000
vn -1.000000 0.000000 0.000000
vn 0.000000 0.000000 1.000000
vn 0.000000 0.000000 1.000000
vn 0.000000 0.000000 1.000000
vn 0.000000 0.000000 1.000000
vn 0.000000 1.000000 0.000000
vn 0.000000 1.000000 0.000000
vn 0.000000 1.000000 0.000000
vn 0.000000 1.000000 0.000000
vn 0.000000 0.000000 -1.000000
vn 0.000000 0.000000 -1.000000
vn 0.000000 0.000000 -1.000000
vn 0.000000 0.000000 -1.000000
vn 0.000000 -1.000000 0.000000
vn 0.000000 -1.000000 0.000000
vn 0.000000 -1.000000 0.000000
vn 0.000000 -1.000000 0.000000
vn 1.000000 0.000000 0.000000
vn 1.000000 0.000000 0.000000
vn 1.000000 0.000000 0.000000
vn 1.000000 0.000000 0.000000
vn -1.000000 0.000000 0.000000
vn -1.000000 0.000000 0.000000
vn -1.000000 0.000000 0.000000
vn -1.000000 0.000000 0.000000
vn 1.000000 0.000003 0.000000
vn 1.000000 0.000003 0.000000
vn 1.000000 0.000003 0.000000
vn 1.000000 0.000003 0.000000
vn 1.000000 0.000000 0.000000
vn 1.000000 0.000000 0.000000
vn 1.000000 0.000000 0.000000
vn 1.000000 0.000000 0.000000
vn 1.000000 0.000005 0.000000
vn 1.000000 0.000005 0.000000
vn 1.000000 0.000005 0.000000
vn 1.000000 0.000005 0.000000
vn 1.000000 0.000000 0.000000
vn 1.000000 0.000000 0.000000
vn 1.000000 0.000000 0.000000
vn 1.000000 0.000000 0.000000
vn 0.000000 1.000000 0.000000
vn 0.000000 1.000000 0.000000
vn 0.000000 1.000000 0.000000
vn 0.000000 1.000000 0.000000
vn 0.000000 0.000000 1.000000
vn 0.000000 0.000000 1.000000
vn 0.000000 0.000000 1.000000
vn 0.000000 0.000000 1.000000
vn 0.000000 -1.000000 0.000000
vn 0.000000 -1.000000 0.000000
vn 0.000000 -1.000000 0.000000
vn 0.000000 -1.000000 0.000000
vn 0.000000 0.000000 -1.000000
vn 0.000000 0.000000 -1.000000
vn 0.000000 0.000000 -1.000000
vn 0.000000 0.000000 -1.000000
vn 0.000000 0.000000 -1.000000
vn 0.000000 0.000000 -1.000000
vn 0.000000 0.000000 -1.000000
vn 0.000000 0.000000 -1.000000
vn 0.000000 1.000000 0.000000
vn 0.000000 1.000000 0.000000
vn 0.000000 1.000000 0.000000
vn 0.000000 1.000000 0.000000
vn 0.000000 0.000000 1.000000
vn 0.000000 0.000000 1.000000
vn 0.000000 0.000000 1.000000
vn 0.000000 0.000000 1.000000
vn 0.000000 -1.000000 0.000000
vn 0.000000 -1.000000 0.000000
vn 0.000000 -1.000000 0.000000
vn 0.000000 -1.000000 0.000000
vn 1.000000 0.000000 0.000000
vn 1.000000 0.000000 0.000000
vn 1.000000 0.000000 0.000000
vn 1.000000 0.000000 0.000000
vn -1.000000 0.000000 0.000000
vn -1.000000 0.000000 0.000000
vn -1.000000 0.000000 0.000000
vn -1.000000 0.000000 0.000000
vn 1.000000 0.000000 0.000000
vn 1.000000 0.000000 0.000000
vn 1.000000 0.000000 0.000000
vn 1.000000 0.000000 0.000000
vn 1.000000 0.000000 0.000000
vn 1.000000 0.000000 0.000000
vn 1.000000 0.000000 0.000000
vn 1.000000 0.000000 0.000000
vn 1.000000 0.000000 0.000000
vn 1.000000 0.000000 0.000000
vn 1.000000 0.000000 0.000000
vn 1.000000 0.000000 0.000000
vn 1.000000 0.000000 0.000000
vn 1.000000 0.000000 0.000000
vn 1.000000 0.000000 0.000000
vn 1.000000 0.000000 0.000000
vn 0.000000 1.000000 0.000000
vn 0.000000 1.000000 0.000000
vn 0.000000 1.000000 0.000000
vn 0.000000 1.000000 0.000000
vn 0.000000 0.000000 -1.000000
vn 0.000000 0.000000 -1.000000
vn 0.000000 0.000000 -1.000000
vn 0.000000 0.000000 -1.000000
vn 0.000000 -1.000000 0.000000
vn 0.000000 -1.000000 0.000000
vn 0.000000 -1.000000 0.000000
vn 0.000000 -1.000000 0.000000
vn 0.000000 0.000000 1.000000
vn 0.000000 0.000000 1.000000
vn 0.000000 0.000000 1.000000
vn 0.000000 0.000000 1.000000
s off
g group15_polySurface409
usemtl phong1SG
f 95/463/333 96/464/334 102/465/335 101/466/336
f 96/371/337 97/372/338 103/373/339 102/374/340
f 97/372/341 98/375/342 104/376/343 103/373/344
f 98/467/345 99/468/346 105/469/347 104/470/348
f 99/377/349 100/378/350 106/379/351 105/380/352
f 100/378/353 95/381/354 101/382/355 106/379/356
f 96/259/357 95/260/358 107/261/359
f 97/263/360 96/259/361 107/261/362
f 98/265/363 97/263/364 107/261/365
f 99/264/366 98/265/367 107/261/368
f 100/262/369 99/264/370 107/261/371
f 95/260/372 100/262/373 107/261/374
f 101/266/375 102/267/376 108/268/377
f 102/267/378 103/269/379 108/268/380
f 103/269/381 104/271/382 108/268/383
f 104/271/384 105/272/385 108/268/386
f 105/272/387 106/270/388 108/268/389
f 106/270/390 101/266/391 108/268/392
f 109/274/393 110/273/394 116/276/395 115/277/396
f 110/273/397 111/279/398 117/280/399 116/276/400
f 111/279/401 112/283/402 118/284/403 117/280/404
f 112/283/405 113/282/406 119/285/407 118/284/408
f 113/282/409 114/278/410 120/281/411 119/285/412
f 114/278/413 109/274/414 115/277/415 120/281/416
f 115/471/417 116/472/418 122/473/419 121/474/420
f 116/383/421 117/384/422 123/385/423 122/386/424
f 117/384/425 118/387/426 124/388/427 123/385/428
f 118/477/429 119/478/430 125/479/431 124/480/432
f 119/392/433 120/393/434 126/394/435 125/395/436
f 120/393/437 115/396/438 121/397/439 126/394/440
f 121/474/441 122/473/442 128/475/443 127/476/444
f 122/386/445 123/385/446 129/389/447 128/390/448
f 123/385/449 124/388/450 130/391/451 129/389/452
f 124/480/453 125/479/454 131/481/455 130/482/456
f 125/395/457 126/394/458 132/398/459 131/399/460
f 126/394/461 121/397/462 127/400/463 132/398/464
f 127/289/465 128/290/466 134/287/467 133/286/468
f 128/290/469 129/293/470 135/291/471 134/287/472
f 129/293/473 130/297/474 136/295/475 135/291/476
f 130/297/477 131/298/478 137/296/479 136/295/480
f 131/298/481 132/294/482 138/292/483 137/296/484
f 132/294/485 127/289/486 133/286/487 138/292/488
f 110/273/489 109/274/490 139/275/491
f 111/279/492 110/273/493 139/275/494
f 112/283/495 111/279/496 139/275/497
f 113/282/498 112/283/499 139/275/500
f 114/278/501 113/282/502 139/275/503
f 109/274/504 114/278/505 139/275/506
f 133/286/507 134/287/508 140/288/509
f 134/287/510 135/291/511 140/288/512
f 135/291/513 136/295/514 140/288/515
f 136/295/516 137/296/517 140/288/518
f 137/296/519 138/292/520 140/288/521
f 138/292/522 133/286/523 140/288/524
f 141/301/525 147/304/526 148/305/527 142/299/528
f 142/299/529 148/305/530 149/307/531 143/302/532
f 143/302/533 149/307/534 150/310/535 144/306/536
f 144/306/537 150/310/538 151/311/539 145/308/540
f 145/308/541 151/311/542 152/309/543 146/303/544
f 146/303/545 152/309/546 147/304/547 141/301/548
f 147/483/549 153/484/550 154/485/551 148/486/552
f 148/401/553 154/402/554 155/403/555 149/404/556
f 149/404/557 155/403/558 156/407/559 150/408/560
f 150/489/561 156/490/562 157/491/563 151/492/564
f 151/410/565 157/411/566 158/412/567 152/413/568
f 152/413/569 158/412/570 153/416/571 147/417/572
f 153/484/573 159/487/574 160/488/575 154/485/576
f 154/402/577 160/405/578 161/406/579 155/403/580
f 155/403/581 161/406/582 162/409/583 156/407/584
f 156/490/585 162/493/586 163/494/587 157/491/588
f 157/411/589 163/414/590 164/415/591 158/412/592
f 158/412/593 164/415/594 159/418/595 153/416/596
f 159/317/597 165/312/598 166/314/599 160/318/600
f 160/318/601 166/314/602 167/316/603 161/322/604
f 161/322/605 167/316/606 168/321/607 162/324/608
f 162/324/609 168/321/610 169/319/611 163/323/612
f 163/323/613 169/319/614 170/315/615 164/320/616
f 164/320/617 170/315/618 165/312/619 159/317/620
f 142/299/621 171/300/622 141/301/623
f 143/302/624 171/300/625 142/299/626
f 144/306/627 171/300/628 143/302/629
f 145/308/630 171/300/631 144/306/632
f 146/303/633 171/300/634 145/308/635
f 141/301/636 171/300/637 146/303/638
f 165/312/639 172/313/640 166/314/641
f 166/314/642 172/313/643 167/316/644
f 167/316/645 172/313/646 168/321/647
f 168/321/648 172/313/649 169/319/650
f 169/319/651 172/313/652 170/315/653
f 170/315/654 172/313/655 165/312/656
f 173/495/657 179/496/658 180/497/659 174/498/660
f 174/419/661 180/420/662 181/421/663 175/422/664
f 175/422/665 181/421/666 182/423/667 176/424/668
f 176/499/669 182/500/670 183/501/671 177/502/672
f 177/425/673 183/426/674 184/427/675 178/428/676
f 178/428/677 184/427/678 179/429/679 173/430/680
f 174/325/681 185/326/682 173/327/683
f 175/328/684 185/326/685 174/325/686
f 176/330/687 185/326/688 175/328/689
f 177/331/690 185/326/691 176/330/692
f 178/329/693 185/326/694 177/331/695
f 173/327/696 185/326/697 178/329/698
f 179/332/699 186/333/700 180/334/701
f 180/334/702 186/333/703 181/336/704
f 181/336/705 186/333/706 182/338/707
f 182/338/708 186/333/709 183/337/710
f 183/337/711 186/333/712 184/335/713
f 184/335/714 186/333/715 179/332/716
f 187/503/717 188/504/718 190/505/719 189/506/720
f 189/431/721 190/432/722 192/433/723 191/434/724
f 191/507/725 192/508/726 194/509/727 193/510/728
f 193/435/729 194/436/730 188/437/731 187/438/732
f 200/339/733 199/340/734 201/341/735 202/342/736
f 193/343/737 187/344/738 189/345/739 191/346/740
f 188/347/741 194/348/742 195/349/743 196/350/744
f 194/348/745 192/351/746 197/352/747 195/349/748
f 192/351/749 190/353/750 198/354/751 197/352/752
f 190/353/753 188/347/754 196/350/755 198/354/756
f 196/439/757 195/440/758 199/441/759 200/442/760
f 195/511/761 197/512/762 201/513/763 199/514/764
f 197/443/765 198/444/766 202/445/767 201/446/768
f 198/515/769 196/516/770 200/517/771 202/518/772
f 203/519/773 205/520/774 206/521/775 204/522/776
f 205/447/777 207/448/778 208/449/779 206/450/780
f 207/523/781 209/524/782 210/525/783 208/526/784
f 209/451/785 203/452/786 204/453/787 210/454/788
f 216/355/789 218/356/790 217/357/791 215/358/792
f 209/359/793 207/360/794 205/361/795 203/362/796
f 204/363/797 212/364/798 211/365/799 210/366/800
f 210/366/801 211/365/802 213/369/803 208/370/804
f 208/370/805 213/369/806 214/368/807 206/367/808
f 206/367/809 214/368/810 212/364/811 204/363/812
f 212/455/813 216/456/814 215/457/815 211/458/816
f 211/527/817 215/528/818 217/529/819 213/530/820
f 213/459/821 217/460/822 218/461/823 214/462/824
f 214/531/825 218/532/826 216/533/827 212/534/828
