# This file uses centimeters as units for non-parametric coordinates.

mtllib Tree_With_Leaves_04.mtl
g Tree_With_Leaves_04:default1
v 6.533975 13.681405 0.000000
v 4.496894 14.886862 -4.451521
v 4.101847 18.511641 -4.010468
v 6.050059 18.790459 0.000000
v 5.007847 10.957458 5.023357
v 4.095862 18.654585 3.904042
v 4.290532 16.696972 -4.230994
v 7.280455 16.191647 -0.094741
v 4.511949 14.795349 4.463700
v -4.199080 19.579393 4.285406
v 0.178069 19.338379 6.114037
v 0.629100 25.628355 4.170410
v -2.358227 25.641739 3.013366
v -5.988681 19.677935 0.000000
v -3.613981 25.668812 0.000000
v -4.121277 19.605152 -4.291609
v -2.024464 26.632593 -2.733202
v 0.377518 22.485235 5.142223
v -4.105676 22.680565 5.307358
v -5.722125 22.753937 -0.994783
v -3.104813 23.135820 -3.512405
v 3.887956 25.997484 3.172827
v 5.198559 25.877010 0.023870
v 3.579329 31.273907 -0.011231
v 2.977189 30.530546 1.822960
v 0.688887 26.291531 4.521528
v 1.366552 32.015320 2.051012
v 4.259438 28.807402 0.023870
v 4.022315 28.832829 3.167723
v 1.037680 29.152842 3.264093
vt 0.415365 0.546881
vt 0.572064 0.257904
vt 0.716470 0.252454
vt 0.636146 0.514686
vt 0.641410 0.001823
vt 0.745540 0.014510
vt 0.865971 0.257904
vt 0.858154 0.482491
vt 0.849932 0.027196
vt 0.007661 0.307138
vt 0.001992 0.060613
vt 0.180392 0.001823
vt 0.184613 0.364364
vt 0.350738 0.133789
vt 0.352296 0.307138
vt 0.003474 0.554020
vt 0.206581 0.509194
vt 0.407739 0.464370
vt 0.333060 0.564941
vt 0.514208 0.558011
vt 0.514208 0.726587
vt 0.333353 0.728049
vt 0.516228 0.868476
vt 0.410713 0.825713
vt 0.720259 0.564737
vt 0.972062 0.550873
vt 0.983535 0.731901
vt 0.725632 0.743137
vt 0.998008 0.912714
vt 0.826157 0.913484
vt 0.522363 0.567788
vt 0.706395 0.550873
vt 0.714124 0.713980
vt 0.542428 0.732390
vt 0.654001 0.811644
vt 0.561347 0.897058
vn 0.845942 -0.133490 -0.516296
vn 0.845942 -0.133490 -0.516296
vn 0.845942 -0.133490 -0.516296
vn 0.845942 -0.133490 -0.516296
vn 0.909910 -0.049428 0.411850
vn 0.909910 -0.049428 0.411850
vn 0.909910 -0.049428 0.411850
vn 0.909910 -0.049428 0.411850
vn 0.833185 0.256993 -0.489651
vn 0.833185 0.256993 -0.489651
vn 0.833185 0.256993 -0.489651
vn 0.833185 0.256993 -0.489651
vn 0.836802 0.204741 0.507783
vn 0.836802 0.204741 0.507783
vn 0.836802 0.204741 0.507783
vn 0.836802 0.204741 0.507783
vn -0.319644 0.409893 0.854292
vn -0.319644 0.409893 0.854292
vn -0.184442 0.004944 0.982831
vn -0.184442 0.004944 0.982831
vn -0.818205 0.453125 0.353861
vn -0.818205 0.453125 0.353861
vn -0.948787 0.076255 0.306575
vn -0.948787 0.076255 0.306575
vn -0.818206 0.453125 -0.353860
vn -0.818206 0.453125 -0.353860
vn -0.825882 0.164747 -0.539238
vn -0.825882 0.164747 -0.539238
vn -0.095876 0.498995 0.861285
vn -0.095876 0.498995 0.861285
vn -0.319644 0.409893 0.854292
vn -0.319645 0.409893 0.854292
vn -0.773719 0.583623 0.246460
vn -0.773719 0.583624 0.246460
vn -0.818205 0.453125 0.353861
vn -0.818205 0.453125 0.353861
vn -0.729233 0.505588 -0.461085
vn -0.729233 0.505588 -0.461085
vn -0.818206 0.453125 -0.353860
vn -0.818206 0.453125 -0.353860
vn 0.889140 0.286751 0.356656
vn 0.889141 0.286750 0.356656
vn 0.961768 0.142841 0.233663
vn 0.961768 0.142841 0.233663
vn 0.386638 0.330324 0.861044
vn 0.386638 0.330324 0.861044
vn 0.238826 0.191842 0.951924
vn 0.238826 0.191842 0.951924
vn 0.868166 0.449543 0.210235
vn 0.868166 0.449543 0.210235
vn 0.889140 0.286751 0.356656
vn 0.889141 0.286750 0.356656
vn 0.243215 0.507864 0.826390
vn 0.243215 0.507864 0.826390
vn 0.386638 0.330324 0.861044
vn 0.386638 0.330324 0.861044
s off
g Tree_With_Leaves_04:polySurface3 Tree_With_Leaves_04:polySurface4 Tree_With_Leaves_04:polySurface24 Tree_With_Leaves_04:polySurface25 Tree_With_Leaves_04:polySurface26 Tree_With_Leaves_04:polySurface27 polySurface15
usemtl initialShadingGroup
f 1/2/1 2/5/2 7/6/3 8/3/4
f 5/1/5 1/2/6 8/3/7 9/4/8
f 8/3/9 7/6/10 3/9/11 4/7/12
f 9/4/13 8/3/14 4/7/15 6/8/16
f 10/25/17 11/26/18 18/27/19 19/28/20
f 14/10/21 10/11/22 19/12/23 20/13/24
f 16/16/25 14/10/26 20/13/27 21/17/28
f 19/28/29 18/27/30 12/29/31 13/30/32
g Tree_With_Leaves_04:polySurface2 Tree_With_Leaves_04:polySurface3 Tree_With_Leaves_04:polySurface4 Tree_With_Leaves_04:polySurface24 Tree_With_Leaves_04:polySurface25 Tree_With_Leaves_04:polySurface27 polySurface15
f 20/13/33 19/12/34 13/14/35 15/15/36
f 21/17/37 20/13/38 15/15/39 17/18/40
g Tree_With_Leaves_04:polySurface3 Tree_With_Leaves_04:polySurface4 Tree_With_Leaves_04:polySurface24 Tree_With_Leaves_04:polySurface25 Tree_With_Leaves_04:polySurface26 Tree_With_Leaves_04:polySurface27 polySurface15
f 22/19/41 23/20/42 28/21/43 29/22/44
f 26/31/45 22/32/46 29/33/47 30/34/48
f 29/22/49 28/21/50 24/23/51 25/24/52
f 30/34/53 29/33/54 25/35/55 27/36/56
g Tree_With_Leaves_04:default1
v 1.076241 -0.002900 -0.707107
v 0.173509 -0.012527 -1.192148
v -1.019954 -0.025255 -1.149327
v -1.760793 -0.033156 0.000000
v -1.069681 -0.025785 1.024877
v -0.025599 -0.014650 1.449831
v 0.965964 -0.045331 0.787820
v 1.337069 -0.000118 0.000000
v 2.082525 36.785751 -0.132693
v 1.951270 36.805229 -0.187656
v 1.820014 36.824711 -0.132693
v 1.765647 36.832779 0.000000
v 1.820014 36.824711 0.132693
v 1.951270 36.805229 0.187656
v 2.082525 36.785751 0.132693
v 2.136894 36.777679 0.000000
v -0.025599 -0.014650 0.000000
v 1.951270 36.805229 0.000000
v 3.418752 26.129667 -2.733202
v 4.546079 26.025507 0.000000
v 3.418754 26.129665 2.733202
v 0.697145 26.381130 3.865327
v -2.024464 26.632593 2.733202
v -3.151788 26.736752 0.000000
v -2.024464 26.632593 -2.733202
v 0.697145 26.381130 -3.865327
v 2.726186 31.848661 -1.433407
v 3.315511 31.776426 0.000000
v 2.726186 31.848661 1.433407
v 1.303427 32.023056 2.027142
v -0.119331 32.197449 1.433407
v -0.708656 32.269684 0.000000
v -0.119331 32.197449 -1.433407
v 1.303427 32.023056 -2.027142
v 3.947846 19.881521 -3.732706
v 5.491295 19.790310 0.000000
v 3.947846 19.881521 3.732706
v 0.221640 20.101723 5.278848
v -3.504565 20.321922 3.732706
v -5.048014 20.413134 0.000000
v -3.504565 20.321922 -3.732706
v 0.221640 20.101723 -5.278848
v 2.932203 32.001232 -1.619250
v 3.597858 31.919012 0.000000
v 2.932203 32.001232 1.619250
v 1.325169 32.199745 2.289962
v -0.281867 32.398247 1.619249
v -0.947521 32.480473 0.000000
v -0.281867 32.398247 -1.619250
v 1.325169 32.199745 -2.289961
v 3.824626 26.003304 -3.148958
v 3.620958 25.851801 -2.959935
v 4.841964 25.740675 0.000000
v 5.123498 25.883909 0.000000
v 3.620958 25.851803 2.959935
v 3.824626 26.003304 3.148957
v 0.673204 26.120054 4.185987
v 0.688887 26.291531 4.453305
v -2.274549 26.388325 2.959935
v -2.446850 26.579765 3.148957
v -3.495556 26.499435 0.000000
v -3.745723 26.699152 0.000000
v -2.274549 26.388325 -2.959935
v -2.446850 26.579765 -3.148958
v 0.673204 26.120054 -4.185987
v 0.688887 26.291531 -4.453305
v 4.456993 19.102770 -4.285408
v 4.326497 18.883259 -4.167041
v 6.050059 18.790459 0.000000
v 6.229396 19.005177 0.000000
v 4.326499 18.883259 4.167040
v 4.456994 19.102770 4.285407
v 0.165486 19.107298 5.893095
v 0.178069 19.338379 6.060492
v -3.995527 19.331335 4.167039
v -4.100857 19.573986 4.285406
v -5.719086 19.424137 0.000000
v -5.873257 19.671579 0.000000
v -3.995527 19.331335 -4.167041
v -4.100857 19.573986 -4.285408
v 0.165486 19.107298 -5.893095
v 0.178069 19.338379 -6.060492
v 0.650325 10.680566 -0.751412
v 0.961556 10.677609 0.000000
v 0.650325 10.680566 0.751413
v -0.101054 10.687706 1.062658
v -0.852432 10.694847 0.751412
v -1.163664 10.697804 0.000000
v -0.852432 10.694847 -0.751412
v -0.101054 10.687706 -1.062658
v 2.817914 10.662162 -2.919078
v 4.026981 10.650659 0.000000
v 2.817914 10.662162 2.919079
v -0.101032 10.689935 4.128200
v -3.019978 10.717707 2.919078
v -4.229046 10.729211 0.000000
v -3.019978 10.717707 -2.919078
v -0.101032 10.689935 -4.128200
v 4.948440 10.943044 -5.046590
v 4.769008 10.670751 -4.869999
v 6.786131 10.651263 0.000000
v 7.038673 10.919757 0.000000
v 4.769008 10.670751 4.870001
v 4.948440 10.943044 5.046591
v -0.100765 10.717799 6.887218
v -0.097838 10.999265 7.136954
v -4.970537 10.764847 4.869999
v -5.144114 11.055486 5.046590
v -6.987662 10.784335 0.000000
v -7.234349 11.078773 0.000000
v -4.970537 10.764847 -4.869999
v -5.144114 11.055486 -5.046590
v -0.100765 10.717799 -6.887218
v -0.097838 10.999265 -7.136954
v 1.734120 10.671370 -1.835245
v 2.494269 10.664142 0.000000
v 1.734120 10.671370 1.835246
v -0.101043 10.688821 2.595429
v -1.936205 10.706271 1.835245
v -2.696355 10.713499 0.000000
v -1.936205 10.706271 -1.835245
v -0.101043 10.688821 -2.595429
vt 0.397824 0.002103
vt 0.425514 0.001913
vt 0.425514 0.260441
vt 0.407411 0.260370
vt 0.450205 0.002090
vt 0.443617 0.260370
vt 0.458242 0.001913
vt 0.477222 0.003002
vt 0.477222 0.260248
vt 0.459119 0.260319
vt 0.494257 0.002935
vt 0.495325 0.260319
vt 0.780520 0.611703
vt 0.782717 0.701630
vt 0.758667 0.712094
vt 0.756431 0.611703
vt 0.782717 0.521775
vt 0.758667 0.511311
vt 0.498432 0.807095
vt 0.537443 0.809076
vt 0.501629 0.924344
vt 0.498432 0.924149
vt 0.459422 0.809076
vt 0.495236 0.924344
vt 0.637400 0.148684
vt 0.676411 0.146703
vt 0.640597 0.253345
vt 0.637400 0.253539
vt 0.671934 0.141865
vt 0.637400 0.143605
vt 0.598390 0.146703
vt 0.634204 0.253345
vt 0.602867 0.141865
vt 0.637400 0.009401
vt 0.713265 0.006525
vt 0.561536 0.006525
vt 0.708711 0.001913
vt 0.637400 0.004590
vt 0.566090 0.001913
vt 0.854306 0.776571
vt 0.857182 0.700707
vt 0.998008 0.742037
vt 0.996268 0.776571
vt 0.857182 0.852435
vt 0.998008 0.811104
vt 0.007165 0.671600
vt 0.009516 0.568357
vt 0.178807 0.605753
vt 0.176298 0.671600
vt 0.004228 0.571209
vt 0.001992 0.671600
vt 0.009516 0.774844
vt 0.178807 0.737448
vt 0.004228 0.771992
vt 0.193585 0.700172
vt 0.191234 0.596929
vt 0.361289 0.634324
vt 0.363799 0.700172
vt 0.185388 0.599780
vt 0.187624 0.700172
vt 0.191234 0.803416
vt 0.361289 0.766020
vt 0.185388 0.800564
vt 0.725870 0.123494
vt 0.726431 0.001913
vt 0.941775 0.033566
vt 0.939578 0.123494
vt 0.719871 0.006167
vt 0.719401 0.123494
vt 0.726431 0.245076
vt 0.941775 0.213422
vt 0.719871 0.240822
vt 0.773126 0.370649
vt 0.772565 0.249067
vt 0.995810 0.280721
vt 0.998008 0.370649
vt 0.765563 0.253322
vt 0.766032 0.370649
vt 0.772565 0.492231
vt 0.995810 0.460577
vt 0.765563 0.487976
vt 0.122895 0.835439
vt 0.134580 0.813691
vt 0.151616 0.840236
vt 0.151616 0.807407
vt 0.123926 0.864192
vt 0.170596 0.816348
vt 0.151616 0.882040
vt 0.186545 0.840236
vt 0.176307 0.865390
vt 0.115450 0.786553
vt 0.112288 0.787877
vt 0.112288 0.783356
vt 0.109125 0.786553
vt 0.116760 0.783356
vt 0.107816 0.783356
vt 0.115450 0.780159
vt 0.109125 0.780159
vt 0.112288 0.778835
vt 0.265150 0.828043
vt 0.270113 0.823566
vt 0.286150 0.862576
vt 0.279348 0.862576
vt 0.230873 0.813739
vt 0.231397 0.807407
vt 0.270113 0.901587
vt 0.265150 0.897110
vt 0.196596 0.828043
vt 0.192680 0.823566
vt 0.231397 0.917746
vt 0.230873 0.911414
vt 0.192680 0.901587
vt 0.196596 0.897110
vt 0.259049 0.385767
vt 0.263956 0.381213
vt 0.295248 0.457077
vt 0.288465 0.457077
vt 0.188032 0.356229
vt 0.188410 0.349789
vt 0.263956 0.532942
vt 0.259049 0.528388
vt 0.281337 0.457077
vt 0.254177 0.391229
vt 0.188609 0.363954
vt 0.117015 0.385767
vt 0.112864 0.381213
vt 0.188410 0.564366
vt 0.188032 0.557925
vt 0.254178 0.522925
vt 0.123040 0.391229
vt 0.112864 0.532942
vt 0.117015 0.528388
vt 0.188609 0.550200
vt 0.095881 0.457077
vt 0.087599 0.457077
vt 0.123040 0.522925
vt 0.193503 0.173855
vt 0.186005 0.155752
vt 0.212116 0.129640
vt 0.230429 0.173855
vt 0.167903 0.148254
vt 0.167903 0.111326
vt 0.238227 0.103529
vt 0.267355 0.173855
vt 0.186005 0.191958
vt 0.212116 0.218069
vt 0.149801 0.155752
vt 0.123691 0.129640
vt 0.167904 0.074399
vt 0.285232 0.056528
vt 0.333828 0.173855
vt 0.238227 0.244181
vt 0.167903 0.199456
vt 0.167903 0.236384
vt 0.142303 0.173855
vt 0.105378 0.173855
vt 0.097581 0.103529
vt 0.167910 0.007929
vt 0.285232 0.291182
vt 0.167904 0.273311
vt 0.149801 0.191958
vt 0.123691 0.218069
vt 0.068452 0.173855
vt 0.050588 0.056528
vt 0.289555 0.052273
vt 0.167981 0.001913
vt 0.167910 0.339781
vt 0.097581 0.244181
vt 0.001992 0.173855
vt 0.046407 0.052273
vt 0.289555 0.295437
vt 0.167981 0.345797
vt 0.050588 0.291182
vt 0.046407 0.295437
vt 0.553569 0.259641
vt 0.531820 0.259873
vt 0.525206 0.002085
vt 0.543308 0.002257
vt 0.503068 0.260180
vt 0.507104 0.001913
vt 0.341305 0.002383
vt 0.366458 0.002652
vt 0.364641 0.260491
vt 0.346539 0.260663
vt 0.390347 0.001913
vt 0.382743 0.260319
vt 0.828001 0.595116
vt 0.833306 0.505345
vt 0.857356 0.496222
vt 0.851958 0.596469
vt 0.822696 0.684887
vt 0.846561 0.696715
vt 0.887674 0.505345
vt 0.892979 0.595116
vt 0.869021 0.596469
vt 0.863624 0.496222
vt 0.898284 0.684887
vt 0.874419 0.696715
vt 0.414570 0.811877
vt 0.453286 0.807095
vt 0.432816 0.922363
vt 0.429654 0.922832
vt 0.375854 0.816660
vt 0.426492 0.923301
vt 0.331002 0.918831
vt 0.292285 0.914049
vt 0.342924 0.807407
vt 0.346086 0.807876
vt 0.369718 0.923614
vt 0.349248 0.808346
vt 0.705886 0.797023
vt 0.698942 0.721477
vt 0.839768 0.747940
vt 0.843969 0.782217
vt 0.712830 0.872568
vt 0.848171 0.816494
vt 0.685863 0.882641
vt 0.678919 0.958186
vt 0.543578 0.902112
vt 0.547780 0.867835
vt 0.692807 0.807095
vt 0.551981 0.833558
vt 0.574450 0.614398
vt 0.568774 0.511311
vt 0.738065 0.536324
vt 0.744123 0.601893
vt 0.563485 0.514455
vt 0.568883 0.614701
vt 0.580126 0.717485
vt 0.750181 0.667461
vt 0.574280 0.714948
vt 0.546270 0.700016
vt 0.540594 0.803103
vt 0.370539 0.753079
vt 0.376597 0.687511
vt 0.546440 0.800566
vt 0.551837 0.700319
vt 0.551946 0.596929
vt 0.382655 0.621942
vt 0.557235 0.600073
vt 0.534827 0.385745
vt 0.533473 0.264171
vt 0.748818 0.288277
vt 0.754122 0.378049
vt 0.536182 0.507320
vt 0.759428 0.467820
vt 0.525983 0.471363
vt 0.524629 0.592937
vt 0.301383 0.553437
vt 0.306688 0.463666
vt 0.527338 0.349789
vt 0.311993 0.373895
vt 0.815626 0.596614
vt 0.813429 0.686542
vt 0.789564 0.697006
vt 0.791799 0.596614
vt 0.813429 0.506686
vt 0.789564 0.496222
vn 0.435708 0.009536 -0.900038
vn 0.435708 0.009536 -0.900038
vn 0.416397 0.003188 -0.909177
vn 0.417465 0.003537 -0.908686
vn -0.171086 0.093767 -0.980784
vn -0.171086 0.093767 -0.980784
vn -0.244219 0.082049 -0.966243
vn -0.242798 0.082283 -0.966581
vn -0.849423 0.221414 -0.479016
vn -0.849423 0.221414 -0.479016
vn -0.873628 0.185330 -0.449918
vn -0.873572 0.185420 -0.449991
vn -0.846053 0.218403 0.486307
vn -0.846053 0.218403 0.486307
vn -0.872846 0.181209 0.453104
vn -0.872495 0.181728 0.453573
vn -0.366463 0.139721 0.919882
vn -0.366463 0.139721 0.919882
vn -0.371053 0.111735 0.921865
vn -0.371044 0.111795 0.921861
vn 0.492061 0.029854 0.870049
vn 0.492061 0.029854 0.870049
vn 0.456291 0.017305 0.889662
vn 0.456035 0.017216 0.889795
vn 0.913852 -0.003585 0.406031
vn 0.913852 -0.003585 0.406031
vn 0.917414 -0.022812 0.397279
vn 0.917482 -0.023202 0.397100
vn 0.931470 0.007492 -0.363740
vn 0.931470 0.007492 -0.363740
vn 0.928194 -0.017903 -0.371666
vn 0.928311 -0.017080 -0.371413
vn -0.086390 -0.996261 0.000000
vn -0.086390 -0.996261 0.000000
vn -0.092292 -0.995723 -0.004162
vn -0.086390 -0.996261 0.000000
vn -0.086390 -0.996261 0.000000
vn -0.092292 -0.995723 -0.004162
vn -0.086390 -0.996261 0.000000
vn -0.086390 -0.996261 0.000000
vn -0.092292 -0.995723 -0.004162
vn -0.086390 -0.996261 0.000000
vn -0.086390 -0.996261 0.000000
vn -0.092292 -0.995723 -0.004162
vn -0.104639 -0.994510 0.000000
vn -0.086390 -0.996261 0.000000
vn -0.092292 -0.995723 -0.004162
vn -0.109444 -0.993723 -0.023163
vn -0.104639 -0.994510 0.000000
vn -0.092292 -0.995723 -0.004162
vn -0.086360 -0.995908 -0.026619
vn -0.109444 -0.993723 -0.023163
vn -0.092292 -0.995723 -0.004162
vn -0.086390 -0.996261 0.000000
vn -0.086360 -0.995908 -0.026619
vn -0.092292 -0.995723 -0.004162
vn 0.086390 0.996261 0.000000
vn 0.086390 0.996261 0.000000
vn 0.086390 0.996261 0.000002
vn 0.086390 0.996261 0.000000
vn 0.086390 0.996261 -0.000010
vn 0.086390 0.996261 0.000002
vn 0.086390 0.996261 -0.000010
vn 0.086390 0.996261 0.000010
vn 0.086390 0.996261 0.000002
vn 0.086390 0.996261 0.000010
vn 0.086390 0.996261 0.000019
vn 0.086390 0.996261 0.000002
vn 0.086390 0.996261 0.000019
vn 0.086390 0.996261 0.000000
vn 0.086390 0.996261 0.000002
vn 0.086390 0.996261 0.000000
vn 0.086390 0.996261 0.000000
vn 0.086390 0.996261 0.000002
vn 0.086390 0.996261 0.000000
vn 0.086390 0.996261 0.000000
vn 0.086390 0.996261 0.000002
vn 0.086390 0.996261 0.000000
vn 0.086390 0.996261 0.000000
vn 0.086390 0.996261 0.000002
vn 0.323454 -0.859178 -0.396472
vn 0.323454 -0.859178 -0.396472
vn -0.071533 -0.824926 -0.560696
vn -0.071533 -0.824926 -0.560696
vn 0.323454 -0.859178 -0.396472
vn 0.323454 -0.859178 -0.396472
vn 0.487064 -0.873366 0.000000
vn 0.487064 -0.873366 0.000000
vn 0.487064 -0.873366 0.000000
vn 0.487064 -0.873366 0.000000
vn 0.323454 -0.859178 0.396472
vn 0.323454 -0.859178 0.396472
vn 0.323454 -0.859178 0.396472
vn 0.323454 -0.859178 0.396472
vn -0.071533 -0.824926 0.560696
vn -0.071533 -0.824926 0.560696
vn -0.071533 -0.824926 0.560696
vn -0.071533 -0.824926 0.560696
vn -0.466521 -0.790676 0.396472
vn -0.466521 -0.790676 0.396472
vn -0.466521 -0.790676 0.396472
vn -0.466521 -0.790676 0.396472
vn -0.630131 -0.776489 0.000000
vn -0.630131 -0.776489 0.000000
vn -0.630131 -0.776489 0.000000
vn -0.630131 -0.776489 0.000000
vn -0.466521 -0.790676 -0.396472
vn -0.466521 -0.790676 -0.396472
vn -0.466521 -0.790676 -0.396472
vn -0.466521 -0.790676 -0.396472
vn -0.071533 -0.824926 -0.560696
vn -0.071533 -0.824926 -0.560696
vn 0.308771 -0.870689 -0.382833
vn 0.308771 -0.870689 -0.382834
vn -0.072634 -0.837617 -0.541408
vn -0.072634 -0.837617 -0.541408
vn 0.308771 -0.870689 -0.382834
vn 0.308771 -0.870689 -0.382833
vn 0.466752 -0.884388 0.000001
vn 0.466752 -0.884388 0.000001
vn 0.466752 -0.884388 0.000001
vn 0.466752 -0.884388 0.000001
vn 0.308771 -0.870688 0.382836
vn 0.308771 -0.870688 0.382836
vn 0.308771 -0.870688 0.382836
vn 0.308771 -0.870688 0.382836
vn -0.072634 -0.837616 0.541409
vn -0.072634 -0.837616 0.541409
vn -0.072634 -0.837616 0.541409
vn -0.072634 -0.837616 0.541409
vn -0.454037 -0.804542 0.382834
vn -0.454037 -0.804542 0.382834
vn -0.454037 -0.804542 0.382834
vn -0.454037 -0.804542 0.382834
vn -0.612019 -0.790843 0.000000
vn -0.612019 -0.790843 0.000000
vn -0.612019 -0.790843 0.000000
vn -0.612019 -0.790843 0.000000
vn -0.454037 -0.804542 -0.382834
vn -0.454037 -0.804542 -0.382834
vn -0.454037 -0.804542 -0.382834
vn -0.454037 -0.804542 -0.382834
vn -0.072634 -0.837617 -0.541408
vn -0.072634 -0.837617 -0.541408
vn 0.268951 -0.581140 -0.768077
vn 0.268951 -0.581140 -0.768077
vn 0.268951 -0.581140 -0.768077
vn 0.268951 -0.581140 -0.768077
vn 0.717195 -0.620009 -0.318151
vn 0.717195 -0.620009 -0.318151
vn 0.717195 -0.620009 -0.318151
vn 0.717195 -0.620009 -0.318151
vn 0.717194 -0.620011 0.318150
vn 0.717194 -0.620011 0.318150
vn 0.717194 -0.620011 0.318150
vn 0.717194 -0.620011 0.318150
vn 0.268950 -0.581140 0.768077
vn 0.268950 -0.581140 0.768077
vn 0.268951 -0.581140 0.768077
vn 0.268951 -0.581140 0.768077
vn -0.364971 -0.526169 0.768077
vn -0.364971 -0.526169 0.768077
vn -0.364971 -0.526169 0.768077
vn -0.364971 -0.526169 0.768077
vn -0.813215 -0.487301 0.318150
vn -0.813215 -0.487301 0.318150
vn -0.813215 -0.487301 0.318150
vn -0.813215 -0.487301 0.318150
vn -0.813214 -0.487302 -0.318150
vn -0.813214 -0.487302 -0.318150
vn -0.813214 -0.487302 -0.318150
vn -0.813214 -0.487302 -0.318150
vn -0.364971 -0.526169 -0.768077
vn -0.364970 -0.526170 -0.768077
vn -0.364971 -0.526169 -0.768077
vn -0.364970 -0.526170 -0.768077
vn -0.697382 -0.716699 0.000000
vn -0.512715 -0.732713 0.447499
vn -0.512715 -0.732713 0.447499
vn -0.697382 -0.716699 0.000000
vn -0.512715 -0.732713 -0.447499
vn -0.697382 -0.716699 0.000000
vn -0.697382 -0.716699 0.000000
vn -0.512715 -0.732713 -0.447499
vn -0.066889 -0.771372 -0.632859
vn -0.512715 -0.732713 -0.447499
vn -0.512715 -0.732713 -0.447499
vn -0.066889 -0.771372 -0.632859
vn 0.378937 -0.810032 -0.447499
vn -0.066889 -0.771372 -0.632859
vn -0.066889 -0.771372 -0.632859
vn 0.378937 -0.810032 -0.447499
vn 0.563604 -0.826045 0.000000
vn 0.378937 -0.810032 -0.447499
vn 0.378937 -0.810032 -0.447499
vn 0.563604 -0.826045 0.000000
vn 0.378936 -0.810033 0.447498
vn 0.563604 -0.826045 0.000000
vn 0.563604 -0.826045 0.000000
vn 0.378937 -0.810032 0.447498
vn -0.066889 -0.771372 0.632859
vn 0.378936 -0.810033 0.447498
vn 0.378937 -0.810032 0.447498
vn -0.066889 -0.771372 0.632859
vn -0.512715 -0.732713 0.447499
vn -0.066889 -0.771372 0.632859
vn -0.066889 -0.771372 0.632859
vn -0.512715 -0.732713 0.447499
vn -0.083250 -0.996529 0.000000
vn -0.084169 -0.996449 -0.002229
vn -0.086503 -0.996252 0.000113
vn -0.086550 -0.996248 0.000000
vn -0.084169 -0.996449 0.002229
vn -0.083250 -0.996529 0.000000
vn -0.086550 -0.996248 0.000000
vn -0.086503 -0.996252 -0.000113
vn -0.086390 -0.996256 0.003152
vn -0.084169 -0.996449 0.002229
vn -0.086503 -0.996252 -0.000113
vn -0.086390 -0.996261 -0.000160
vn -0.088611 -0.996064 0.002229
vn -0.086390 -0.996256 0.003152
vn -0.086390 -0.996261 -0.000160
vn -0.086278 -0.996271 -0.000113
vn -0.089530 -0.995984 0.000000
vn -0.088611 -0.996064 0.002229
vn -0.086278 -0.996271 -0.000113
vn -0.086231 -0.996275 0.000000
vn -0.088611 -0.996064 -0.002229
vn -0.089530 -0.995984 0.000000
vn -0.086231 -0.996275 0.000000
vn -0.086278 -0.996271 0.000113
vn -0.086390 -0.996256 -0.003152
vn -0.088611 -0.996064 -0.002229
vn -0.086278 -0.996271 0.000113
vn -0.086390 -0.996261 0.000160
vn -0.084169 -0.996449 -0.002229
vn -0.086390 -0.996256 -0.003152
vn -0.086390 -0.996261 0.000160
vn -0.086503 -0.996252 0.000113
vn 0.882540 0.310577 -0.353079
vn 0.882540 0.310577 -0.353079
vn 0.882540 0.310577 -0.353079
vn 0.882540 0.310577 -0.353079
vn 0.882541 0.310577 0.353078
vn 0.882541 0.310577 0.353078
vn 0.882541 0.310577 0.353078
vn 0.882541 0.310577 0.353078
vn 0.385076 0.353714 0.852410
vn 0.385076 0.353714 0.852410
vn 0.385076 0.353714 0.852410
vn 0.385076 0.353714 0.852410
vn -0.318442 0.414720 0.852410
vn -0.318442 0.414720 0.852410
vn -0.318442 0.414720 0.852410
vn -0.318442 0.414720 0.852410
vn -0.815906 0.457857 0.353079
vn -0.815906 0.457857 0.353079
vn -0.815906 0.457857 0.353079
vn -0.815906 0.457857 0.353079
vn -0.815906 0.457857 -0.353078
vn -0.815906 0.457857 -0.353078
vn -0.815906 0.457857 -0.353078
vn -0.815906 0.457857 -0.353078
vn -0.318441 0.414720 -0.852410
vn -0.318442 0.414720 -0.852410
vn -0.318442 0.414720 -0.852410
vn -0.318441 0.414720 -0.852410
vn 0.385076 0.353714 -0.852410
vn 0.385076 0.353714 -0.852410
vn 0.385076 0.353714 -0.852410
vn 0.385076 0.353714 -0.852410
vn 0.889140 0.286750 -0.356657
vn 0.889140 0.286750 -0.356657
vn 0.889140 0.286750 -0.356657
vn 0.889140 0.286750 -0.356657
vn 0.889140 0.286751 0.356656
vn 0.889141 0.286750 0.356656
vn 0.889140 0.286751 0.356656
vn 0.889141 0.286750 0.356656
vn 0.386638 0.330324 0.861044
vn 0.386638 0.330324 0.861044
vn 0.386638 0.330324 0.861044
vn 0.386638 0.330324 0.861044
vn -0.324007 0.391948 0.861044
vn -0.324007 0.391948 0.861044
vn -0.324007 0.391948 0.861044
vn -0.324007 0.391948 0.861044
vn -0.826509 0.435522 0.356657
vn -0.826509 0.435522 0.356657
vn -0.826509 0.435522 0.356657
vn -0.826509 0.435522 0.356657
vn -0.826509 0.435522 -0.356657
vn -0.826509 0.435522 -0.356657
vn -0.826509 0.435522 -0.356657
vn -0.826509 0.435522 -0.356657
vn -0.324007 0.391948 -0.861044
vn -0.324007 0.391948 -0.861044
vn -0.324007 0.391948 -0.861044
vn -0.324007 0.391948 -0.861044
vn 0.386638 0.330324 -0.861044
vn 0.386638 0.330324 -0.861044
vn 0.386638 0.330324 -0.861044
vn 0.386638 0.330324 -0.861044
vn 0.883991 0.305520 -0.353861
vn 0.883991 0.305520 -0.353861
vn 0.883991 0.305520 -0.353861
vn 0.883991 0.305520 -0.353861
vn 0.883991 0.305520 0.353861
vn 0.883991 0.305520 0.353861
vn 0.883991 0.305520 0.353861
vn 0.883991 0.305520 0.353861
vn 0.385430 0.348753 0.854292
vn 0.385430 0.348753 0.854292
vn 0.385430 0.348753 0.854292
vn 0.385430 0.348753 0.854292
vn -0.319644 0.409893 0.854292
vn -0.319644 0.409893 0.854292
vn -0.319644 0.409893 0.854292
vn -0.319645 0.409893 0.854292
vn -0.818205 0.453125 0.353861
vn -0.818205 0.453125 0.353861
vn -0.818205 0.453125 0.353861
vn -0.818205 0.453125 0.353861
vn -0.818206 0.453125 -0.353860
vn -0.818206 0.453125 -0.353860
vn -0.818206 0.453125 -0.353860
vn -0.818206 0.453125 -0.353860
vn -0.319644 0.409893 -0.854292
vn -0.319644 0.409893 -0.854292
vn -0.319644 0.409893 -0.854292
vn -0.319644 0.409893 -0.854292
vn 0.385430 0.348753 -0.854292
vn 0.385430 0.348753 -0.854292
vn 0.385430 0.348753 -0.854292
vn 0.385430 0.348753 -0.854292
vn 0.928311 -0.017080 -0.371413
vn 0.928194 -0.017903 -0.371666
vn -0.085666 -0.996324 -0.000301
vn -0.085666 -0.996324 -0.000301
vn 0.917482 -0.023202 0.397100
vn 0.917414 -0.022812 0.397279
vn -0.085666 -0.996324 0.000301
vn -0.085666 -0.996324 0.000301
vn 0.456035 0.017216 0.889795
vn 0.456291 0.017305 0.889662
vn -0.086091 -0.996287 0.000727
vn -0.086091 -0.996287 0.000727
vn -0.371044 0.111795 0.921861
vn -0.371053 0.111735 0.921865
vn -0.086690 -0.996235 0.000727
vn -0.086690 -0.996235 0.000727
vn -0.872495 0.181728 0.453573
vn -0.872846 0.181209 0.453104
vn -0.087115 -0.996198 0.000301
vn -0.087115 -0.996198 0.000301
vn -0.873572 0.185420 -0.449991
vn -0.873628 0.185330 -0.449918
vn -0.087115 -0.996198 -0.000301
vn -0.087115 -0.996198 -0.000301
vn -0.242798 0.082283 -0.966581
vn -0.244219 0.082049 -0.966243
vn -0.086690 -0.996235 -0.000727
vn -0.086690 -0.996235 -0.000727
vn 0.417465 0.003537 -0.908686
vn 0.416397 0.003188 -0.909177
vn -0.086091 -0.996287 -0.000727
vn -0.086091 -0.996287 -0.000727
vn 0.240046 -0.657238 -0.714434
vn 0.240046 -0.657238 -0.714434
vn 0.240046 -0.657238 -0.714434
vn 0.240046 -0.657238 -0.714434
vn 0.656988 -0.693393 -0.295928
vn 0.656988 -0.693393 -0.295928
vn 0.656988 -0.693393 -0.295928
vn 0.656988 -0.693393 -0.295928
vn 0.656988 -0.693393 0.295928
vn 0.656988 -0.693393 0.295928
vn 0.656988 -0.693393 0.295928
vn 0.656988 -0.693393 0.295928
vn 0.240046 -0.657238 0.714434
vn 0.240046 -0.657238 0.714434
vn 0.240046 -0.657238 0.714434
vn 0.240046 -0.657238 0.714434
vn -0.349597 -0.606107 0.714434
vn -0.349597 -0.606107 0.714434
vn -0.349597 -0.606107 0.714434
vn -0.349597 -0.606107 0.714434
vn -0.766538 -0.569952 0.295928
vn -0.766538 -0.569952 0.295928
vn -0.766538 -0.569952 0.295928
vn -0.766538 -0.569952 0.295928
vn -0.766538 -0.569952 -0.295928
vn -0.766538 -0.569952 -0.295928
vn -0.766538 -0.569952 -0.295928
vn -0.766538 -0.569952 -0.295928
vn -0.349597 -0.606107 -0.714434
vn -0.349597 -0.606107 -0.714434
vn -0.349597 -0.606107 -0.714434
vn -0.349597 -0.606107 -0.714434
vn 0.920498 0.106125 -0.376060
vn 0.920498 0.106125 -0.376060
vn 0.920498 0.106125 -0.376060
vn 0.920498 0.106125 -0.376060
vn 0.920498 0.106125 0.376060
vn 0.920498 0.106125 0.376060
vn 0.920498 0.106125 0.376060
vn 0.920498 0.106125 0.376060
vn 0.390658 0.152069 0.907888
vn 0.390658 0.152069 0.907888
vn 0.390658 0.152069 0.907888
vn 0.390658 0.152069 0.907888
vn -0.358650 0.217046 0.907888
vn -0.358650 0.217046 0.907888
vn -0.358650 0.217046 0.907888
vn -0.358650 0.217046 0.907888
vn -0.888490 0.262990 0.376060
vn -0.888490 0.262990 0.376060
vn -0.888490 0.262990 0.376060
vn -0.888490 0.262990 0.376060
vn -0.888490 0.262990 -0.376060
vn -0.888490 0.262990 -0.376060
vn -0.888490 0.262990 -0.376060
vn -0.888490 0.262990 -0.376060
vn -0.358650 0.217046 -0.907888
vn -0.358650 0.217046 -0.907888
vn -0.358650 0.217046 -0.907888
vn -0.358650 0.217046 -0.907888
vn 0.390658 0.152069 -0.907888
vn 0.390658 0.152069 -0.907888
vn 0.390658 0.152069 -0.907888
vn 0.390658 0.152069 -0.907888
vn -0.078560 -0.996909 0.000000
vn -0.080853 -0.996711 -0.005556
vn -0.079274 -0.996827 -0.007139
vn -0.076327 -0.997083 0.000000
vn -0.080853 -0.996711 0.005556
vn -0.078560 -0.996909 0.000000
vn -0.076327 -0.997083 0.000000
vn -0.079274 -0.996827 0.007139
vn -0.086388 -0.996231 0.007857
vn -0.080853 -0.996711 0.005556
vn -0.079274 -0.996827 0.007139
vn -0.086386 -0.996211 0.010097
vn -0.091923 -0.995751 0.005556
vn -0.086388 -0.996231 0.007857
vn -0.086386 -0.996211 0.010097
vn -0.093498 -0.995594 0.007140
vn -0.094215 -0.995552 0.000000
vn -0.091923 -0.995751 0.005556
vn -0.093498 -0.995594 0.007140
vn -0.096445 -0.995338 0.000000
vn -0.091923 -0.995751 -0.005556
vn -0.094215 -0.995552 0.000000
vn -0.096445 -0.995338 0.000000
vn -0.093498 -0.995594 -0.007140
vn -0.086388 -0.996231 -0.007857
vn -0.091923 -0.995751 -0.005556
vn -0.093498 -0.995594 -0.007140
vn -0.086386 -0.996211 -0.010097
vn -0.080853 -0.996711 -0.005556
vn -0.086388 -0.996231 -0.007857
vn -0.086386 -0.996211 -0.010097
vn -0.079274 -0.996827 -0.007139
vn -0.085666 -0.996324 -0.000301
vn -0.085666 -0.996324 -0.000301
vn -0.080853 -0.996711 -0.005556
vn -0.078560 -0.996909 0.000000
vn -0.085666 -0.996324 0.000301
vn -0.085666 -0.996324 0.000301
vn -0.078560 -0.996909 0.000000
vn -0.080853 -0.996711 0.005556
vn -0.086091 -0.996287 0.000727
vn -0.086091 -0.996287 0.000727
vn -0.080853 -0.996711 0.005556
vn -0.086388 -0.996231 0.007857
vn -0.086690 -0.996235 0.000727
vn -0.086690 -0.996235 0.000727
vn -0.086388 -0.996231 0.007857
vn -0.091923 -0.995751 0.005556
vn -0.087115 -0.996198 0.000301
vn -0.087115 -0.996198 0.000301
vn -0.091923 -0.995751 0.005556
vn -0.094215 -0.995552 0.000000
vn -0.087115 -0.996198 -0.000301
vn -0.087115 -0.996198 -0.000301
vn -0.094215 -0.995552 0.000000
vn -0.091923 -0.995751 -0.005556
vn -0.086690 -0.996235 -0.000727
vn -0.086690 -0.996235 -0.000727
vn -0.091923 -0.995751 -0.005556
vn -0.086388 -0.996231 -0.007857
vn -0.086091 -0.996287 -0.000727
vn -0.086091 -0.996287 -0.000727
vn -0.086388 -0.996231 -0.007857
vn -0.080853 -0.996711 -0.005556
s off
g Tree_With_Leaves_04:polySurface3 Tree_With_Leaves_04:polySurface4 Tree_With_Leaves_04:polySurface24 Tree_With_Leaves_04:polySurface25 Tree_With_Leaves_04:polySurface26 Tree_With_Leaves_04:polySurface27 polySurface17 Tree_With_Leaves_04:polySurface1
usemtl lambert7SG
f 31/211/57 32/212/58 120/213/59 113/214/60
f 32/212/61 33/215/62 119/216/63 120/213/64
f 33/37/65 34/38/66 118/39/67 119/40/68
f 34/38/69 35/41/70 117/42/71 118/39/72
g Tree_With_Leaves_04:polySurface2 Tree_With_Leaves_04:polySurface3 Tree_With_Leaves_04:polySurface4 Tree_With_Leaves_04:polySurface24 Tree_With_Leaves_04:polySurface25 Tree_With_Leaves_04:polySurface27 polySurface17 Tree_With_Leaves_04:polySurface1
f 35/217/73 36/218/74 116/219/75 117/220/76
f 36/218/77 37/221/78 115/222/79 116/219/80
f 37/43/81 38/44/82 114/45/83 115/46/84
f 38/44/85 31/47/86 113/48/87 114/45/88
g Tree_With_Leaves_04:polySurface3 Tree_With_Leaves_04:polySurface4 Tree_With_Leaves_04:polySurface24 Tree_With_Leaves_04:polySurface25 Tree_With_Leaves_04:polySurface27 Tree_With_Leaves_04:polySurface28 polySurface17 Tree_With_Leaves_04:polySurface1
f 32/118/89 31/119/90 47/120/91
f 33/122/92 32/118/93 47/120/94
f 34/124/95 33/122/96 47/120/97
f 35/126/98 34/124/99 47/120/100
f 36/125/101 35/126/102 47/120/103
f 37/123/104 36/125/105 47/120/106
g Tree_With_Leaves_04:polySurface3 Tree_With_Leaves_04:polySurface4 Tree_With_Leaves_04:polySurface24 Tree_With_Leaves_04:polySurface25 Tree_With_Leaves_04:polySurface27 Tree_With_Leaves_04:polySurface29 polySurface17 Tree_With_Leaves_04:polySurface1
f 38/121/107 37/123/108 47/120/109
f 31/119/110 38/121/111 47/120/112
f 39/127/113 40/128/114 48/129/115
f 40/128/116 41/130/117 48/129/118
f 41/130/119 42/132/120 48/129/121
f 42/132/122 43/134/123 48/129/124
f 43/134/125 44/135/126 48/129/127
f 44/135/128 45/133/129 48/129/130
f 45/133/131 46/131/132 48/129/133
f 46/131/134 39/127/135 48/129/136
f 73/137/137 57/136/138 64/140/139 80/141/140
f 57/136/141 73/137/142 74/138/143 58/139/144
f 58/139/145 74/138/146 75/142/147 59/143/148
f 59/143/149 75/142/150 76/146/151 60/147/152
g Tree_With_Leaves_04:polySurface4 Tree_With_Leaves_04:polySurface24 Tree_With_Leaves_04:polySurface25 Tree_With_Leaves_04:polySurface27 Tree_With_Leaves_04:polySurface29 Tree_With_Leaves_04:polySurface30 Tree_With_Leaves_04:polySurface31 polySurface17 Tree_With_Leaves_04:polySurface1
f 60/147/153 76/146/154 77/148/155 61/149/156
f 61/65/157 77/62/158 78/61/159 62/66/160
f 62/66/161 78/61/162 79/67/163 63/69/164
f 63/144/165 79/145/166 80/141/167 64/140/168
f 81/151/169 82/150/170 95/154/171 96/155/172
f 82/150/173 81/151/174 84/152/175 83/153/176
f 83/153/177 84/152/178 86/156/179 85/157/180
f 85/157/181 86/156/182 88/163/183 87/164/184
f 87/164/185 88/163/186 90/167/187 89/168/188
f 89/73/189 90/71/190 92/70/191 91/74/192
f 91/74/193 92/70/194 94/72/195 93/75/196
f 93/161/197 94/162/198 96/155/199 95/154/200
f 97/274/201 98/276/202 111/273/203 112/268/204
f 98/86/205 97/83/206 100/82/207 99/87/208
g Tree_With_Leaves_04:polySurface4 Tree_With_Leaves_04:polySurface13 Tree_With_Leaves_04:polySurface14 Tree_With_Leaves_04:polySurface25 Tree_With_Leaves_04:polySurface27 Tree_With_Leaves_04:polySurface29 Tree_With_Leaves_04:polySurface30 Tree_With_Leaves_04:polySurface31 Tree_With_Leaves_04:polySurface32 polySurface17 Tree_With_Leaves_04:polySurface1
f 99/87/209 100/82/210 102/88/211 101/90/212
f 101/263/213 102/260/214 104/259/215 103/264/216
f 103/264/217 104/259/218 106/265/219 105/267/220
f 105/95/221 106/92/222 108/91/223 107/96/224
f 107/96/225 108/91/226 110/97/227 109/99/228
f 109/272/229 110/269/230 112/268/231 111/273/232
f 50/158/233 49/159/234 82/150/235 83/153/236
f 51/165/237 50/158/238 83/153/239 85/157/240
f 52/169/241 51/165/242 85/157/243 87/164/244
f 53/172/245 52/169/246 87/164/247 89/168/248
f 54/170/249 53/172/250 89/168/251 91/171/252
f 55/166/253 54/170/254 91/171/255 93/161/256
f 56/160/257 55/166/258 93/161/259 95/154/260
f 49/159/261 56/160/262 95/154/263 82/150/264
f 66/49/265 65/50/266 98/51/267 99/52/268
f 67/53/269 66/49/270 99/52/271 101/54/272
f 68/223/273 67/224/274 101/225/275 103/226/276
f 69/227/277 68/223/278 103/226/279 105/228/280
f 70/289/281 69/290/282 105/291/283 107/292/284
f 71/293/285 70/289/286 107/292/287 109/294/288
f 72/230/289 71/233/290 109/234/291 111/231/292
f 65/229/293 72/230/294 111/231/295 98/232/296
f 74/55/297 73/56/298 39/57/299 46/58/300
f 75/59/301 74/55/302 46/58/303 45/60/304
f 76/235/305 75/236/306 45/237/307 44/238/308
f 77/239/309 76/235/310 44/238/311 43/240/312
f 78/61/313 77/62/314 43/63/315 42/64/316
f 79/67/317 78/61/318 42/64/319 41/68/320
f 80/241/321 79/242/322 41/243/323 40/244/324
f 73/245/325 80/241/326 40/244/327 39/246/328
f 84/76/329 81/77/330 57/78/331 58/79/332
f 86/80/333 84/76/334 58/79/335 59/81/336
f 88/247/337 86/248/338 59/249/339 60/250/340
f 90/251/341 88/247/342 60/250/343 61/252/344
f 92/70/345 90/71/346 61/65/347 62/66/348
f 94/72/349 92/70/350 62/66/351 63/69/352
f 96/253/353 94/254/354 63/255/355 64/256/356
f 81/257/357 96/253/358 64/256/359 57/258/360
f 100/82/361 97/83/362 49/84/363 50/85/364
f 102/88/365 100/82/366 50/85/367 51/89/368
f 104/259/369 102/260/370 51/261/371 52/262/372
f 106/265/373 104/259/374 52/262/375 53/266/376
f 108/91/377 106/92/378 53/93/379 54/94/380
f 110/97/381 108/91/382 54/94/383 55/98/384
f 112/268/385 110/269/386 55/270/387 56/271/388
f 97/274/389 112/268/390 56/271/391 49/275/392
f 114/173/393 113/174/394 145/175/395 146/176/396
f 115/181/397 114/173/398 146/176/399 147/182/400
f 116/189/401 115/181/402 147/182/403 148/190/404
f 117/197/405 116/189/406 148/190/407 149/198/408
f 118/191/409 117/197/410 149/198/411 150/192/412
f 119/183/413 118/191/414 150/192/415 151/184/416
f 120/177/417 119/183/418 151/184/419 152/178/420
f 113/174/421 120/177/422 152/178/423 145/175/424
f 129/201/425 130/186/426 143/194/427 144/202/428
f 130/104/429 129/101/430 132/100/431 131/105/432
f 131/105/433 132/100/434 134/106/435 133/108/436
f 133/195/437 134/207/438 136/208/439 135/203/440
f 135/203/441 136/208/442 138/210/443 137/209/444
f 137/113/445 138/110/446 140/109/447 139/114/448
f 139/114/449 140/109/450 142/115/451 141/117/452
f 141/200/453 142/206/454 144/202/455 143/194/456
f 132/100/457 129/101/458 65/102/459 66/103/460
f 134/106/461 132/100/462 66/103/463 67/107/464
f 136/277/465 134/278/466 67/279/467 68/280/468
f 138/281/469 136/277/470 68/280/471 69/282/472
f 140/109/473 138/110/474 69/111/475 70/112/476
f 142/115/477 140/109/478 70/112/479 71/116/480
f 144/283/481 142/284/482 71/285/483 72/286/484
f 129/287/485 144/283/486 72/286/487 65/288/488
f 122/180/489 121/179/490 130/186/491 131/187/492
f 123/188/493 122/180/494 131/187/495 133/195/496
f 124/196/497 123/188/498 133/195/499 135/203/500
f 125/204/501 124/196/502 135/203/503 137/209/504
f 126/199/505 125/204/506 137/209/507 139/205/508
f 127/193/509 126/199/510 139/205/511 141/200/512
f 128/185/513 127/193/514 141/200/515 143/194/516
f 121/179/517 128/185/518 143/194/519 130/186/520
f 146/176/521 145/175/522 121/179/523 122/180/524
f 147/182/525 146/176/526 122/180/527 123/188/528
f 148/190/529 147/182/530 123/188/531 124/196/532
f 149/198/533 148/190/534 124/196/535 125/204/536
f 150/192/537 149/198/538 125/204/539 126/199/540
f 151/184/541 150/192/542 126/199/543 127/193/544
f 152/178/545 151/184/546 127/193/547 128/185/548
f 145/175/549 152/178/550 128/185/551 121/179/552
