# This file uses centimeters as units for non-parametric coordinates.

mtllib Tree_NoLeaves_03.mtl
g default
v 0.707107 -0.024995 -0.706097
v 0.000000 -0.024995 -0.998990
v -0.707107 -0.024995 -0.706097
v -1.000000 -0.024995 0.001010
v -0.707107 -0.024995 0.708117
v 0.000000 -0.024995 1.001010
v 0.707107 -0.024995 0.708117
v 1.000000 -0.024995 0.001010
v 0.366378 42.295268 -0.365368
v 0.000000 42.295268 -0.517126
v -0.366378 42.295268 -0.365368
v -0.518136 42.295268 0.001010
v -0.366378 42.295268 0.367388
v 0.000000 42.295268 0.519146
v 0.366378 42.295268 0.367388
v 0.518136 42.295268 0.001010
v 0.000000 -0.024995 0.001010
v 0.000000 42.295268 0.001010
v 0.000000 0.787677 -0.989737
v 0.700564 0.787677 -0.699554
v 0.990747 0.787677 0.001010
v 0.700564 0.787677 0.701574
v 0.000000 0.787677 0.991757
v -0.700564 0.787677 0.701574
v -0.990747 0.787677 0.001010
v -0.700564 0.787677 -0.699554
v 0.000000 7.516807 -0.913118
v 0.646386 7.516807 -0.645376
v 0.914128 7.516807 0.001010
v 0.646386 7.516807 0.647396
v 0.000000 7.516807 0.915138
v -0.646386 7.516807 0.647396
v -0.914128 7.516807 0.001010
v -0.646386 7.516807 -0.645376
v 0.000000 8.160130 -0.905793
v 0.641207 8.160130 -0.640197
v 0.906803 8.160130 0.001010
v 0.641207 8.160130 0.642217
v 0.000000 8.160130 0.907813
v -0.641207 8.160130 0.642217
v -0.906803 8.160130 0.001010
v -0.641207 8.160130 -0.640197
v 0.000000 12.936793 -0.851405
v 0.602749 12.936793 -0.601739
v 0.852416 12.936793 0.001010
v 0.602749 12.936793 0.603759
v 0.000000 12.936793 0.853425
v -0.602749 12.936793 0.603759
v -0.852415 12.936793 0.001010
v -0.602749 12.936793 -0.601739
v 0.000000 13.558383 -0.844328
v 0.597744 13.558383 -0.596734
v 0.845338 13.558383 0.001010
v 0.597744 13.558383 0.598754
v 0.000000 13.558383 0.846348
v -0.597744 13.558383 0.598754
v -0.845338 13.558383 0.001010
v -0.597744 13.558383 -0.596734
v 0.000000 22.463920 -0.742928
v 0.526044 22.463920 -0.525034
v 0.743938 22.463920 0.001010
v 0.526044 22.463920 0.527054
v 0.000000 22.463920 0.744948
v -0.526044 22.463920 0.527054
v -0.743938 22.463920 0.001010
v -0.526044 22.463920 -0.525034
v 0.000000 23.160022 0.737022
v -0.520439 23.160022 0.521449
v -0.736012 23.160022 0.001010
v -0.520439 23.160022 -0.519429
v 0.000000 23.160022 -0.735002
v 0.520439 23.160022 -0.519429
v 0.736013 23.160022 0.001010
v 0.520439 23.160022 0.521449
v 0.000000 33.181422 -0.620898
v 0.439755 33.181422 -0.438745
v 0.621908 33.181422 0.001010
v 0.439755 33.181422 0.440765
v 0.000000 33.181422 0.622918
v -0.439755 33.181422 0.440765
v -0.621907 33.181422 0.001010
v -0.439755 33.181422 -0.438745
v 0.000000 33.957431 0.614082
v -0.433507 33.957431 0.434517
v -0.613072 33.957431 0.001010
v -0.433507 33.957431 -0.432497
v 0.000000 33.957431 -0.612062
v 0.433507 33.957431 -0.432497
v 0.613072 33.957431 0.001010
v 0.433507 33.957431 0.434517
v 3.486059 7.432707 -1.954375
v 3.780140 7.442009 -1.319607
v 3.134086 7.947366 -1.795762
v 3.425810 7.956594 -1.166080
v 4.847459 8.682293 -2.443327
v 5.019127 8.687723 -2.072785
v 4.641997 8.982722 -2.350738
v 4.812289 8.988109 -1.983165
v 5.431530 10.369750 -2.839334
v 5.538588 10.389590 -2.641547
v 5.252263 10.341661 -2.738450
v 5.358463 10.361343 -2.542248
v -3.468088 7.793827 1.530194
v -3.544552 7.657404 0.848253
v -3.279876 8.392038 1.386542
v -3.355727 8.256710 0.710066
v -5.478916 8.540978 1.474321
v -5.527205 8.454824 1.043657
v -5.360055 8.918765 1.383601
v -5.407957 8.833301 0.956388
v -6.991483 9.757072 1.322744
v -7.022944 9.702375 1.060528
v -6.816296 9.923183 1.265963
v -6.847505 9.868923 1.005848
v -0.852415 12.936793 0.001010
v -0.602749 12.936793 -0.601739
v -0.845338 13.558383 0.001010
v -0.597744 13.558383 -0.596734
v -3.192481 13.143422 -1.144480
v -3.068063 13.141798 -1.446069
v -3.036759 13.405369 -1.083114
v -2.913374 13.403759 -1.382198
v -4.058908 13.811492 -1.558990
v -3.972081 13.810359 -1.769458
v -3.950235 13.994296 -1.516165
v -3.864129 13.993173 -1.724885
v -4.309342 14.667820 -1.681684
v -4.265229 14.667259 -1.788560
v -4.254148 14.760630 -1.659939
v -4.210407 14.760069 -1.765927
v 1.213480 22.472127 2.480243
v 0.687436 22.537089 2.688228
v 1.207876 23.134902 2.267361
v 0.687436 23.199172 2.473131
v 1.870360 23.189950 4.177370
v 1.524452 23.229896 4.316115
v 1.765727 23.480050 3.838380
v 1.423504 23.519570 3.975648
v 2.231118 24.134393 4.847829
v 1.914669 24.170938 4.974758
v 2.135396 24.399787 4.537709
v 1.822318 24.435943 4.663286
v 0.595361 33.350417 -1.808458
v 0.859387 33.350417 -1.699095
v 0.595361 33.816329 -1.803153
v 0.855636 33.816329 -1.695344
v 1.062332 33.851760 -2.790381
v 1.222729 33.851043 -2.724217
v 0.995649 34.069961 -2.623135
v 1.153767 34.069255 -2.557910
v 1.219958 34.454173 -3.066176
v 1.308093 34.453776 -3.029820
v 1.183317 34.574069 -2.974278
v 1.270200 34.573680 -2.938438
vt 0.474305 0.953232
vt 0.474305 0.982840
vt 0.479536 0.953232
vt 0.479536 0.982840
vt 0.474305 0.953232
vt 0.474305 0.982840
vt 0.479536 0.953232
vt 0.479536 0.982840
vt 0.145795 0.001992
vt 0.161626 0.001992
vt 0.161626 0.020186
vt 0.145941 0.020186
vt 0.177456 0.001992
vt 0.177310 0.020186
vt 0.161626 0.170838
vt 0.147154 0.170838
vt 0.176097 0.170838
vt 0.161626 0.185241
vt 0.147270 0.185241
vt 0.161626 0.292181
vt 0.148131 0.292181
vt 0.175981 0.185241
vt 0.175120 0.292181
vt 0.175008 0.306097
vt 0.161626 0.306097
vt 0.173403 0.505474
vt 0.161626 0.505474
vt 0.173277 0.521058
vt 0.161626 0.521058
vt 0.148243 0.306097
vt 0.149849 0.505474
vt 0.171471 0.745417
vt 0.161626 0.745417
vt 0.149974 0.521058
vt 0.171331 0.762791
vt 0.161626 0.762791
vt 0.151780 0.745417
vt 0.169828 0.949458
vt 0.161626 0.949458
vt 0.151920 0.762791
vt 0.153423 0.949458
vt 0.455908 0.001992
vt 0.471739 0.001992
vt 0.471739 0.020186
vt 0.456055 0.020186
vt 0.487570 0.001992
vt 0.487423 0.020186
vt 0.471739 0.170838
vt 0.457268 0.170838
vt 0.486210 0.170838
vt 0.471739 0.185241
vt 0.457384 0.185241
vt 0.471739 0.292181
vt 0.458245 0.292181
vt 0.486094 0.185241
vt 0.485233 0.292181
vt 0.471739 0.306097
vt 0.458357 0.306097
vt 0.485121 0.306097
vt 0.471739 0.505474
vt 0.459962 0.505474
vt 0.483516 0.505474
vt 0.471739 0.521058
vt 0.460088 0.521058
vt 0.483391 0.521058
vt 0.471739 0.745417
vt 0.461894 0.745417
vt 0.421000 0.520496
vt 0.416234 0.505658
vt 0.481584 0.745417
vt 0.471739 0.762791
vt 0.462034 0.762791
vt 0.385828 0.528223
vt 0.378239 0.521728
vt 0.481445 0.762791
vt 0.471739 0.949458
vt 0.463537 0.949458
vt 0.370172 0.548814
vt 0.363229 0.542872
vt 0.509801 0.749201
vt 0.509717 0.759632
vt 0.479942 0.949458
vt 0.532752 0.760409
vt 0.529028 0.765294
vt 0.539593 0.773903
vt 0.537548 0.776587
vt 0.739145 0.133564
vt 0.747441 0.133442
vt 0.756306 0.171221
vt 0.751878 0.171665
vt 0.722283 0.105675
vt 0.736494 0.105467
vt 0.737139 0.140289
vt 0.749655 0.171033
vt 0.494017 0.953232
vt 0.502246 0.953353
vt 0.489729 0.984097
vt 0.485337 0.983656
vt 0.508475 0.968200
vt 0.513187 0.968225
vt 0.510440 0.987397
vt 0.508047 0.987384
vt 0.515715 0.953232
vt 0.522467 0.953268
vt 0.510926 0.989474
vt 0.508554 0.989462
vt 0.433911 0.953257
vt 0.438584 0.953232
vt 0.439503 0.970401
vt 0.437130 0.970414
vt 0.811838 0.096867
vt 0.796253 0.096689
vt 0.797891 0.053183
vt 0.812714 0.057999
vt 0.813402 0.016738
vt 0.819887 0.024360
vt 0.834470 0.001992
vt 0.840403 0.008965
vt 0.612019 0.148722
vt 0.629393 0.148524
vt 0.626234 0.175190
vt 0.615803 0.175309
vt 0.631912 0.193548
vt 0.627027 0.197292
vt 0.643198 0.201410
vt 0.640514 0.203467
vt 0.550655 0.953232
vt 0.566486 0.959789
vt 0.550655 0.975620
vt 0.573043 0.975620
vt 0.534825 0.959789
vt 0.566486 0.991451
vt 0.528267 0.975620
vt 0.550655 0.998008
vt 0.534825 0.991451
vt 0.465106 0.973035
vt 0.456904 0.976432
vt 0.456904 0.964832
vt 0.448701 0.973035
vt 0.468504 0.964832
vt 0.445304 0.964832
vt 0.465106 0.956630
vt 0.448701 0.956630
vt 0.456904 0.953232
vt 0.416808 0.955455
vt 0.414411 0.959883
vt 0.410398 0.957624
vt 0.412775 0.953232
vt 0.805884 0.169505
vt 0.791413 0.175500
vt 0.762107 0.111925
vt 0.776318 0.105341
vt 0.862203 0.095374
vt 0.847848 0.089428
vt 0.873976 0.033033
vt 0.888074 0.039564
vt 0.892269 0.001992
vt 0.900498 0.005805
vt 0.582505 0.007986
vt 0.596976 0.001992
vt 0.616740 0.065164
vt 0.601473 0.066876
vt 0.615489 0.110183
vt 0.605848 0.111264
vt 0.612096 0.144046
vt 0.606225 0.144750
vt 0.562316 0.001992
vt 0.576671 0.007938
vt 0.560797 0.062765
vt 0.545652 0.061067
vt 0.555282 0.108710
vt 0.545718 0.107638
vt 0.554175 0.140939
vt 0.548351 0.140240
vt 0.552950 0.144866
vt 0.547080 0.144162
vt 0.667901 0.142694
vt 0.681396 0.148284
vt 0.655751 0.200673
vt 0.648999 0.197888
vt 0.811685 0.106184
vt 0.825067 0.100640
vt 0.842652 0.152483
vt 0.835956 0.155245
vt 0.850324 0.173768
vt 0.845652 0.175696
vt 0.739131 0.006870
vt 0.750908 0.001992
vt 0.766298 0.045720
vt 0.754521 0.050376
vt 0.781004 0.083715
vt 0.773260 0.086822
vt 0.789081 0.098726
vt 0.781996 0.101567
vt 0.693660 0.101693
vt 0.682008 0.096867
vt 0.697399 0.057999
vt 0.709050 0.062605
vt 0.713878 0.024360
vt 0.721539 0.027433
vt 0.722806 0.008965
vt 0.729816 0.011777
vt 0.724874 0.001992
vt 0.731959 0.004834
vt 0.588689 0.201289
vt 0.578844 0.197211
vt 0.592173 0.170623
vt 0.598084 0.173072
vt 0.602628 0.148640
vt 0.606219 0.150122
vt 0.687196 0.109487
vt 0.696902 0.105467
vt 0.706353 0.133739
vt 0.700525 0.136153
vt 0.713027 0.153050
vt 0.709487 0.154511
vt 0.715634 0.161570
vt 0.713689 0.162372
vt 0.716482 0.163615
vt 0.714509 0.164429
vt 0.033545 0.949458
vt 0.017714 0.949458
vt 0.017714 0.931264
vt 0.033398 0.931264
vt 0.001883 0.949458
vt 0.002030 0.931264
vt 0.017714 0.780612
vt 0.032185 0.780612
vt 0.003243 0.780612
vt 0.017714 0.766210
vt 0.032069 0.766210
vt 0.003359 0.766210
vt 0.017714 0.659270
vt 0.031208 0.659270
vt 0.087880 0.770973
vt 0.095760 0.782495
vt 0.004220 0.659270
vt 0.017714 0.645353
vt 0.031096 0.645353
vt 0.121639 0.747793
vt 0.126239 0.754519
vt 0.004332 0.645353
vt 0.017714 0.445976
vt 0.029491 0.445976
vt 0.135302 0.717369
vt 0.139315 0.716741
vt 0.005937 0.445976
vt 0.017714 0.430392
vt 0.029366 0.430392
vt 0.006063 0.430392
vt 0.017714 0.206033
vt 0.027559 0.206033
vt 0.007869 0.206033
vt 0.008009 0.188660
vt 0.017714 0.188660
vt 0.009512 0.001992
vt 0.017714 0.001992
vt 0.027419 0.188660
vt 0.025917 0.001992
vt 0.325185 0.001992
vt 0.341016 0.001992
vt 0.341016 0.020186
vt 0.325332 0.020186
vt 0.356847 0.001992
vt 0.356700 0.020186
vt 0.341016 0.170838
vt 0.326545 0.170838
vt 0.355487 0.170838
vt 0.341016 0.185241
vt 0.326661 0.185241
vt 0.355371 0.185241
vt 0.341016 0.292181
vt 0.327522 0.292181
vt 0.267586 0.190433
vt 0.263373 0.177040
vt 0.354510 0.292181
vt 0.341016 0.306097
vt 0.327634 0.306097
vt 0.221015 0.202225
vt 0.218354 0.193767
vt 0.354398 0.306097
vt 0.341016 0.505474
vt 0.329239 0.505474
vt 0.188413 0.224712
vt 0.184491 0.220993
vt 0.352793 0.505474
vt 0.341016 0.521058
vt 0.329365 0.521058
vt 0.341016 0.745417
vt 0.331171 0.745417
vt 0.352668 0.521058
vt 0.350861 0.745417
vt 0.341016 0.762791
vt 0.331311 0.762791
vt 0.350721 0.762791
vt 0.341016 0.949458
vt 0.332814 0.949458
vt 0.349219 0.949458
vt 0.922890 0.094059
vt 0.908487 0.093895
vt 0.906813 0.029731
vt 0.918333 0.037663
vt 0.934702 0.001992
vt 0.941427 0.006623
vt 0.661300 0.001992
vt 0.675702 0.002156
vt 0.672555 0.061046
vt 0.659137 0.056819
vt 0.654702 0.105434
vt 0.646229 0.102764
vt 0.626772 0.138920
vt 0.623043 0.134992
vt 0.856125 0.099307
vt 0.870041 0.099148
vt 0.866616 0.148210
vt 0.860751 0.151696
vt 0.879800 0.168661
vt 0.875708 0.171094
vt 0.896957 0.175465
vt 0.894879 0.176700
vt 0.929661 0.099148
vt 0.943577 0.099260
vt 0.938988 0.154453
vt 0.933123 0.150990
vt 0.924020 0.174693
vt 0.919927 0.172276
vt 0.904836 0.181255
vt 0.902758 0.180028
vt 0.426200 0.966735
vt 0.422609 0.966719
vt 0.426138 0.953232
vt 0.428111 0.953241
vn 0.382662 0.010519 -0.923828
vn 0.382662 0.010519 -0.923828
vn 0.382662 0.010519 -0.923829
vn 0.382662 0.010519 -0.923829
vn -0.382662 0.010519 -0.923828
vn -0.382662 0.010519 -0.923828
vn -0.382662 0.010519 -0.923829
vn -0.382662 0.010519 -0.923829
vn -0.923828 0.010519 -0.382662
vn -0.923828 0.010519 -0.382662
vn -0.923829 0.010519 -0.382662
vn -0.923829 0.010519 -0.382662
vn -0.923828 0.010519 0.382662
vn -0.923828 0.010519 0.382662
vn -0.923829 0.010519 0.382662
vn -0.923829 0.010519 0.382662
vn -0.382662 0.010519 0.923828
vn -0.382662 0.010519 0.923828
vn -0.382662 0.010519 0.923828
vn -0.382662 0.010519 0.923828
vn 0.382662 0.010519 0.923829
vn 0.382662 0.010519 0.923829
vn 0.382662 0.010519 0.923829
vn 0.382662 0.010519 0.923829
vn 0.923828 0.010519 0.382662
vn 0.923828 0.010519 0.382662
vn 0.923828 0.010519 0.382662
vn 0.923828 0.010519 0.382662
vn 0.923828 0.010519 -0.382662
vn 0.923828 0.010519 -0.382662
vn 0.923828 0.010519 -0.382662
vn 0.923828 0.010519 -0.382662
vn 0.000000 -1.000000 0.000000
vn 0.000000 -1.000000 0.000000
vn 0.000000 -1.000000 0.000000
vn 0.000000 -1.000000 0.000000
vn 0.000000 -1.000000 0.000000
vn 0.000000 -1.000000 0.000000
vn 0.000000 -1.000000 0.000000
vn 0.000000 -1.000000 0.000000
vn 0.000000 -1.000000 0.000000
vn 0.000000 1.000000 -0.000010
vn 0.000000 1.000000 0.000000
vn 0.000000 1.000000 -0.000001
vn 0.000000 1.000000 0.000010
vn 0.000000 1.000000 0.000000
vn 0.000000 1.000000 -0.000010
vn 0.000000 1.000000 0.000000
vn 0.000000 1.000000 0.000005
vn 0.000000 1.000000 -0.000005
vn 0.382662 0.010519 -0.923829
vn 0.382662 0.010519 -0.923829
vn 0.923828 0.010519 -0.382662
vn 0.923828 0.010519 -0.382662
vn 0.923828 0.010519 0.382662
vn 0.923828 0.010519 0.382662
vn 0.382662 0.010519 0.923829
vn 0.382662 0.010519 0.923829
vn -0.382662 0.010519 0.923828
vn -0.382662 0.010519 0.923828
vn -0.923829 0.010519 0.382662
vn -0.923829 0.010519 0.382662
vn -0.923829 0.010519 -0.382662
vn -0.923829 0.010519 -0.382662
vn -0.382662 0.010519 -0.923828
vn -0.382662 0.010519 -0.923828
vn 0.382662 0.010519 -0.923829
vn 0.382662 0.010519 -0.923829
vn -0.161223 0.986848 -0.011728
vn -0.161223 0.986848 -0.011728
vn -0.161223 0.986848 -0.011728
vn -0.161223 0.986848 -0.011728
vn 0.923828 0.010519 0.382662
vn 0.923828 0.010519 0.382662
vn 0.382662 0.010519 0.923828
vn 0.382662 0.010519 0.923828
vn -0.382662 0.010519 0.923828
vn -0.382662 0.010519 0.923828
vn -0.697631 0.713491 -0.065128
vn -0.697631 0.713491 -0.065128
vn -0.697631 0.713491 -0.065128
vn -0.697631 0.713491 -0.065128
vn -0.923829 0.010519 -0.382662
vn -0.923829 0.010519 -0.382662
vn -0.382662 0.010519 -0.923829
vn -0.382662 0.010519 -0.923829
vn 0.382662 0.010519 -0.923829
vn 0.382662 0.010519 -0.923829
vn 0.923828 0.010519 -0.382662
vn 0.923828 0.010519 -0.382662
vn 0.923828 0.010519 -0.382662
vn 0.923828 0.010519 -0.382662
vn 0.923828 0.010519 0.382662
vn 0.923828 0.010519 0.382662
vn 0.382662 0.010519 0.923828
vn 0.382662 0.010519 0.923828
vn -0.382662 0.010519 0.923828
vn -0.382662 0.010519 0.923828
vn -0.923829 0.010519 0.382662
vn -0.923829 0.010519 0.382662
vn -0.923829 0.010519 0.382662
vn -0.923829 0.010519 0.382662
vn -0.923829 0.010519 -0.382662
vn -0.923829 0.010519 -0.382662
vn -0.382662 0.010519 -0.923828
vn -0.382662 0.010519 -0.923828
vn 0.382662 0.010519 -0.923828
vn 0.382662 0.010519 -0.923828
vn 0.923828 0.010519 -0.382662
vn 0.923828 0.010519 -0.382662
vn 0.923828 0.010519 0.382662
vn 0.923828 0.010519 0.382662
vn 0.382662 0.010519 0.923828
vn 0.382662 0.010519 0.923828
vn -0.382662 0.010519 0.923828
vn -0.382662 0.010519 0.923828
vn -0.923828 0.010519 0.382662
vn -0.923828 0.010519 0.382662
vn -0.777895 0.538494 -0.323889
vn -0.777895 0.538494 -0.323889
vn -0.777895 0.538494 -0.323889
vn -0.777895 0.538494 -0.323889
vn -0.382662 0.010519 -0.923828
vn -0.382662 0.010519 -0.923828
vn 0.382662 0.010519 -0.923828
vn 0.382662 0.010519 -0.923828
vn 0.923828 0.010519 -0.382663
vn 0.923828 0.010519 -0.382663
vn 0.923828 0.010519 0.382662
vn 0.923828 0.010519 0.382662
vn 0.382662 0.010519 0.923828
vn 0.382662 0.010519 0.923828
vn -0.382662 0.010519 0.923828
vn -0.382662 0.010519 0.923828
vn -0.923828 0.010519 0.382662
vn -0.923828 0.010519 0.382662
vn -0.923829 0.010519 -0.382662
vn -0.923829 0.010519 -0.382662
vn -0.923829 0.010519 -0.382662
vn -0.923829 0.010519 -0.382662
vn -0.382662 0.010519 -0.923828
vn -0.382662 0.010519 -0.923828
vn 0.382662 0.010519 -0.923829
vn 0.382662 0.010519 -0.923829
vn 0.923828 0.010519 -0.382662
vn 0.923828 0.010519 -0.382662
vn 0.923828 0.010519 0.382662
vn 0.923828 0.010519 0.382662
vn 0.313151 0.767143 0.559847
vn 0.313151 0.767143 0.559847
vn 0.313151 0.767143 0.559847
vn 0.313151 0.767143 0.559847
vn -0.382662 0.010519 0.923828
vn -0.382662 0.010519 0.923828
vn -0.923828 0.010519 0.382662
vn -0.923828 0.010519 0.382662
vn -0.923829 0.010519 -0.382662
vn -0.923829 0.010519 -0.382662
vn -0.382662 0.010519 -0.923829
vn -0.382662 0.010519 -0.923829
vn -0.382662 0.010519 0.923829
vn -0.382662 0.010519 0.923829
vn -0.923829 0.010519 0.382662
vn -0.923828 0.010519 0.382662
vn -0.923829 0.010519 -0.382662
vn -0.923829 0.010519 -0.382662
vn -0.382662 0.010519 -0.923829
vn -0.382662 0.010519 -0.923829
vn 0.382662 0.010519 -0.923828
vn 0.382662 0.010519 -0.923828
vn 0.923828 0.010519 -0.382662
vn 0.923828 0.010519 -0.382662
vn 0.923828 0.010519 0.382662
vn 0.923828 0.010519 0.382662
vn 0.382662 0.010519 0.923828
vn 0.382662 0.010519 0.923828
vn 0.382662 0.010519 0.923828
vn 0.382662 0.010519 0.923828
vn 0.296583 0.636409 -0.712055
vn 0.296583 0.636409 -0.712055
vn 0.296584 0.636409 -0.712055
vn 0.296583 0.636409 -0.712055
vn 0.923828 0.010519 -0.382663
vn 0.923828 0.010519 -0.382663
vn 0.923828 0.010519 0.382662
vn 0.923828 0.010519 0.382662
vn 0.382662 0.010519 0.923828
vn 0.382662 0.010519 0.923828
vn -0.382662 0.010519 0.923828
vn -0.382662 0.010519 0.923828
vn -0.923828 0.010519 0.382662
vn -0.923828 0.010519 0.382662
vn -0.923829 0.010519 -0.382662
vn -0.923829 0.010519 -0.382662
vn -0.382662 0.010519 -0.923829
vn -0.382662 0.010519 -0.923829
vn -0.382663 0.010519 0.923828
vn -0.382663 0.010519 0.923828
vn -0.923828 0.010519 0.382662
vn -0.923828 0.010519 0.382662
vn -0.923828 0.010519 -0.382662
vn -0.923828 0.010519 -0.382662
vn -0.382662 0.010519 -0.923828
vn -0.382662 0.010519 -0.923828
vn 0.382662 0.010519 -0.923828
vn 0.382662 0.010519 -0.923828
vn 0.382662 0.010519 -0.923828
vn 0.382662 0.010519 -0.923828
vn 0.923828 0.010519 -0.382663
vn 0.923828 0.010519 -0.382663
vn 0.923828 0.010519 0.382663
vn 0.923828 0.010519 0.382663
vn 0.382662 0.010519 0.923828
vn 0.382662 0.010519 0.923828
vn -0.020376 -0.999661 0.016194
vn -0.020376 -0.999661 0.016194
vn -0.020376 -0.999661 0.016194
vn -0.020376 -0.999661 0.016194
vn -0.419580 -0.001016 -0.907718
vn -0.419580 -0.001016 -0.907718
vn -0.405185 0.009120 -0.914189
vn -0.393784 0.017076 -0.919044
vn 0.066048 0.997159 -0.036205
vn 0.066048 0.997159 -0.036205
vn 0.066048 0.997159 -0.036205
vn 0.066048 0.997159 -0.036205
vn 0.419815 0.010792 0.907546
vn 0.419815 0.010792 0.907546
vn 0.445555 0.036067 0.894528
vn 0.434322 0.024965 0.900411
vn 0.598224 -0.755866 -0.266074
vn 0.598224 -0.755866 -0.266074
vn 0.698888 -0.640422 -0.318459
vn 0.691072 -0.650850 -0.314346
vn -0.404414 0.008804 -0.914534
vn -0.390154 0.019067 -0.920552
vn -0.496699 0.840150 0.217804
vn -0.496699 0.840150 0.217804
vn -0.599156 0.754158 0.268808
vn -0.609495 0.743938 0.273992
vn 0.480544 0.078621 0.873439
vn 0.485658 0.088216 0.869687
vn 0.835678 -0.383891 -0.392772
vn 0.835678 -0.383891 -0.392772
vn -0.472138 -0.041430 -0.880551
vn -0.472138 -0.041430 -0.880551
vn -0.801405 0.468194 0.372216
vn -0.801405 0.468194 0.372216
vn 0.509748 0.134984 0.849669
vn 0.509748 0.134984 0.849669
vn -0.040373 -0.992839 0.112428
vn -0.040373 -0.992839 0.112428
vn -0.166546 -0.973163 0.158799
vn -0.147347 -0.977357 0.151860
vn 0.290805 0.069099 0.954284
vn 0.290805 0.069099 0.954284
vn 0.212045 0.120510 0.969801
vn 0.193230 0.132450 0.972172
vn 0.032582 0.993346 -0.110461
vn 0.032582 0.993346 -0.110461
vn 0.109380 0.982578 -0.150254
vn 0.120586 0.980369 -0.156001
vn -0.294974 -0.059490 -0.953652
vn -0.294974 -0.059490 -0.953652
vn -0.237809 -0.110094 -0.965052
vn -0.250030 -0.099435 -0.963119
vn -0.447022 -0.865808 0.224831
vn -0.446562 -0.866048 0.224820
vn 0.062613 0.218867 0.973744
vn 0.060228 0.218422 0.973994
vn 0.350198 0.909823 -0.222674
vn 0.350620 0.909656 -0.222693
vn -0.161967 -0.171459 -0.971786
vn -0.160919 -0.171270 -0.971994
vn -0.623473 -0.749060 0.224035
vn -0.623473 -0.749060 0.224035
vn 0.077630 0.221640 0.972034
vn 0.077630 0.221640 0.972034
vn 0.564530 0.793773 -0.226340
vn 0.564530 0.793773 -0.226340
vn -0.154279 -0.170068 -0.973281
vn -0.154279 -0.170068 -0.973281
vn 0.000000 0.000000 0.000000
vn 0.000000 0.000000 0.000000
vn 0.000000 0.000000 0.000000
vn 0.000000 0.000000 0.000000
vn 0.000000 0.000000 0.000000
vn 0.000000 0.000000 0.000000
vn 0.000000 0.000000 0.000000
vn 0.000000 0.000000 0.000000
vn 0.000000 0.000000 0.000000
vn 0.000000 0.000000 0.000000
vn 0.000000 0.000000 0.000000
vn 0.000000 0.000000 0.000000
vn 0.000000 0.000000 0.000000
vn 0.000000 0.000000 0.000000
vn 0.000000 0.000000 0.000000
vn 0.000000 0.000000 0.000000
vn -0.073539 -0.996881 -0.028631
vn -0.073539 -0.996881 -0.028631
vn -0.073539 -0.996881 -0.028631
vn -0.073539 -0.996881 -0.028631
vn -0.441221 0.018983 0.897198
vn -0.441221 0.018983 0.897198
vn -0.436486 0.020971 0.899467
vn -0.432967 0.022444 0.901130
vn -0.057510 0.998017 -0.025580
vn -0.057510 0.998017 -0.025580
vn -0.057510 0.998017 -0.025580
vn -0.057510 0.998017 -0.025580
vn 0.322769 0.015434 -0.946352
vn 0.322769 0.015434 -0.946352
vn 0.330620 0.017063 -0.943610
vn 0.327274 0.016368 -0.944788
vn -0.530089 -0.820423 -0.214269
vn -0.530089 -0.820423 -0.214269
vn -0.670328 -0.690082 -0.272849
vn -0.664743 -0.696377 -0.270510
vn -0.405015 0.026675 0.913921
vn -0.408262 0.028957 0.912406
vn 0.467577 0.863674 0.188250
vn 0.467577 0.863674 0.188250
vn 0.600106 0.761963 0.243486
vn 0.606303 0.756204 0.246075
vn 0.337756 0.029926 -0.940758
vn 0.325362 0.038234 -0.944816
vn -0.879734 -0.309033 -0.361340
vn -0.879734 -0.309033 -0.361340
vn -0.391597 0.017294 0.919974
vn -0.391597 0.017294 0.919975
vn 0.847474 0.401276 0.347513
vn 0.847474 0.401276 0.347513
vn 0.273671 0.072242 -0.959107
vn 0.273671 0.072242 -0.959107
vn -0.046549 -0.998221 0.037272
vn -0.046549 -0.998221 0.037272
vn -0.010644 -0.982766 0.184545
vn -0.009622 -0.981996 0.188660
vn 0.936185 -0.048260 -0.348179
vn 0.936185 -0.048260 -0.348179
vn 0.938676 -0.059510 -0.339627
vn 0.939285 -0.062403 -0.337415
vn 0.051746 0.998361 -0.024453
vn 0.051746 0.998361 -0.024453
vn 0.042178 0.993181 -0.108687
vn 0.042192 0.993193 -0.108570
vn -0.935779 0.057132 0.347927
vn -0.935779 0.057132 0.347927
vn -0.921861 0.095870 0.375475
vn -0.924623 0.088676 0.370416
vn 0.038013 -0.925941 0.375751
vn 0.038013 -0.925941 0.375750
vn 0.938196 -0.083035 -0.335995
vn 0.935414 -0.085557 -0.343046
vn 0.028551 0.974397 -0.223016
vn 0.028551 0.974397 -0.223016
vn -0.910097 0.132074 0.392784
vn -0.907074 0.135944 0.398417
vn 0.229297 -0.620162 0.750214
vn 0.229297 -0.620162 0.750214
vn 0.229297 -0.620162 0.750214
vn 0.229297 -0.620162 0.750214
vn 0.925856 -0.093801 -0.366049
vn 0.925856 -0.093801 -0.366049
vn -0.219222 0.644845 -0.732200
vn -0.219222 0.644845 -0.732200
vn -0.219222 0.644845 -0.732200
vn -0.219222 0.644845 -0.732200
vn -0.919612 0.119393 0.374245
vn -0.919612 0.119393 0.374245
vn 0.048417 -0.991964 -0.116891
vn 0.048417 -0.991964 -0.116891
vn 0.086147 -0.974021 -0.209433
vn 0.086145 -0.974022 -0.209427
vn -0.894230 0.005096 -0.447578
vn -0.894230 0.005096 -0.447578
vn -0.897564 0.009890 -0.440773
vn -0.896623 0.008526 -0.442713
vn 0.040425 0.994405 -0.097594
vn 0.040425 0.994405 -0.097594
vn 0.000490 1.000000 0.000051
vn 0.000531 1.000000 -0.000048
vn 0.948576 0.005089 0.316508
vn 0.948576 0.005089 0.316508
vn 0.946957 0.007779 0.321265
vn 0.946307 0.008846 0.323149
vn 0.208972 -0.834410 -0.509992
vn 0.208858 -0.834607 -0.509715
vn -0.904711 0.025819 -0.425242
vn -0.904708 0.025785 -0.425252
vn -0.160093 0.905722 0.392476
vn -0.160130 0.905677 0.392566
vn 0.941209 0.021910 0.337113
vn 0.941208 0.021935 0.337116
vn 0.336156 -0.463344 -0.819946
vn 0.336156 -0.463343 -0.819946
vn -0.906426 0.044900 -0.419971
vn -0.906426 0.044900 -0.419971
vn -0.297504 0.617787 0.727894
vn -0.297504 0.617787 0.727894
vn 0.940002 0.038733 0.338962
vn 0.940002 0.038733 0.338962
s 1
g polySurface1 pCylinder1
usemtl initialShadingGroup
f 1/221/1 2/222/2 19/223/3 20/224/4
s 2
f 2/222/5 3/225/6 26/226/7 19/223/8
s 3
f 3/9/9 4/10/10 25/11/11 26/12/12
s 4
f 4/10/13 5/13/14 24/14/15 25/11/16
s 5
f 5/260/17 6/261/18 23/262/19 24/263/20
s 6
f 6/261/21 7/264/22 22/265/23 23/262/24
s 7
f 7/42/25 8/43/26 21/44/27 22/45/28
s 8
f 8/43/29 1/46/30 20/47/31 21/44/32
s 9
f 2/127/33 1/128/34 17/129/35
f 3/131/36 2/127/33 17/129/35
f 4/133/37 3/131/36 17/129/35
f 5/135/38 4/133/37 17/129/35
f 6/134/39 5/135/38 17/129/35
f 7/132/40 6/134/39 17/129/35
f 8/130/41 7/132/40 17/129/35
f 1/128/34 8/130/41 17/129/35
s 10
f 9/136/42 10/137/43 18/138/44
f 10/137/43 11/139/45 18/138/44
f 11/139/45 12/141/46 18/138/44
f 12/141/46 13/143/47 18/138/44
f 13/143/47 14/144/48 18/138/44
f 14/144/48 15/142/49 18/138/44
f 15/142/49 16/140/50 18/138/44
f 16/140/50 9/136/42 18/138/44
s 1
f 20/224/4 19/223/3 27/227/51 28/228/52
s 8
f 21/44/32 20/47/31 28/50/53 29/48/54
s 7
f 22/45/28 21/44/27 29/48/55 30/49/56
s 6
f 23/262/24 22/265/23 30/268/57 31/266/58
s 5
f 24/263/20 23/262/19 31/266/59 32/267/60
s 4
f 25/11/16 24/14/15 32/17/61 33/15/62
s 3
f 26/12/12 25/11/11 33/15/63 34/16/64
s 2
f 19/223/8 26/226/7 34/229/65 27/227/66
s 1
f 28/228/52 27/227/51 35/230/67 36/231/68
s off
f 100/145/69 99/146/70 101/147/71 102/148/72
s 7
f 30/49/56 29/48/55 37/51/73 38/52/74
s 6
f 31/266/58 30/268/57 38/271/75 39/269/76
s 5
f 32/267/60 31/266/59 39/269/77 40/270/78
s off
f 112/175/79 111/176/80 113/174/81 114/173/82
s 3
f 34/16/64 33/15/63 41/18/83 42/19/84
s 2
f 27/227/66 34/229/65 42/232/85 35/230/86
s 1
f 36/231/68 35/230/67 43/233/87 44/234/88
s 11
f 37/51/89 36/55/90 44/56/91 45/53/92
s 7
f 38/52/74 37/51/73 45/53/93 46/54/94
s 6
f 39/269/76 38/271/75 46/276/95 47/272/96
s 5
f 40/270/78 39/269/77 47/272/97 48/273/98
s 12
f 41/18/99 40/22/100 48/23/101 49/20/102
s 3
f 42/19/84 41/18/83 49/20/103 50/21/104
s 2
f 35/230/86 42/232/85 50/237/105 43/233/106
s 1
f 44/234/88 43/233/87 51/238/107 52/239/108
s 11
f 45/53/92 44/56/91 52/59/109 53/57/110
s 7
f 46/54/94 45/53/93 53/57/111 54/58/112
s 6
f 47/272/96 46/276/95 54/281/113 55/277/114
s 5
f 48/273/98 47/272/97 55/277/115 56/278/116
s 12
f 49/20/102 48/23/101 56/24/117 57/25/118
s off
f 128/102/119 127/101/120 129/105/121 130/106/122
s 2
f 43/233/106 50/237/105 58/242/123 51/238/124
s 1
f 52/239/108 51/238/107 59/243/125 60/244/126
s 11
f 53/57/110 52/59/109 60/62/127 61/60/128
s 7
f 54/58/112 53/57/111 61/60/129 62/61/130
s 6
f 55/277/114 54/281/113 62/286/131 63/282/132
s 5
f 56/278/116 55/277/115 63/282/133 64/283/134
s 12
f 57/25/118 56/24/117 64/26/135 65/27/136
s 13
f 58/30/137 57/25/138 65/27/139 66/31/140
s 2
f 51/238/124 58/242/123 66/247/141 59/243/142
s 1
f 60/244/126 59/243/125 71/248/143 72/249/144
s 11
f 61/60/128 60/62/127 72/65/145 73/63/146
s 7
f 62/61/130 61/60/129 73/63/147 74/64/148
s off
f 140/203/149 139/204/150 141/202/151 142/201/152
s 5
f 64/283/134 63/282/133 67/287/153 68/288/154
s 12
f 65/27/136 64/26/135 68/28/155 69/29/156
s 13
f 66/31/140 65/27/139 69/29/157 70/34/158
s 2
f 59/243/142 66/247/141 70/250/159 71/248/160
s 5
f 68/288/154 67/287/153 79/289/161 80/290/162
s 12
f 69/29/156 68/28/155 80/32/163 81/33/164
s 13
f 70/34/158 69/29/157 81/33/165 82/37/166
s 2
f 71/248/160 70/250/159 82/253/167 75/251/168
s 1
f 72/249/144 71/248/143 75/251/169 76/252/170
s 11
f 73/63/146 72/65/145 76/70/171 77/66/172
s 7
f 74/64/148 73/63/147 77/66/173 78/67/174
s 14
f 67/287/175 74/291/176 78/292/177 79/289/178
s off
f 152/219/179 151/220/180 153/218/181 154/217/182
s 11
f 77/66/172 76/70/171 88/75/183 89/71/184
s 7
f 78/67/174 77/66/173 89/71/185 90/72/186
s 14
f 79/289/178 78/292/177 90/295/187 83/293/188
s 5
f 80/290/162 79/289/161 83/293/189 84/294/190
s 12
f 81/33/164 80/32/163 84/35/191 85/36/192
s 13
f 82/37/166 81/33/165 85/36/193 86/40/194
s 2
f 75/251/168 82/253/167 86/254/195 87/255/196
s 5
f 84/294/190 83/293/189 14/296/197 13/297/198
s 12
f 85/36/192 84/35/191 13/38/199 12/39/200
s 13
f 86/40/194 85/36/193 12/39/201 11/41/202
s 2
f 87/255/196 86/254/195 11/256/203 10/257/204
s off
f 88/258/205 87/255/206 10/257/207 9/259/208
s 11
f 89/71/184 88/75/183 9/82/209 16/76/210
s 7
f 90/72/186 89/71/185 16/76/211 15/77/212
s 14
f 83/293/188 90/295/187 15/298/213 14/296/214
s off
f 29/149/215 28/150/216 91/151/217 92/152/218
s 15
f 28/228/219 36/231/220 93/235/221 91/236/222
s off
f 36/153/223 37/154/224 94/155/225 93/156/226
s 16
f 37/299/227 29/300/228 92/301/229 94/302/230
s 17
f 92/91/231 91/92/232 95/88/233 96/87/234
s 15
f 91/236/222 93/235/221 97/240/235 95/241/236
s 18
f 93/156/237 94/155/238 98/157/239 97/158/240
s 16
f 94/302/230 92/301/229 96/303/241 98/304/242
s 17
f 96/87/234 95/88/233 99/89/243 100/90/244
s 15
f 95/241/236 97/240/235 101/245/245 99/246/246
s 18
f 97/95/240 98/96/239 102/97/247 101/98/248
s 16
f 98/93/242 96/87/241 100/90/249 102/94/250
s 19
f 33/159/251 32/160/252 103/161/253 104/162/254
s 20
f 32/267/255 40/270/256 105/274/257 103/275/258
s 21
f 40/167/259 41/168/260 106/169/261 105/170/262
s 22
f 41/305/263 33/306/264 104/307/265 106/308/266
s 19
f 104/162/254 103/161/253 107/163/267 108/164/268
s 20
f 103/275/258 105/274/257 109/279/269 107/280/270
s 21
f 105/170/262 106/169/261 110/171/271 109/172/272
s 22
f 106/308/266 104/307/265 108/309/273 110/310/274
s 19
f 108/164/268 107/163/267 111/165/275 112/166/276
s 20
f 107/280/270 109/279/269 113/284/277 111/285/278
s 21
f 109/172/272 110/171/271 114/173/279 113/174/280
s 22
f 110/310/274 108/309/273 112/311/281 114/312/282
s off
f 50/2/283 49/1/284 115/5/285 116/6/286
f 49/1/287 57/3/288 117/7/289 115/5/290
f 57/3/291 58/4/292 118/8/293 117/7/294
f 58/4/295 50/2/296 116/6/297 118/8/298
f 116/177/299 115/178/300 119/179/301 120/180/302
s 23
f 115/313/303 117/314/304 121/315/305 119/316/306
s off
f 117/181/307 118/182/308 122/183/309 121/184/310
s 24
f 118/321/311 116/322/312 120/323/313 122/324/314
s 25
f 120/103/315 119/104/316 123/100/317 124/99/318
s 23
f 119/316/306 121/315/305 125/317/319 123/318/320
s 26
f 121/184/321 122/183/322 126/185/323 125/186/324
s 24
f 122/324/314 120/323/313 124/325/325 126/326/326
s 25
f 124/99/318 123/100/317 127/101/327 128/102/328
s 23
f 123/318/320 125/317/319 129/319/329 127/320/330
s 26
f 125/107/324 126/108/323 130/109/331 129/110/332
s 24
f 126/326/326 124/325/325 128/327/333 130/328/334
s 27
f 63/187/335 62/188/336 131/189/337 132/190/338
s 28
f 62/61/339 74/64/340 133/68/341 131/69/342
s 29
f 74/195/343 67/196/344 134/197/345 133/198/346
s 30
f 67/111/347 63/112/348 132/113/349 134/114/350
s 27
f 132/190/338 131/189/337 135/191/351 136/192/352
s 28
f 131/69/342 133/68/341 137/73/353 135/74/354
s 29
f 133/198/346 134/197/345 138/199/355 137/200/356
s 30
f 134/114/350 132/113/349 136/115/357 138/116/358
s off
f 136/192/359 135/191/360 139/193/361 140/194/362
s 28
f 135/74/354 137/73/353 141/78/363 139/79/364
s off
f 137/200/365 138/199/366 142/201/367 141/202/368
s 30
f 138/116/358 136/115/357 140/117/369 142/118/370
s 31
f 76/205/371 75/206/372 143/207/373 144/208/374
s 32
f 75/119/375 87/120/376 145/121/377 143/122/378
s 33
f 87/211/379 88/212/380 146/213/381 145/214/382
s 34
f 88/75/383 76/70/384 144/80/385 146/81/386
s 31
f 144/208/374 143/207/373 147/209/387 148/210/388
s 32
f 143/122/378 145/121/377 149/123/389 147/124/390
s 33
f 145/214/382 146/213/381 150/215/391 149/216/392
s 34
f 146/81/386 144/80/385 148/83/393 150/84/394
s 31
f 148/329/388 147/330/387 151/331/395 152/332/396
s 32
f 147/124/390 149/123/389 153/125/397 151/126/398
s 33
f 149/216/392 150/215/391 154/217/399 153/218/400
s 34
f 150/84/394 148/83/393 152/85/401 154/86/402
g default
v 0.646386 7.516807 -0.645376
v 0.632368 8.185033 -0.663795
v 3.118874 7.970766 -1.816459
v 3.486059 7.432707 -1.954375
v 0.918950 8.185328 0.022793
v 3.431572 7.980476 -1.141472
v 0.914128 7.516807 0.001010
v 3.780140 7.442009 -1.319607
v 4.641997 8.982722 -2.350738
v 4.847459 8.682293 -2.443327
v 4.812289 8.988109 -1.983165
v 5.019127 8.687723 -2.072785
v 0.628888 7.850894 -0.677278
v 3.189224 7.627603 -2.081943
v 4.724769 8.844350 -2.429172
v 0.775659 8.185181 -0.320501
v 3.209433 8.275467 -1.423852
v 4.716040 9.007648 -2.162133
v 0.927034 7.851337 0.034590
v 3.642650 7.703343 -0.940374
v 4.927192 8.850761 -1.992272
v -0.646386 7.516807 0.647396
v -0.633122 8.186690 0.663312
v -3.272165 8.419864 1.406570
v -3.468088 7.793827 1.530194
v -0.913363 8.183475 -0.025593
v -3.358069 8.278064 0.681921
v -0.928877 7.513833 0.001010
v -3.556049 7.651617 0.848253
v -5.360055 8.918765 1.383601
v -5.476235 8.551837 1.474321
v -5.407957 8.833301 0.956388
v -5.527205 8.454823 1.043657
v -0.632484 7.853477 0.679211
v -3.365821 8.110424 1.914354
v -5.414475 8.749846 1.462808
v -0.773242 8.185083 0.318860
v -3.315117 8.650826 1.044246
v -5.379398 8.900258 1.164632
v -0.921120 7.848654 -0.036133
v -3.457059 7.964840 0.526790
v -5.470765 8.649443 0.960899
v -0.852415 12.936793 0.001010
v -0.845338 13.558383 0.001010
v -3.036759 13.405369 -1.083114
v -3.192481 13.143422 -1.144480
v -0.597744 13.558383 -0.596734
v -2.913374 13.403759 -1.382198
v -0.602749 12.936793 -0.601739
v -3.068063 13.141798 -1.446069
v -1.819268 13.040067 -1.071221
v -1.748928 13.506408 -1.013764
v -1.953517 13.507300 -0.519261
v -2.044509 13.041057 -0.526875
v -0.588861 13.260642 -0.635044
v -1.784098 13.273237 -1.176099
v -2.979334 13.285832 -1.449941
v -0.724459 13.583764 -0.299116
v -1.851222 13.647720 -0.766513
v -2.977985 13.429944 -1.233910
v -0.866141 13.260776 0.034335
v -2.036627 13.212417 -0.386299
v -3.131885 13.287582 -1.080472
v 0.526044 22.463921 0.527054
v 0.520439 23.160023 0.521449
v 1.232363 23.157972 2.255858
v 1.213480 22.472128 2.480243
v 0.000000 23.160023 0.737022
v 0.665466 23.226322 2.479479
v 0.000000 22.463921 0.744948
v 0.687436 22.537090 2.688228
v 1.765727 23.480051 3.838380
v 1.870360 23.189951 4.177370
v 1.423504 23.519571 3.975648
v 1.524452 23.229897 4.316115
v -0.034445 22.826595 0.753727
v 0.483997 22.794722 2.593295
v 1.440504 23.392242 4.158369
v 0.261518 23.185093 0.628621
v 1.054152 23.414564 2.367668
v 1.595834 23.524960 3.902472
v 0.558995 22.822641 0.510889
v 1.425258 22.719994 2.359640
v 1.853746 23.344219 3.992913
v 0.000000 33.181423 -0.620898
v 0.000000 33.957432 -0.612062
v 0.572126 33.841110 -1.812202
v 0.595361 33.350418 -1.808458
v 0.433507 33.957432 -0.432497
v 0.878505 33.841072 -1.685299
v 0.439755 33.181423 -0.438745
v 0.859387 33.350418 -1.699095
v 0.995649 34.069962 -2.623135
v 1.062332 33.851761 -2.790381
v 1.153767 34.069256 -2.557910
v 1.222729 33.851044 -2.724217
v 0.472708 33.582047 -0.424972
v 0.996919 33.539795 -1.684035
v 1.222293 33.972809 -2.625343
v 0.218444 33.982418 -0.526358
v 0.725315 33.980515 -1.748751
v 1.072652 34.094147 -2.585449
v -0.033028 33.582047 -0.634484
v 0.480015 33.596073 -1.821262
v 0.993825 33.973637 -2.719666
vt 0.730524 0.460369
vt 0.768334 0.458665
vt 0.757515 0.653529
vt 0.731389 0.666241
vt 0.803895 0.459779
vt 0.803679 0.642590
vt 0.823310 0.825681
vt 0.807050 0.845123
vt 0.837627 0.809393
vt 0.830725 0.654375
vt 0.842360 0.816148
vt 0.686498 0.835912
vt 0.651354 0.834151
vt 0.647994 0.640256
vt 0.693486 0.652252
vt 0.613127 0.835077
vt 0.620839 0.630249
vt 0.710975 0.475292
vt 0.724395 0.494552
vt 0.693863 0.458665
vt 0.001990 0.763789
vt 0.044217 0.765221
vt 0.045695 0.890311
vt 0.019803 0.888961
vt 0.083784 0.762858
vt 0.071523 0.889356
vt 0.085492 0.985006
vt 0.072646 0.992459
vt 0.095644 0.974831
vt 0.086217 0.882668
vt 0.098194 0.970858
vt 0.125662 0.758078
vt 0.086095 0.758871
vt 0.081641 0.626162
vt 0.113397 0.626029
vt 0.043868 0.757419
vt 0.061680 0.624575
vt 0.127282 0.526945
vt 0.137448 0.534053
vt 0.114448 0.516524
vt 0.572969 0.454678
vt 0.536785 0.439575
vt 0.653081 0.183049
vt 0.694463 0.192593
vt 0.500601 0.424472
vt 0.623317 0.159634
vt 0.730898 0.024248
vt 0.750777 0.032052
vt 0.712034 0.014103
vt 0.602121 0.137386
vt 0.712994 0.001992
vt 0.274228 0.002059
vt 0.310534 0.016828
vt 0.234076 0.284749
vt 0.195886 0.280222
vt 0.346840 0.031598
vt 0.272266 0.289276
vt 0.221387 0.502330
vt 0.198307 0.500291
vt 0.272552 0.001992
vt 0.142364 0.290094
vt 0.243337 0.505341
vt 0.189958 0.506027
vt 0.215223 0.536111
vt 0.246857 0.523371
vt 0.296122 0.642134
vt 0.270061 0.652917
vt 0.278227 0.510014
vt 0.322183 0.631352
vt 0.345387 0.760899
vt 0.329493 0.767093
vt 0.361017 0.754088
vt 0.493648 0.856374
vt 0.466357 0.845077
vt 0.549903 0.661777
vt 0.568687 0.673562
vt 0.438793 0.833651
vt 0.508935 0.649992
vt 0.606998 0.500004
vt 0.588834 0.492291
vt 0.105372 0.790007
vt 0.128397 0.780974
vt 0.181823 0.909817
vt 0.165676 0.916505
vt 0.151065 0.771081
vt 0.197969 0.903129
vt 0.218433 0.998008
vt 0.226983 0.995105
vt 0.912108 0.444797
vt 0.876894 0.446642
vt 0.900430 0.176775
vt 0.920972 0.145488
vt 0.841675 0.446275
vt 0.864259 0.184190
vt 0.772181 0.014925
vt 0.789262 0.001993
vt 0.757596 0.023649
vt 0.926838 0.882800
vt 0.891634 0.881948
vt 0.876035 0.595714
vt 0.905246 0.617962
vt 0.856373 0.883308
vt 0.848490 0.581222
vt 0.996976 0.460320
vt 0.979791 0.450629
vt 0.423073 0.001993
vt 0.458365 0.002810
vt 0.446118 0.270105
vt 0.413104 0.259671
vt 0.493656 0.003627
vt 0.479133 0.280539
vt 0.373959 0.482356
vt 0.354580 0.475735
vt 0.394472 0.488304
vt 0.143577 0.510760
vt 0.177726 0.512207
vt 0.172629 0.635580
vt 0.154567 0.636411
vt 0.209094 0.510015
vt 0.203710 0.626820
vt 0.180551 0.751023
vt 0.165356 0.757410
vt 0.192966 0.740997
vt 0.367146 0.493228
vt 0.398528 0.492291
vt 0.397201 0.618272
vt 0.372624 0.614566
vt 0.432664 0.493755
vt 0.421778 0.621979
vt 0.395874 0.744254
vt 0.383444 0.737302
vt 0.411055 0.753606
vt 0.001990 0.003457
vt 0.005344 0.001992
vt 0.135531 0.290094
vt 0.095040 0.300873
vt 0.087937 0.506028
vt 0.089150 0.512537
vn -0.415597 -0.479884 -0.772652
vn -0.447916 -0.046978 -0.892841
vn -0.401368 -0.129692 -0.906689
vn -0.208105 -0.403331 -0.891076
vn -0.133708 0.929876 -0.342714
vn 0.021000 0.999756 -0.006911
vn 0.019061 0.999756 -0.011167
vn -0.133708 0.929876 -0.342714
vn 0.367720 0.420772 0.829297
vn 0.383179 -0.044629 0.922595
vn 0.428414 -0.118985 0.895714
vn 0.300589 0.458823 0.836139
vn -0.301147 0.064313 -0.951406
vn -0.008617 -0.311982 -0.950049
vn -0.564631 0.776271 -0.280348
vn -0.406831 0.895333 0.181293
vn -0.411337 0.895150 0.171780
vn -0.564631 0.776271 -0.280348
vn 0.547754 0.087717 0.832028
vn 0.171575 0.521967 0.835532
vn -0.407538 0.313092 -0.857838
vn -0.440967 0.339053 -0.831018
vn -0.505527 0.389217 -0.770034
vn 0.174735 0.926104 0.334364
vn 0.174735 0.926104 0.334364
vn -0.129200 0.775557 0.617914
vn -0.129200 0.775557 0.617914
vn 0.313355 -0.495661 0.810018
vn 0.551652 -0.396172 0.733981
vn 0.722955 -0.289007 0.627544
vn 0.250433 -0.551294 0.795838
vn 0.347861 -0.023402 0.937254
vn 0.181686 0.053740 0.981887
vn 0.060745 -0.552434 0.831341
vn 0.199955 0.945990 0.255187
vn 0.096965 0.991174 -0.090397
vn 0.121354 0.984204 -0.128900
vn 0.191162 0.941007 0.279218
vn -0.226565 0.276105 -0.934042
vn -0.259963 -0.110535 -0.959271
vn -0.250496 -0.161902 -0.954484
vn -0.166482 0.290263 -0.942354
vn -0.066483 0.254615 0.964755
vn -0.276089 -0.504432 0.818122
vn 0.148524 0.964747 -0.217263
vn 0.175259 0.930604 0.321342
vn -0.234251 -0.174118 -0.956457
vn -0.070647 0.310255 -0.948025
vn 0.329665 0.567256 0.754680
vn 0.259873 0.641354 0.721894
vn 0.132740 0.751669 0.646045
vn -0.032878 0.886708 -0.461159
vn 0.013313 0.853987 -0.520124
vn 0.094076 0.782825 -0.615090
vn -0.257077 -0.435143 -0.862880
vn -0.289571 -0.482136 -0.826858
vn -0.321229 -0.527625 -0.786399
vn -0.360241 -0.312792 0.878856
vn -0.387100 0.032375 0.921469
vn -0.434846 0.034590 0.899840
vn -0.423598 -0.356243 0.832860
vn -0.104508 0.962839 0.249038
vn -0.000988 0.999999 -0.001143
vn -0.056283 0.998101 -0.025029
vn -0.171681 0.949794 0.261569
vn 0.354210 0.315203 -0.880444
vn 0.374410 0.022741 -0.926984
vn 0.316769 0.043477 -0.947506
vn 0.312806 0.370737 -0.874475
vn 0.240530 -0.080538 -0.967295
vn 0.211021 0.492518 -0.844332
vn -0.134132 0.989187 -0.059312
vn -0.262857 0.924290 0.276757
vn -0.519068 -0.068464 0.851986
vn -0.486256 -0.398651 0.777581
vn 0.363325 -0.254343 -0.896273
vn 0.311956 -0.287187 -0.905653
vn 0.226660 -0.337821 -0.913511
vn 0.102634 0.962451 -0.251306
vn 0.064512 0.948860 -0.309034
vn 0.011696 0.922541 -0.385721
vn -0.374314 0.310846 0.873650
vn -0.406661 0.367256 0.836511
vn -0.451112 0.448403 0.771643
vn 0.837514 -0.417405 -0.352622
vn 0.917067 -0.070484 -0.392455
vn 0.937857 -0.122607 -0.324642
vn 0.858576 -0.450773 -0.244235
vn 0.435287 0.866239 -0.245266
vn 0.018549 0.995999 -0.087420
vn 0.051543 0.991896 -0.116129
vn 0.473084 0.840586 -0.263832
vn -0.904842 0.305895 0.296125
vn -0.950572 0.030246 0.309028
vn -0.929061 0.029769 0.368726
vn -0.876389 0.361535 0.318174
vn 0.954039 -0.224114 -0.198953
vn 0.868833 -0.487450 -0.086723
vn 0.047549 0.989998 -0.132826
vn 0.536202 0.790992 -0.294652
vn -0.865791 0.009580 0.500314
vn -0.835836 0.428211 0.343531
vn -0.905837 -0.306813 0.292106
vn -0.859554 -0.263705 0.437751
vn -0.807846 -0.225066 0.544730
vn -0.298001 0.953561 0.043795
vn -0.307329 0.951067 0.031935
vn -0.322607 0.946453 0.012294
vn 0.894992 0.220542 -0.387752
vn 0.895131 0.242009 -0.374396
vn 0.893945 0.280157 -0.349822
vn -0.877579 -0.218895 -0.426545
vn -0.903055 -0.014634 -0.429275
vn -0.890341 -0.037057 -0.453783
vn -0.849185 -0.246677 -0.466943
vn -0.331269 0.923664 -0.192631
vn 0.021075 0.998476 -0.051010
vn -0.003953 0.999933 0.010891
vn -0.398903 0.902497 -0.162410
vn 0.915143 0.217573 0.339374
vn 0.939176 -0.008706 0.343326
vn 0.952904 -0.050481 0.299042
vn 0.901236 0.258192 0.348011
vn -0.856053 -0.086848 -0.509541
vn -0.779288 -0.303433 -0.548304
vn -0.058124 0.987546 0.146204
vn -0.551840 0.829530 -0.085748
vn 0.971408 -0.088638 0.220249
vn 0.864591 0.345715 0.364642
vn 0.904254 -0.277165 0.324813
vn 0.910975 -0.312697 0.268970
vn 0.903274 -0.423416 0.069391
vn 0.370417 0.923647 0.098322
vn 0.397478 0.902129 0.167853
vn 0.452561 0.828238 0.330469
vn -0.888649 0.200175 -0.412592
vn -0.884027 0.254392 -0.392150
vn -0.868541 0.348121 -0.352772
s 1
g polySurface2
usemtl lambert2SG
f 155/421/403 167/422/404 168/423/405 158/424/406
s 2
f 156/373/407 170/374/408 171/375/409 157/376/410
s 3
f 159/430/411 173/431/412 174/432/413 160/433/414
s 1
f 158/424/406 168/423/405 169/427/415 164/428/416
s 4
f 157/376/417 171/375/418 172/379/419 163/380/420
s 3
f 160/378/414 174/382/413 175/383/421 165/381/422
s 1
f 167/422/404 156/425/423 157/426/424 168/423/405
f 169/427/415 168/423/405 157/426/424 163/429/425
s 2
f 170/374/408 159/377/426 160/378/427 171/375/409
s 4
f 172/379/419 171/375/418 160/378/428 165/381/429
s 3
f 173/431/412 161/434/430 162/435/431 174/432/413
f 175/436/421 174/432/413 162/435/431 166/437/432
s 5
f 176/465/433 188/466/434 189/467/435 179/468/436
s 6
f 177/384/437 191/385/438 192/386/439 178/387/440
s 7
f 180/438/441 194/439/442 195/440/443 181/441/444
s 5
f 179/468/436 189/467/435 190/469/445 185/470/446
s 6
f 178/387/440 192/386/439 193/390/447 184/391/448
s 7
f 181/441/444 195/440/443 196/444/449 186/445/450
s 5
f 188/392/434 177/384/451 178/387/452 189/393/435
f 190/395/445 189/393/435 178/387/452 184/391/453
s 6
f 191/385/438 180/388/454 181/389/455 192/386/439
f 193/390/447 192/386/439 181/389/455 186/394/456
s 7
f 194/439/442 182/442/457 183/443/458 195/440/443
f 196/444/449 195/440/443 183/443/458 187/446/459
s 8
f 197/447/460 215/448/461 216/449/462 208/450/463
s 9
f 198/396/464 212/397/465 213/398/466 207/399/467
s 10
f 201/456/468 209/457/469 210/458/470 206/459/471
f 206/459/471 210/458/470 211/462/472 202/463/473
s 9
f 207/399/467 213/398/466 214/402/474 199/403/475
s 8
f 208/450/463 216/449/462 217/453/476 200/454/477
s 10
f 209/457/469 203/460/478 205/461/479 210/458/470
f 211/462/472 210/458/470 205/461/479 204/464/480
s 9
f 212/397/465 201/400/481 206/401/482 213/398/466
f 214/402/474 213/398/466 206/401/482 202/404/483
s 8
f 215/448/461 198/451/484 207/452/485 216/449/462
f 217/453/476 216/449/462 207/452/485 199/455/486
s 11
f 218/333/487 236/334/488 237/335/489 221/336/490
s 12
f 219/405/491 233/406/492 234/407/493 220/408/494
s 13
f 222/344/495 230/345/496 231/346/497 223/347/498
s 11
f 221/336/490 237/335/489 238/339/499 227/340/500
s 12
f 220/338/494 234/342/493 235/343/501 226/341/502
s 13
f 223/347/498 231/346/497 232/350/503 228/351/504
f 230/345/496 224/348/505 225/349/506 231/346/497
f 232/350/503 231/346/497 225/349/506 229/352/507
s 12
f 233/406/492 222/409/508 223/410/509 234/407/493
f 235/411/501 234/407/493 223/410/509 228/412/510
s 11
f 236/334/488 219/337/511 220/338/512 237/335/489
f 238/339/499 237/335/489 220/338/512 226/341/513
s 14
f 239/353/514 257/354/515 258/355/516 242/356/517
s 15
f 240/413/518 254/414/519 255/415/520 241/416/521
s 16
f 243/364/522 251/365/523 252/366/524 244/367/525
s 14
f 242/356/517 258/355/516 259/359/526 248/360/527
s 15
f 241/358/521 255/362/520 256/363/528 247/361/529
s 16
f 244/367/525 252/366/524 253/370/530 249/371/531
f 251/365/523 245/368/532 246/369/533 252/366/524
f 253/370/530 252/366/524 246/369/533 250/372/534
s 15
f 254/414/519 243/417/535 244/418/536 255/415/520
f 256/419/528 255/415/520 244/418/536 249/420/537
s 14
f 257/354/515 240/357/538 241/358/539 258/355/516
f 259/359/526 258/355/516 241/358/539 247/361/540
