# This file uses centimeters as units for non-parametric coordinates.

mtllib NE_01.mtl
g default
v -16.483404 2.543129 -9.905797
v -12.124984 2.543129 -9.905797
v -12.124984 2.716436 -9.905797
v -16.483404 2.716436 -9.905797
v -16.483404 2.543129 -17.083761
v -16.483404 2.716436 -17.083761
v -12.124984 2.543129 -17.083761
v -12.124984 2.716436 -17.083761
v -12.366980 2.716436 -10.119359
v -16.241409 2.716436 -10.119359
v -16.241409 2.716436 -16.870199
v -12.366980 2.716436 -16.870199
v -13.751644 5.106080 -10.119359
v -13.751644 3.575503 -10.119359
v -14.937309 3.575503 -10.119359
v -12.366980 5.641925 -10.119359
v -14.937309 5.106080 -10.119359
v -16.241409 5.641925 -10.119359
v -16.241409 5.641925 -16.870199
v -12.366980 2.719166 -16.402349
v -12.366980 2.719166 -15.194440
v -12.366980 3.575503 -13.825495
v -12.366980 3.575503 -10.730076
v -12.366980 5.106080 -10.730076
v -12.235253 5.641925 -9.889838
v -16.373135 5.641925 -9.889838
v -12.366980 5.641925 -16.870199
v -16.373135 5.641925 -17.099720
v -12.366980 5.203182 -15.194440
v -12.366980 5.203182 -16.402349
v -12.599138 2.719166 -16.402349
v -12.599138 2.719166 -15.194440
v -12.366980 5.106080 -13.825495
v -12.599138 3.575503 -13.825495
v -12.599138 3.575503 -10.730076
v -12.599138 5.106080 -10.730076
v -12.235253 5.641925 -17.099720
v -12.235253 5.913054 -9.889838
v -16.373135 5.913054 -9.889838
v -16.373135 5.913054 -17.099720
v -12.599138 5.203182 -15.194440
v -12.599138 5.203182 -16.402349
v -12.599138 5.106080 -13.825495
v -12.235253 5.913054 -17.099720
v -12.401954 5.913054 -10.180298
v -16.206434 5.913054 -10.180298
v -16.206434 5.913054 -16.809261
v -12.401954 5.913054 -16.809261
v -12.401954 5.638538 -10.180298
v -16.206434 5.638538 -10.180298
v -16.206434 5.638538 -16.809261
v -12.401954 5.638538 -16.809261
v -14.937309 5.106080 -10.345459
v -13.751644 5.106080 -10.345459
v -13.751644 3.575503 -10.345459
v -14.937309 3.575503 -10.345459
vt 0.519874 0.401411
vt 0.519874 0.001992
vt 0.529518 0.001992
vt 0.529518 0.401411
vt 0.786082 0.401411
vt 0.786082 0.001992
vt 0.795725 0.001992
vt 0.795725 0.401411
vt 0.522630 0.780797
vt 0.522630 0.405145
vt 0.685419 0.405145
vt 0.685419 0.780797
vt 0.354101 0.782573
vt 0.354101 0.406921
vt 0.354253 0.432955
vt 0.354253 0.500169
vt 0.401904 0.576344
vt 0.401904 0.748589
vt 0.487073 0.748589
vt 0.516890 0.782573
vt 0.492476 0.500169
vt 0.492476 0.432955
vt 0.516890 0.406921
vt 0.487073 0.576344
vt 0.239080 0.403187
vt 0.239080 0.001992
vt 0.254167 0.001992
vt 0.254167 0.403187
vt 0.623555 0.784531
vt 0.623555 0.922754
vt 0.556341 0.922754
vt 0.556341 0.784531
vt 0.425061 0.786307
vt 0.510230 0.786307
vt 0.510230 0.958552
vt 0.425061 0.958552
vt 0.260960 0.403187
vt 0.260960 0.001992
vt 0.276047 0.001992
vt 0.276047 0.403187
vt 0.348361 0.406921
vt 0.348361 0.775791
vt 0.333086 0.775791
vt 0.333086 0.406921
vt 0.327346 0.406921
vt 0.327346 0.775791
vt 0.312070 0.775791
vt 0.312070 0.406921
vt 0.683793 0.784531
vt 0.683793 0.869700
vt 0.671211 0.869700
vt 0.671211 0.784531
vt 0.764201 0.893468
vt 0.764201 0.808298
vt 0.776783 0.808298
vt 0.776783 0.893468
vt 0.536284 0.001992
vt 0.778809 0.001992
vt 0.778809 0.401411
vt 0.536284 0.401411
vt 0.691159 0.405145
vt 0.933684 0.405145
vt 0.920218 0.417029
vt 0.704625 0.417029
vt 0.933684 0.804564
vt 0.920218 0.792680
vt 0.691159 0.804564
vt 0.704625 0.792680
vt 0.009194 0.390415
vt 0.224787 0.390415
vt 0.232117 0.403187
vt 0.001864 0.403187
vt 0.224787 0.014764
vt 0.232117 0.001992
vt 0.009194 0.014764
vt 0.001864 0.001992
vt 0.797177 0.808298
vt 0.797177 0.875513
vt 0.784258 0.875513
vt 0.784258 0.808298
vt 0.397866 0.786307
vt 0.397866 0.958552
vt 0.384947 0.958552
vt 0.384947 0.786307
vt 0.817233 0.808298
vt 0.817233 0.875513
vt 0.804315 0.875513
vt 0.804315 0.808298
vt 0.417922 0.786307
vt 0.417922 0.958552
vt 0.405004 0.958552
vt 0.405004 0.786307
vt 0.282840 0.001992
vt 0.513093 0.001992
vt 0.503817 0.018155
vt 0.292116 0.018155
vt 0.513093 0.403187
vt 0.503817 0.387024
vt 0.282840 0.403187
vt 0.292116 0.387024
vt 0.094629 0.406921
vt 0.306330 0.406921
vt 0.306330 0.775791
vt 0.094629 0.775791
vt 0.836953 0.808298
vt 0.836953 0.874275
vt 0.824372 0.874275
vt 0.824372 0.808298
vt 0.844428 0.874275
vt 0.844428 0.808298
vt 0.857010 0.808298
vt 0.857010 0.874275
vt 0.079246 0.649446
vt 0.079246 0.406921
vt 0.088890 0.406921
vt 0.088890 0.649446
vt 0.063862 0.649446
vt 0.063862 0.406921
vt 0.073506 0.406921
vt 0.073506 0.649446
vt 0.134836 0.856575
vt 0.049667 0.856575
vt 0.049667 0.922552
vt 0.001864 0.995118
vt 0.001864 0.779525
vt 0.164653 0.779525
vt 0.134836 0.922552
vt 0.164653 0.995118
vt 0.334406 0.779525
vt 0.334406 0.995118
vt 0.171616 0.995118
vt 0.171616 0.779525
vt 0.644016 0.784531
vt 0.644016 0.869700
vt 0.631098 0.869700
vt 0.631098 0.784531
vt 0.043035 0.637174
vt 0.043035 0.406921
vt 0.058123 0.406921
vt 0.058123 0.637174
vt 0.529146 0.786307
vt 0.529146 0.924531
vt 0.516227 0.924531
vt 0.516227 0.786307
vt 0.549203 0.784531
vt 0.549203 0.922754
vt 0.536284 0.922754
vt 0.536284 0.784531
vt 0.664073 0.784531
vt 0.664073 0.869700
vt 0.651154 0.869700
vt 0.651154 0.784531
vt 0.037296 0.406921
vt 0.037296 0.637174
vt 0.022209 0.637174
vt 0.022209 0.406921
vt 0.341187 0.998008
vt 0.341187 0.786307
vt 0.356462 0.786307
vt 0.356462 0.998008
vt 0.378343 0.786307
vt 0.378343 0.998008
vt 0.363067 0.998008
vt 0.363067 0.786307
vt 0.691268 0.893468
vt 0.691268 0.808298
vt 0.757244 0.808298
vt 0.757244 0.893468
vn 0.000000 0.000000 1.000000
vn 0.000000 0.000000 1.000000
vn 0.000000 0.000000 1.000000
vn 0.000000 0.000000 1.000000
vn -1.000000 0.000000 0.000000
vn -1.000000 0.000000 0.000000
vn -1.000000 0.000000 0.000000
vn -1.000000 0.000000 0.000000
vn 0.000000 -1.000000 0.000000
vn 0.000000 -1.000000 0.000000
vn 0.000000 -1.000000 0.000000
vn 0.000000 -1.000000 0.000000
vn 1.000000 0.000000 0.000000
vn 1.000000 0.000000 0.000000
vn 1.000000 0.000000 0.000000
vn 1.000000 0.000000 0.000000
vn 0.000000 1.000000 -0.000000
vn 0.000000 1.000000 -0.000000
vn 0.000000 1.000000 -0.000000
vn 0.000000 1.000000 -0.000000
vn 0.000000 0.000000 -1.000000
vn 0.000000 0.000000 -1.000000
vn 0.000000 0.000000 -1.000000
vn 0.000000 0.000000 -1.000000
vn 0.000000 1.000000 0.000000
vn 0.000000 1.000000 0.000000
vn 0.000000 1.000000 0.000000
vn 0.000000 1.000000 0.000000
vn 0.000000 1.000000 0.000000
vn 0.000000 1.000000 0.000000
vn 0.000000 1.000000 0.000000
vn 0.000000 1.000000 0.000000
vn -0.000000 0.000000 1.000000
vn -0.000000 0.000000 1.000000
vn -0.000000 0.000000 1.000000
vn -0.000000 0.000000 1.000000
vn -0.000000 0.000000 1.000000
vn -0.000000 0.000000 1.000000
vn 0.000000 0.000000 1.000000
vn 0.000000 0.000000 1.000000
vn 0.000000 0.000000 1.000000
vn 0.000000 0.000000 1.000000
vn 0.000000 0.000000 1.000000
vn 0.000000 0.000000 1.000000
vn 0.000000 1.000000 -0.000000
vn 0.000000 1.000000 -0.000000
vn 0.000000 1.000000 -0.000000
vn 0.000000 1.000000 -0.000000
vn -1.000000 0.000000 0.000000
vn -1.000000 0.000000 0.000000
vn -1.000000 0.000000 0.000000
vn -1.000000 0.000000 0.000000
vn 1.000000 0.000001 0.000000
vn 1.000000 0.000001 0.000000
vn 1.000000 0.000001 0.000000
vn 1.000000 0.000001 0.000000
vn 1.000000 0.000001 0.000000
vn 1.000000 0.000001 0.000000
vn 1.000000 0.000001 0.000000
vn 1.000000 0.000001 0.000000
vn 0.000000 -1.000000 0.000001
vn 0.000000 -1.000000 0.000001
vn 0.000000 -1.000000 0.000001
vn 0.000000 -1.000000 0.000001
vn 0.000000 0.000000 -1.000000
vn 0.000000 0.000000 -1.000000
vn 0.000000 0.000000 -1.000000
vn 0.000000 0.000000 -1.000000
vn 0.000000 -1.000000 0.000000
vn 0.000000 -1.000000 0.000000
vn 0.000000 -1.000000 0.000000
vn 0.000000 -1.000000 0.000000
vn 1.000000 0.000000 0.000000
vn 1.000000 0.000000 0.000000
vn 1.000000 0.000000 0.000000
vn 1.000000 0.000000 0.000000
vn 1.000000 0.000000 0.000000
vn 1.000000 0.000000 0.000000
vn 0.000000 1.000000 0.000000
vn 0.000000 1.000000 0.000000
vn 0.000000 1.000000 0.000000
vn 0.000000 1.000000 0.000000
vn 1.000000 -0.000001 0.000000
vn 1.000000 -0.000001 0.000000
vn 1.000000 -0.000001 0.000000
vn 1.000000 -0.000001 0.000000
vn 1.000000 -0.000001 0.000000
vn 1.000000 -0.000001 0.000000
vn 0.000000 1.000000 0.000000
vn 0.000000 1.000000 0.000000
vn 0.000000 1.000000 0.000000
vn 0.000000 1.000000 0.000000
vn 0.000000 0.000000 -1.000000
vn 0.000000 0.000000 -1.000000
vn 0.000000 0.000000 -1.000000
vn 0.000000 0.000000 -1.000000
vn 0.000000 -1.000000 0.000000
vn 0.000000 -1.000000 0.000000
vn 0.000000 -1.000000 0.000000
vn 0.000000 -1.000000 0.000000
vn 0.000000 0.000000 1.000000
vn 0.000000 0.000000 1.000000
vn 0.000000 0.000000 1.000000
vn 0.000000 0.000000 1.000000
vn 0.000000 -1.000000 0.000001
vn 0.000000 -1.000000 0.000001
vn 0.000000 -1.000000 0.000001
vn 0.000000 -1.000000 0.000001
vn -1.000000 0.000000 0.000000
vn -1.000000 0.000000 0.000000
vn -1.000000 0.000000 0.000000
vn -1.000000 0.000000 0.000000
vn 0.000000 -1.000000 0.000000
vn 0.000000 -1.000000 0.000000
vn 0.000000 -1.000000 0.000000
vn 0.000000 -1.000000 0.000000
vn 0.000000 0.000000 1.000000
vn 0.000000 0.000000 1.000000
vn 0.000000 0.000000 1.000000
vn 0.000000 0.000000 1.000000
vn 0.000000 0.000000 -1.000000
vn 0.000000 0.000000 -1.000000
vn 0.000000 0.000000 -1.000000
vn 0.000000 0.000000 -1.000000
vn 1.000000 0.000000 0.000000
vn 1.000000 0.000000 0.000000
vn 1.000000 0.000000 0.000000
vn 1.000000 0.000000 0.000000
vn 0.000000 -1.000000 0.000000
vn 0.000000 -1.000000 0.000000
vn 0.000000 -1.000000 0.000000
vn 0.000000 -1.000000 0.000000
vn 0.000000 0.000000 1.000000
vn 0.000000 0.000000 1.000000
vn 0.000000 0.000000 1.000000
vn 0.000000 0.000000 1.000000
vn 1.000000 0.000000 0.000000
vn 1.000000 0.000000 0.000000
vn 1.000000 0.000000 0.000000
vn 1.000000 0.000000 0.000000
vn 1.000000 0.000000 0.000000
vn 1.000000 0.000000 0.000000
vn 1.000000 0.000000 0.000000
vn 1.000000 0.000000 0.000000
vn 0.000000 1.000000 0.000000
vn 0.000000 1.000000 0.000000
vn 0.000000 1.000000 0.000000
vn 0.000000 1.000000 0.000000
vn 0.000000 0.000000 -1.000000
vn 0.000000 0.000000 -1.000000
vn 0.000000 0.000000 -1.000000
vn 0.000000 0.000000 -1.000000
vn 0.000000 1.000000 0.000000
vn 0.000000 1.000000 0.000000
vn 0.000000 1.000000 0.000000
vn 0.000000 1.000000 0.000000
vn 0.000000 1.000000 0.000000
vn 0.000000 1.000000 0.000000
vn 0.000000 1.000000 0.000000
vn 0.000000 1.000000 0.000000
vn 0.000000 0.000000 -1.000000
vn 0.000000 0.000000 -1.000000
vn 0.000000 0.000000 -1.000000
vn 0.000000 0.000000 -1.000000
vn 0.000000 1.000000 -0.000000
vn 0.000000 1.000000 -0.000000
vn 0.000000 1.000000 -0.000000
vn 0.000000 1.000000 -0.000000
vn 1.000000 0.000000 0.000000
vn 1.000000 0.000000 0.000000
vn 1.000000 0.000000 0.000000
vn 1.000000 0.000000 0.000000
vn -1.000000 0.000000 0.000000
vn -1.000000 0.000000 0.000000
vn -1.000000 0.000000 0.000000
vn -1.000000 0.000000 0.000000
vn 0.000000 1.000000 0.000000
vn 0.000000 1.000000 0.000000
vn 0.000000 1.000000 0.000000
vn 0.000000 1.000000 0.000000
vn 0.000000 0.000000 1.000000
vn 0.000000 0.000000 1.000000
vn 0.000000 0.000000 1.000000
vn 0.000000 0.000000 1.000000
vn 0.000000 -1.000000 0.000000
vn 0.000000 -1.000000 0.000000
vn 0.000000 -1.000000 0.000000
vn 0.000000 -1.000000 0.000000
vn -1.000000 0.000000 0.000000
vn -1.000000 0.000000 0.000000
vn -1.000000 0.000000 0.000000
vn -1.000000 0.000000 0.000000
vn 0.000000 0.000000 1.000000
vn 0.000000 0.000000 1.000000
vn 0.000000 0.000000 1.000000
vn 0.000000 0.000000 1.000000
vn 1.000000 0.000000 0.000000
vn 1.000000 0.000000 0.000000
vn 1.000000 0.000000 0.000000
vn 1.000000 0.000000 0.000000
vn 0.000000 1.000000 0.000000
vn 0.000000 1.000000 0.000000
vn 0.000000 1.000000 0.000000
vn 0.000000 1.000000 0.000000
s off
g polySurface86 polySurface39
usemtl blinn4SG
f 1/113/1 2/114/2 3/115/3 4/116/4
f 5/1/5 1/2/6 4/3/7 6/4/8
f 5/57/9 7/58/10 2/59/11 1/60/12
f 2/5/13 7/6/14 8/7/15 3/8/16
f 4/61/17 3/62/18 9/63/19 10/64/20
f 6/117/21 8/118/22 7/119/23 5/120/24
f 6/67/25 4/61/26 10/64/27 11/68/28
f 3/62/29 8/65/30 12/66/31 9/63/32
f 13/121/33 14/122/34 15/123/35 10/124/36 9/125/37 16/126/38
f 10/124/39 15/123/40 17/127/41 13/121/42 16/126/43 18/128/44
f 8/65/45 6/67/46 11/68/47 12/66/48
f 11/9/49 10/10/50 18/11/51 19/12/52
f 9/13/53 12/14/54 20/15/55 21/16/56 22/17/57 23/18/58 24/19/59 16/20/60
f 18/69/61 16/70/62 25/71/63 26/72/64
f 12/129/65 11/130/66 19/131/67 27/132/68
f 19/75/69 18/69/70 26/72/71 28/76/72
f 29/21/73 30/22/74 20/15/75 12/14/76 27/23/77 16/20/78
f 21/77/79 20/78/80 31/79/81 32/80/82
f 24/19/83 33/24/84 22/17/85 21/16/86 29/21/87 16/20/88
f 23/81/89 22/82/90 34/83/91 35/84/92
f 24/133/93 23/134/94 35/135/95 36/136/96
f 16/70/97 27/73/98 37/74/99 25/71/100
f 26/137/101 25/138/102 38/139/103 39/140/104
f 27/73/105 19/75/106 28/76/107 37/74/108
f 28/25/109 26/26/110 39/27/111 40/28/112
f 30/85/113 29/86/114 41/87/115 42/88/116
f 20/141/117 30/142/118 42/143/119 31/144/120
f 29/145/121 21/146/122 32/147/123 41/148/124
f 31/29/125 42/30/126 41/31/127 32/32/128
f 33/89/129 24/90/130 36/91/131 43/92/132
f 22/149/133 33/150/134 43/151/135 34/152/136
f 34/33/137 43/34/138 36/35/139 35/36/140
f 25/37/141 37/38/142 44/39/143 38/40/144
f 39/93/145 38/94/146 45/95/147 46/96/148
f 37/153/149 28/154/150 40/155/151 44/156/152
f 40/99/153 39/93/154 46/96/155 47/100/156
f 38/94/157 44/97/158 48/98/159 45/95/160
f 46/157/161 45/158/162 49/159/163 50/160/164
f 44/97/165 40/99/166 47/100/167 48/98/168
f 47/41/169 46/42/170 50/43/171 51/44/172
f 45/45/173 48/46/174 52/47/175 49/48/176
f 50/101/177 49/102/178 52/103/179 51/104/180
f 48/161/181 47/162/182 51/163/183 52/164/184
f 13/105/185 17/106/186 53/107/187 54/108/188
f 14/49/189 13/50/190 54/51/191 55/52/192
f 53/165/193 56/166/194 55/167/195 54/168/196
f 17/53/197 15/54/198 56/55/199 53/56/200
f 15/109/201 14/110/202 55/111/203 56/112/204
g default
v -12.434572 3.914675 -15.436179
v -12.434572 3.868889 -15.436179
v -12.434572 3.845996 -15.396527
v -12.434572 3.868889 -15.356875
v -12.434572 3.914675 -15.356875
v -12.434572 3.937568 -15.396527
v -12.460434 3.914675 -15.436179
v -12.460434 3.868889 -15.436179
v -12.460434 3.845996 -15.396527
v -12.460434 3.868889 -15.356875
v -12.460434 3.914675 -15.356875
v -12.460434 3.937568 -15.396527
v -12.434572 3.891782 -15.396527
v -12.460434 3.891782 -15.396527
v -12.381355 3.901432 -15.411341
v -12.381355 3.885267 -15.411342
v -12.381355 3.877184 -15.397342
v -12.381355 3.885267 -15.383342
v -12.381355 3.901432 -15.383342
v -12.381355 3.909515 -15.397342
v -12.393189 3.907349 -15.421590
v -12.393189 3.879350 -15.421590
v -12.393189 3.865350 -15.397342
v -12.393189 3.879350 -15.373094
v -12.393189 3.907349 -15.373094
v -12.393189 3.921348 -15.397342
v -12.409354 3.909515 -15.425341
v -12.409354 3.877184 -15.425341
v -12.409354 3.861019 -15.397342
v -12.409354 3.877184 -15.369343
v -12.409354 3.909515 -15.369343
v -12.409354 3.925680 -15.397342
v -12.425519 3.907349 -15.421590
v -12.425519 3.879350 -15.421590
v -12.425519 3.865350 -15.397342
v -12.425519 3.879350 -15.373094
v -12.425519 3.907349 -15.373094
v -12.425519 3.921348 -15.397342
v -12.437353 3.901432 -15.411341
v -12.437353 3.885267 -15.411342
v -12.437353 3.877184 -15.397342
v -12.437353 3.885267 -15.383342
v -12.437353 3.901432 -15.383342
v -12.437353 3.909515 -15.397342
v -12.377024 3.893349 -15.397342
v -12.441685 3.893349 -15.397342
v -12.474233 2.727173 -15.209585
v -12.364856 2.727173 -15.209585
v -12.474233 5.186133 -15.209585
v -12.364856 5.186133 -15.209585
v -12.474233 5.186133 -16.393929
v -12.364856 5.186133 -16.393929
v -12.474233 2.727173 -16.393929
v -12.364856 2.727173 -16.393929
v -12.364856 2.824358 -16.304752
v -12.364856 2.824358 -15.298759
v -12.364856 5.088948 -16.304752
v -12.364856 5.088948 -15.298759
v -12.458552 2.824358 -16.304752
v -12.458552 2.824358 -15.298759
v -12.458552 5.088948 -16.304752
v -12.458552 5.088948 -15.298759
vt 0.678505 0.506697
vt 0.678505 0.516731
vt 0.669815 0.511714
vt 0.669815 0.521749
vt 0.669815 0.501679
vt 0.661124 0.516731
vt 0.661124 0.506697
vt 0.638582 0.516731
vt 0.638582 0.506697
vt 0.647273 0.511714
vt 0.647273 0.501679
vt 0.647273 0.521749
vt 0.655963 0.506697
vt 0.655963 0.516731
vt 0.609516 0.506044
vt 0.609516 0.509587
vt 0.606448 0.507815
vt 0.611762 0.504747
vt 0.611762 0.510884
vt 0.606448 0.511358
vt 0.606448 0.504273
vt 0.606448 0.501679
vt 0.606448 0.513952
vt 0.603379 0.509587
vt 0.603379 0.506044
vt 0.601133 0.504747
vt 0.601133 0.510884
vt 0.563096 0.552187
vt 0.563096 0.548644
vt 0.566164 0.550415
vt 0.560850 0.553484
vt 0.560850 0.547347
vt 0.566164 0.546872
vt 0.566164 0.553958
vt 0.566164 0.544279
vt 0.566164 0.556552
vt 0.569233 0.548644
vt 0.569233 0.552187
vt 0.571479 0.547347
vt 0.571479 0.553484
vt 0.592068 0.001992
vt 0.812551 0.001992
vt 0.812551 0.498321
vt 0.592068 0.498321
vt 0.060863 0.001992
vt 0.320434 0.001992
vt 0.320434 0.540921
vt 0.060863 0.540921
vt 0.326466 0.001992
vt 0.586037 0.001992
vt 0.566493 0.023292
vt 0.346010 0.023292
vt 0.586037 0.540921
vt 0.566493 0.519621
vt 0.326466 0.540921
vt 0.346010 0.519621
vt 0.633421 0.501679
vt 0.633421 0.510370
vt 0.627753 0.510370
vt 0.627753 0.501679
vt 0.633421 0.519060
vt 0.627753 0.519060
vt 0.622591 0.510369
vt 0.622591 0.519060
vt 0.616923 0.519060
vt 0.616923 0.510369
vt 0.622591 0.501679
vt 0.616923 0.501679
vt 0.595972 0.545101
vt 0.595972 0.550415
vt 0.592429 0.550415
vt 0.592429 0.544279
vt 0.595972 0.555730
vt 0.592429 0.556552
vt 0.588886 0.550415
vt 0.588886 0.545101
vt 0.588886 0.555730
vt 0.583725 0.545101
vt 0.583725 0.550415
vt 0.580183 0.550415
vt 0.580183 0.544279
vt 0.583725 0.555730
vt 0.580183 0.556552
vt 0.576640 0.550415
vt 0.576640 0.545101
vt 0.576640 0.555730
vt 0.764193 0.501679
vt 0.788165 0.501679
vt 0.788165 0.761251
vt 0.764193 0.761251
vt 0.735060 0.501679
vt 0.759032 0.501679
vt 0.759032 0.761250
vt 0.735060 0.761250
vt 0.729899 0.501679
vt 0.729899 0.722162
vt 0.709363 0.722162
vt 0.709363 0.501679
vt 0.704202 0.501679
vt 0.704202 0.722162
vt 0.683667 0.722162
vt 0.683667 0.501679
vt 0.555689 0.544279
vt 0.555689 0.554314
vt 0.550021 0.554314
vt 0.550021 0.544279
vt 0.544859 0.544279
vt 0.544859 0.554314
vt 0.539191 0.554314
vt 0.539191 0.544279
vt 0.534030 0.544754
vt 0.534030 0.550890
vt 0.530487 0.551365
vt 0.530487 0.544279
vt 0.526944 0.550890
vt 0.526944 0.544754
vt 0.521783 0.544754
vt 0.521783 0.550890
vt 0.518241 0.551365
vt 0.518241 0.544279
vt 0.514698 0.550890
vt 0.514698 0.544754
vt 0.001676 0.001992
vt 0.025648 0.001992
vt 0.025648 0.540921
vt 0.001676 0.540921
vt 0.031351 0.001992
vt 0.055323 0.001992
vt 0.055323 0.540921
vt 0.031351 0.540921
vt 0.839558 0.001992
vt 0.839558 0.498321
vt 0.819023 0.498321
vt 0.819023 0.001992
vt 0.813862 0.501679
vt 0.813862 0.998008
vt 0.793326 0.998008
vt 0.793326 0.501679
vn 0.000000 0.000000 -1.000000
vn 0.000000 0.000000 -1.000000
vn 0.000000 0.000000 -1.000000
vn 0.000000 0.000000 -1.000000
vn 0.000000 -0.866026 -0.499999
vn 0.000000 -0.866026 -0.499999
vn 0.000000 -0.866026 -0.499999
vn 0.000000 -0.866026 -0.499999
vn 0.000000 -0.866026 0.499999
vn 0.000000 -0.866026 0.499999
vn 0.000000 -0.866026 0.499999
vn 0.000000 -0.866026 0.499999
vn 0.000000 0.000000 1.000000
vn 0.000000 0.000000 1.000000
vn 0.000000 0.000000 1.000000
vn 0.000000 0.000000 1.000000
vn 0.000000 0.866023 0.500004
vn 0.000000 0.866023 0.500004
vn 0.000000 0.866023 0.500004
vn 0.000000 0.866023 0.500004
vn 0.000000 0.866026 -0.499999
vn 0.000000 0.866026 -0.499999
vn 0.000000 0.866026 -0.499999
vn 0.000000 0.866026 -0.499999
vn 1.000000 0.000000 0.000000
vn 1.000000 0.000000 0.000000
vn 1.000000 0.000000 0.000000
vn 1.000000 0.000000 0.000000
vn 1.000000 0.000000 0.000000
vn 1.000000 0.000000 0.000000
vn 1.000000 0.000000 0.000000
vn 1.000000 0.000000 0.000000
vn 1.000000 0.000000 0.000000
vn 1.000000 0.000000 0.000000
vn 1.000000 0.000000 0.000000
vn 1.000000 0.000000 0.000000
vn 1.000000 0.000000 0.000000
vn 1.000000 0.000000 0.000000
vn 1.000000 0.000000 0.000000
vn 1.000000 0.000000 0.000000
vn 1.000000 0.000000 0.000000
vn 1.000000 0.000000 0.000000
vn -1.000000 0.000000 0.000000
vn -1.000000 0.000000 0.000000
vn -1.000000 0.000000 0.000000
vn -1.000000 0.000000 0.000000
vn -1.000000 0.000000 0.000000
vn -1.000000 0.000000 0.000000
vn -1.000000 0.000000 0.000000
vn -1.000000 0.000000 0.000000
vn -1.000000 0.000000 0.000000
vn -1.000000 0.000000 0.000000
vn -1.000000 0.000000 0.000000
vn -1.000000 0.000000 0.000000
vn -1.000000 0.000000 0.000000
vn -1.000000 0.000000 0.000000
vn -1.000000 0.000000 0.000000
vn -1.000000 0.000000 0.000000
vn -1.000000 0.000000 0.000000
vn -1.000000 0.000000 0.000000
vn 0.654647 0.000043 -0.755935
vn 0.654647 0.000043 -0.755935
vn 0.654647 0.000043 -0.755935
vn 0.654647 0.000043 -0.755935
vn 0.654611 -0.654697 -0.377963
vn 0.654611 -0.654697 -0.377963
vn 0.654611 -0.654697 -0.377963
vn 0.654611 -0.654697 -0.377963
vn 0.654654 -0.654654 0.377963
vn 0.654654 -0.654654 0.377963
vn 0.654654 -0.654654 0.377963
vn 0.654654 -0.654654 0.377963
vn 0.654610 0.000000 0.755967
vn 0.654610 0.000000 0.755967
vn 0.654610 0.000000 0.755967
vn 0.654610 0.000000 0.755967
vn 0.654623 0.654688 0.377957
vn 0.654623 0.654688 0.377957
vn 0.654623 0.654688 0.377957
vn 0.654623 0.654688 0.377957
vn 0.654629 0.654673 -0.377973
vn 0.654630 0.654673 -0.377973
vn 0.654630 0.654673 -0.377973
vn 0.654630 0.654673 -0.377973
vn 0.225998 0.000000 -0.974128
vn 0.225998 0.000000 -0.974128
vn 0.225998 0.000000 -0.974128
vn 0.225998 0.000000 -0.974128
vn 0.226053 -0.843600 -0.487071
vn 0.226053 -0.843600 -0.487071
vn 0.226053 -0.843600 -0.487071
vn 0.226053 -0.843600 -0.487071
vn 0.226040 -0.843610 0.487060
vn 0.226040 -0.843610 0.487060
vn 0.226040 -0.843610 0.487060
vn 0.226040 -0.843610 0.487060
vn 0.226012 0.000000 0.974125
vn 0.226012 0.000000 0.974125
vn 0.226012 0.000000 0.974125
vn 0.226012 0.000000 0.974125
vn 0.226067 0.843597 0.487070
vn 0.226067 0.843597 0.487070
vn 0.226067 0.843597 0.487070
vn 0.226067 0.843597 0.487070
vn 0.226040 0.843610 -0.487060
vn 0.226040 0.843610 -0.487060
vn 0.226040 0.843610 -0.487060
vn 0.226040 0.843610 -0.487060
vn -0.225998 0.000000 -0.974128
vn -0.225998 0.000000 -0.974128
vn -0.225998 0.000000 -0.974128
vn -0.225998 0.000000 -0.974128
vn -0.226038 -0.843624 -0.487038
vn -0.226038 -0.843624 -0.487038
vn -0.226038 -0.843624 -0.487038
vn -0.226038 -0.843624 -0.487038
vn -0.226029 -0.843627 0.487036
vn -0.226029 -0.843628 0.487036
vn -0.226029 -0.843628 0.487036
vn -0.226029 -0.843628 0.487036
vn -0.226012 0.000000 0.974125
vn -0.226012 0.000000 0.974125
vn -0.226012 0.000000 0.974125
vn -0.226012 0.000000 0.974125
vn -0.226023 0.843627 0.487039
vn -0.226023 0.843627 0.487040
vn -0.226023 0.843627 0.487039
vn -0.226023 0.843627 0.487039
vn -0.226057 0.843622 -0.487032
vn -0.226057 0.843622 -0.487032
vn -0.226057 0.843622 -0.487032
vn -0.226057 0.843622 -0.487032
vn -0.654696 0.000000 -0.755892
vn -0.654696 0.000000 -0.755892
vn -0.654696 0.000000 -0.755892
vn -0.654696 0.000000 -0.755892
vn -0.654617 -0.654682 -0.377979
vn -0.654617 -0.654682 -0.377979
vn -0.654617 -0.654682 -0.377979
vn -0.654617 -0.654682 -0.377979
vn -0.654679 -0.654636 0.377952
vn -0.654679 -0.654636 0.377952
vn -0.654679 -0.654636 0.377952
vn -0.654679 -0.654636 0.377952
vn -0.654635 0.000000 0.755945
vn -0.654635 0.000000 0.755945
vn -0.654635 0.000000 0.755945
vn -0.654635 0.000000 0.755945
vn -0.654654 0.654654 0.377963
vn -0.654654 0.654654 0.377963
vn -0.654654 0.654654 0.377963
vn -0.654654 0.654654 0.377963
vn -0.654654 0.654654 -0.377963
vn -0.654654 0.654654 -0.377963
vn -0.654654 0.654654 -0.377963
vn -0.654654 0.654654 -0.377963
vn 0.955312 0.000000 -0.295598
vn 0.955312 0.000000 -0.295598
vn 0.955312 0.000000 -0.295598
vn 0.955314 -0.256000 -0.147782
vn 0.955314 -0.256000 -0.147782
vn 0.955314 -0.256000 -0.147782
vn 0.955314 -0.256000 0.147782
vn 0.955314 -0.256000 0.147782
vn 0.955314 -0.256000 0.147782
vn 0.955318 0.000000 0.295581
vn 0.955318 0.000000 0.295581
vn 0.955318 0.000000 0.295581
vn 0.955314 0.256000 0.147782
vn 0.955314 0.256000 0.147782
vn 0.955314 0.256000 0.147782
vn 0.955303 0.256031 -0.147800
vn 0.955303 0.256031 -0.147800
vn 0.955303 0.256031 -0.147800
vn -0.955312 0.000000 -0.295598
vn -0.955312 0.000000 -0.295598
vn -0.955312 0.000000 -0.295598
vn -0.955314 -0.256000 -0.147782
vn -0.955314 -0.256000 -0.147782
vn -0.955314 -0.256000 -0.147782
vn -0.955314 -0.256000 0.147782
vn -0.955314 -0.256000 0.147782
vn -0.955314 -0.256000 0.147782
vn -0.955318 0.000000 0.295581
vn -0.955318 0.000000 0.295581
vn -0.955318 0.000000 0.295581
vn -0.955314 0.256000 0.147782
vn -0.955314 0.256000 0.147782
vn -0.955314 0.256000 0.147782
vn -0.955303 0.256031 -0.147800
vn -0.955303 0.256031 -0.147800
vn -0.955303 0.256031 -0.147800
vn 0.000000 0.000000 1.000000
vn 0.000000 0.000000 1.000000
vn 0.000000 0.000000 1.000000
vn 0.000000 0.000000 1.000000
vn 0.000000 1.000000 0.000000
vn 0.000000 1.000000 0.000000
vn 0.000000 1.000000 0.000000
vn 0.000000 1.000000 0.000000
vn 0.000000 0.000000 -1.000000
vn 0.000000 0.000000 -1.000000
vn 0.000000 0.000000 -1.000000
vn 0.000000 0.000000 -1.000000
vn 0.000000 -1.000000 0.000000
vn 0.000000 -1.000000 0.000000
vn 0.000000 -1.000000 0.000000
vn 0.000000 -1.000000 0.000000
vn 1.000000 0.000000 0.000000
vn 1.000000 0.000000 0.000000
vn 1.000000 0.000000 0.000000
vn 1.000000 0.000000 0.000000
vn -1.000000 0.000000 0.000000
vn -1.000000 0.000000 0.000000
vn -1.000000 0.000000 0.000000
vn -1.000000 0.000000 0.000000
vn 1.000000 0.000002 0.000000
vn 1.000000 0.000002 0.000000
vn 1.000000 0.000002 0.000000
vn 1.000000 0.000002 0.000000
vn 1.000000 0.000000 0.000000
vn 1.000000 0.000000 0.000000
vn 1.000000 0.000000 0.000000
vn 1.000000 0.000000 0.000000
vn 1.000000 0.000001 0.000000
vn 1.000000 0.000001 0.000000
vn 1.000000 0.000001 0.000000
vn 1.000000 0.000001 0.000000
vn 1.000000 0.000000 0.000000
vn 1.000000 0.000000 0.000000
vn 1.000000 0.000000 0.000000
vn 1.000000 0.000000 0.000000
vn 0.000000 1.000000 0.000000
vn 0.000000 1.000000 0.000000
vn 0.000000 1.000000 0.000000
vn 0.000000 1.000000 0.000000
vn 0.000000 0.000000 1.000000
vn 0.000000 0.000000 1.000000
vn 0.000000 0.000000 1.000000
vn 0.000000 0.000000 1.000000
vn 0.000000 -1.000000 0.000000
vn 0.000000 -1.000000 0.000000
vn 0.000000 -1.000000 0.000000
vn 0.000000 -1.000000 0.000000
vn 0.000000 0.000000 -1.000000
vn 0.000000 0.000000 -1.000000
vn 0.000000 0.000000 -1.000000
vn 0.000000 0.000000 -1.000000
s off
g polySurface435
usemtl anisotropic1SG
f 57/271/205 58/272/206 64/273/207 63/274/208
f 58/225/209 59/226/210 65/227/211 64/228/212
f 59/226/213 60/229/214 66/230/215 65/227/216
f 60/275/217 61/276/218 67/277/219 66/278/220
f 61/235/221 62/231/222 68/234/223 67/236/224
f 62/231/225 57/232/226 63/233/227 68/234/228
f 58/169/229 57/170/230 69/171/231
f 59/173/232 58/169/233 69/171/234
f 60/175/235 59/173/236 69/171/237
f 61/174/238 60/175/239 69/171/240
f 62/172/241 61/174/242 69/171/243
f 57/170/244 62/172/245 69/171/246
f 63/176/247 64/177/248 70/178/249
f 64/177/250 65/179/251 70/178/252
f 65/179/253 66/181/254 70/178/255
f 66/181/256 67/182/257 70/178/258
f 67/182/259 68/180/260 70/178/261
f 68/180/262 63/176/263 70/178/264
f 71/184/265 72/183/266 78/186/267 77/187/268
f 72/183/269 73/189/270 79/190/271 78/186/272
f 73/189/273 74/193/274 80/194/275 79/190/276
f 74/193/277 75/192/278 81/195/279 80/194/280
f 75/192/281 76/188/282 82/191/283 81/195/284
f 76/188/285 71/184/286 77/187/287 82/191/288
f 77/279/289 78/280/290 84/281/291 83/282/292
f 78/237/293 79/238/294 85/239/295 84/240/296
f 79/238/297 80/241/298 86/242/299 85/239/300
f 80/285/301 81/286/302 87/287/303 86/288/304
f 81/246/305 82/247/306 88/248/307 87/249/308
f 82/247/309 77/250/310 83/251/311 88/248/312
f 83/282/313 84/281/314 90/283/315 89/284/316
f 84/240/317 85/239/318 91/243/319 90/244/320
f 85/239/321 86/242/322 92/245/323 91/243/324
f 86/288/325 87/287/326 93/289/327 92/290/328
f 87/249/329 88/248/330 94/252/331 93/253/332
f 88/248/333 83/251/334 89/254/335 94/252/336
f 89/199/337 90/200/338 96/197/339 95/196/340
f 90/200/341 91/203/342 97/201/343 96/197/344
f 91/203/345 92/207/346 98/205/347 97/201/348
f 92/207/349 93/208/350 99/206/351 98/205/352
f 93/208/353 94/204/354 100/202/355 99/206/356
f 94/204/357 89/199/358 95/196/359 100/202/360
f 72/183/361 71/184/362 101/185/363
f 73/189/364 72/183/365 101/185/366
f 74/193/367 73/189/368 101/185/369
f 75/192/370 74/193/371 101/185/372
f 76/188/373 75/192/374 101/185/375
f 71/184/376 76/188/377 101/185/378
f 95/196/379 96/197/380 102/198/381
f 96/197/382 97/201/383 102/198/384
f 97/201/385 98/205/386 102/198/387
f 98/205/388 99/206/389 102/198/390
f 99/206/391 100/202/392 102/198/393
f 100/202/394 95/196/395 102/198/396
f 103/291/397 104/292/398 106/293/399 105/294/400
f 105/255/401 106/256/402 108/257/403 107/258/404
f 107/295/405 108/296/406 110/297/407 109/298/408
f 109/259/409 110/260/410 104/261/411 103/262/412
f 116/209/413 115/210/414 117/211/415 118/212/416
f 109/213/417 103/214/418 105/215/419 107/216/420
f 104/217/421 110/218/422 111/219/423 112/220/424
f 110/218/425 108/221/426 113/222/427 111/219/428
f 108/221/429 106/223/430 114/224/431 113/222/432
f 106/223/433 104/217/434 112/220/435 114/224/436
f 112/263/437 111/264/438 115/265/439 116/266/440
f 111/299/441 113/300/442 117/301/443 115/302/444
f 113/267/445 114/268/446 118/269/447 117/270/448
f 114/303/449 112/304/450 116/305/451 118/306/452
