# This file uses centimeters as units for non-parametric coordinates.

mtllib Clinic.mtl
g default
v -19.291077 2.545599 29.763588
v -19.145571 2.545599 29.763588
v -19.145571 2.815821 29.763588
v -19.291077 2.815821 29.763588
v -19.291077 2.545599 29.469189
v -19.291077 2.815821 29.469189
v -19.145571 2.545599 29.469189
v -15.636157 2.545599 29.763588
v -15.636157 2.815821 29.763588
v -19.145571 2.815821 29.469189
v -19.291077 2.545599 26.659370
v -19.291077 2.815821 26.659370
v -19.145571 2.545599 26.659370
v -15.636157 2.545599 29.469189
v -15.636157 2.815821 29.469189
v -12.126743 2.545599 29.763588
v -12.126743 2.815821 29.763588
v -19.145571 2.815821 26.659370
v -19.291077 2.545599 23.849550
v -19.291077 2.815821 23.849550
v -19.145571 2.545599 23.849550
v -15.636157 2.545599 26.659370
v -12.126743 2.545599 29.469189
v -15.636157 6.587748 29.469189
v -19.145571 6.587748 29.469189
v -12.126743 2.815821 29.469189
v -11.930638 2.545599 29.763588
v -11.930638 2.815821 29.763588
v -19.145571 6.587748 26.659370
v -19.145571 2.815821 23.849550
v -19.291077 2.545599 23.575607
v -19.291077 2.815821 23.575607
v -19.145571 2.545599 23.575607
v -15.636157 2.545599 23.849550
v -12.126743 2.545599 26.659370
v -11.930638 2.545599 29.469189
v -12.126743 6.587748 29.469189
v -15.636157 6.939405 29.469189
v -19.145571 6.939405 29.469189
v -11.930638 2.815821 29.469189
v -3.017724 2.545599 29.763588
v -3.017724 2.815821 29.763588
v -19.145571 6.587748 23.849550
v -19.145571 6.939405 26.659370
v -19.145571 2.815821 23.575607
v -19.291077 2.545599 11.231408
v -19.291077 2.815821 11.231408
v -19.145571 2.545599 11.231408
v -15.636157 2.545599 23.575607
v -12.126743 2.545599 23.849550
v -11.930638 2.545599 26.659370
v -3.017724 2.545599 29.469189
v -11.930638 6.587748 29.469189
v -12.126743 6.939405 29.469189
v -15.636157 9.857870 26.659370
v -3.017724 2.815821 29.469189
v -2.777397 2.545599 29.763588
v -2.777397 2.815821 29.763588
v -19.145571 6.587749 23.575607
v -19.145571 6.939405 23.849550
v -19.145571 2.815821 11.231408
v -19.291077 2.545599 10.958385
v -19.291077 2.815821 10.958385
v -19.145571 2.545599 10.958385
v -15.636157 2.545599 11.231408
v -12.126743 2.545599 23.575607
v -11.930638 2.545599 23.849550
v -3.017724 2.545599 26.659370
v -2.777397 2.545599 29.469189
v -3.017724 6.587749 29.469189
v -11.930638 6.939405 29.469189
v -12.126743 9.857870 26.659370
v -2.777396 2.815821 29.469189
v -19.145571 6.587749 11.231408
v -19.145571 6.939405 23.575607
v -15.636157 9.857870 23.849550
v -19.145571 2.815821 10.958385
v -15.636157 2.545599 10.958385
v -12.126743 2.545599 11.231408
v -11.930638 2.545599 23.575607
v -3.017724 2.545599 23.849550
v -2.777397 2.545599 26.659370
v -3.017724 2.815821 26.659370
v -3.017724 9.257328 26.659370
v -3.017724 6.939405 29.469189
v -11.930638 9.857870 26.659370
v -12.126743 6.939405 23.849550
v -2.777397 2.815821 26.659370
v -15.636157 9.257328 11.231408
v -15.636157 2.815821 11.231408
v -19.145571 6.939405 11.231408
v -15.636157 9.857870 23.575607
v -15.636157 2.815821 10.958385
v -12.126743 2.545599 10.958385
v -11.930638 2.545599 11.231408
v -3.017724 2.545599 23.575607
v -2.777397 2.545599 23.849550
v -3.017724 2.815821 23.849550
v -3.017724 6.587749 23.849550
v -2.717724 9.257328 26.659370
v -2.717724 6.587749 29.469189
v -2.717724 6.939405 29.469189
v -3.017724 9.857870 26.659370
v -11.930638 6.939405 23.849550
v -2.777397 2.815821 23.849550
v -19.145571 6.587749 10.931409
v -15.636157 9.257328 10.931409
v -12.126743 2.815821 11.231408
v -12.126743 6.587749 11.231408
v -19.145571 6.939405 10.931409
v -15.636157 9.857870 11.231408
v -12.126743 6.939405 23.575607
v -12.126743 2.815821 10.958385
v -11.930638 2.545599 10.958385
v -11.930638 2.815821 23.575607
v -11.930638 2.815821 11.231408
v -2.777397 2.545599 23.575607
v -3.017724 2.815821 23.575607
v -2.717724 6.587749 23.849550
v -11.930638 2.815821 23.849550
v -9.870977 4.222079 23.849550
v -8.371601 4.222079 23.849550
v -6.411953 4.222079 23.849550
v -4.912577 4.222079 23.849550
v -4.912577 5.721455 23.849550
v -6.411953 5.721455 23.849550
v -8.371601 5.721455 23.849550
v -2.717724 9.857870 26.659370
v -3.017724 6.939405 23.849550
v -11.930638 6.587748 23.849550
v -12.126743 6.587748 23.849550
v -2.777397 2.815821 23.575607
v -12.126743 6.587749 10.931409
v -15.636157 9.857870 10.931409
v -12.126743 5.721455 12.769180
v -12.126743 4.222079 12.769180
v -12.126743 6.587749 23.575607
v -12.126743 6.939405 11.231408
v -11.930638 2.815821 10.958385
v -12.126743 2.815821 23.575607
v -2.717724 6.939405 23.849550
v -9.870977 5.721455 23.849550
v -9.870977 4.222079 23.949150
v -8.371601 4.222079 23.949150
v -8.371601 5.721455 23.949150
v -12.126743 2.815821 23.849550
v -12.126743 6.939405 10.931409
v -12.126743 4.222079 14.268557
v -12.126743 5.721455 14.268557
v -12.290661 5.721455 12.769180
v -12.290661 4.222079 12.769180
v -9.870977 5.721455 23.949150
v -12.290661 4.222079 14.268557
v -12.290661 5.721455 14.268557
v -6.411953 4.222079 23.949150
v -6.411953 5.721455 23.949150
v -4.912577 5.721455 23.949150
v -4.912577 4.222079 23.949150
vt 0.001966 0.009614
vt 0.001966 0.001992
vt 0.008963 0.001992
vt 0.008963 0.009614
vt 0.001966 0.082364
vt 0.008963 0.082364
vt 0.001966 0.155113
vt 0.008963 0.155113
vt 0.001966 0.162205
vt 0.008963 0.162205
vt 0.001966 0.481810
vt 0.008963 0.481810
vt 0.001966 0.488879
vt 0.008963 0.488879
vt 0.802763 0.565568
vt 0.802763 0.492819
vt 0.900422 0.492819
vt 0.900422 0.565568
vt 0.909527 0.492819
vt 0.909527 0.565568
vt 0.802763 0.638317
vt 0.900422 0.638317
vt 0.985089 0.565568
vt 0.909527 0.638317
vt 0.802763 0.645410
vt 0.900422 0.645410
vt 0.985089 0.638317
vt 0.909527 0.645410
vt 0.802763 0.965014
vt 0.900422 0.965014
vt 0.985089 0.645410
vt 0.909527 0.965014
vt 0.985089 0.965014
vt 0.909527 0.972782
vt 0.900422 0.972782
vt 0.985089 0.972782
vt 0.246471 0.991444
vt 0.246471 0.983822
vt 0.253468 0.983822
vt 0.253468 0.991444
vt 0.246471 0.911072
vt 0.253468 0.911072
vt 0.246471 0.838323
vt 0.253468 0.838323
vt 0.246471 0.831230
vt 0.253468 0.831230
vt 0.094497 0.831230
vt 0.167247 0.831230
vt 0.167247 0.998008
vt 0.094497 0.928890
vt 0.239996 0.831230
vt 0.239996 0.928890
vt 0.218509 0.819492
vt 0.211512 0.819492
vt 0.211512 0.499887
vt 0.218509 0.499887
vt 0.211512 0.492819
vt 0.218509 0.492819
vt 0.275327 0.976729
vt 0.344446 0.903980
vt 0.359994 0.903980
vt 0.284432 0.976729
vt 0.275327 0.831230
vt 0.284432 0.831230
vt 0.488176 0.540400
vt 0.449356 0.540400
vt 0.412946 0.500586
vt 0.510606 0.500586
vt 0.510606 0.820190
vt 0.412946 0.820190
vt 0.449356 0.579221
vt 0.488176 0.579221
vt 0.519710 0.500586
vt 0.519710 0.820190
vt 0.412946 0.827283
vt 0.510606 0.827283
vt 0.510606 0.492819
vt 0.519710 0.492819
vt 0.595273 0.500586
vt 0.595273 0.820190
vt 0.519710 0.827283
vt 0.595273 0.492819
vt 0.595273 0.827283
vt 0.595273 0.900032
vt 0.392674 0.870051
vt 0.392674 0.831230
vt 0.395253 0.831230
vt 0.395253 0.870051
vt 0.426033 0.903972
vt 0.426033 0.942793
vt 0.423454 0.942793
vt 0.423454 0.903972
vt 0.552689 0.903972
vt 0.552689 0.942793
vt 0.513869 0.942793
vt 0.513869 0.903972
vt 0.608786 0.922093
vt 0.608786 0.960913
vt 0.606208 0.960913
vt 0.606208 0.922093
vt 0.625445 0.960913
vt 0.625445 0.922093
vt 0.628024 0.922093
vt 0.628024 0.960913
vt 0.015625 0.481256
vt 0.019392 0.481256
vt 0.019392 0.488879
vt 0.015625 0.488879
vt 0.015625 0.408507
vt 0.019392 0.408507
vt 0.110254 0.481256
vt 0.110254 0.488879
vt 0.015625 0.335758
vt 0.019392 0.335758
vt 0.110254 0.408507
vt 0.201117 0.481256
vt 0.201117 0.488879
vt 0.015625 0.328665
vt 0.019392 0.328665
vt 0.110254 0.335758
vt 0.201117 0.408507
vt 0.206194 0.481256
vt 0.206194 0.488879
vt 0.015625 0.009061
vt 0.019392 0.009061
vt 0.110254 0.328665
vt 0.201117 0.335758
vt 0.206194 0.408507
vt 0.436959 0.481256
vt 0.436959 0.488879
vt 0.015625 0.001992
vt 0.019392 0.001992
vt 0.110254 0.009061
vt 0.201117 0.328665
vt 0.206194 0.335758
vt 0.436959 0.408507
vt 0.443182 0.481256
vt 0.443182 0.488879
vt 0.110254 0.001992
vt 0.201117 0.009061
vt 0.206194 0.328665
vt 0.436959 0.335758
vt 0.443182 0.408507
vt 0.201117 0.001992
vt 0.206194 0.009061
vt 0.436959 0.328665
vt 0.443182 0.335758
vt 0.206194 0.001992
vt 0.443182 0.328665
vt 0.450386 0.001992
vt 0.454153 0.001992
vt 0.454153 0.009614
vt 0.450386 0.009614
vt 0.545016 0.001992
vt 0.545016 0.009614
vt 0.454153 0.082364
vt 0.450386 0.082364
vt 0.635878 0.001992
vt 0.635878 0.009614
vt 0.454153 0.155113
vt 0.450386 0.155113
vt 0.640956 0.001992
vt 0.640956 0.009614
vt 0.454153 0.162205
vt 0.450386 0.162205
vt 0.871721 0.001992
vt 0.871721 0.009614
vt 0.454153 0.481810
vt 0.450386 0.481810
vt 0.877943 0.001992
vt 0.877943 0.009614
vt 0.454153 0.488879
vt 0.450386 0.488879
vt 0.871721 0.082364
vt 0.877943 0.082364
vt 0.545016 0.481810
vt 0.545016 0.488879
vt 0.871721 0.155113
vt 0.877943 0.155113
vt 0.635878 0.481810
vt 0.635878 0.488879
vt 0.871721 0.162205
vt 0.877943 0.162205
vt 0.640956 0.481810
vt 0.640956 0.488879
vt 0.640956 0.162205
vt 0.640956 0.155113
vt 0.635878 0.162205
vt 0.635878 0.155113
vt 0.385635 0.831230
vt 0.385635 0.870051
vt 0.383056 0.870051
vt 0.383056 0.831230
vt 0.413835 0.942793
vt 0.413835 0.903972
vt 0.416414 0.903972
vt 0.416414 0.942793
vt 0.483486 0.903972
vt 0.483486 0.942793
vt 0.479242 0.942793
vt 0.479242 0.903972
vt 0.506571 0.903972
vt 0.506571 0.942793
vt 0.502327 0.942793
vt 0.502327 0.903972
vt 0.618405 0.922093
vt 0.618405 0.960913
vt 0.615826 0.960913
vt 0.615826 0.922093
vt 0.635064 0.960913
vt 0.635064 0.922093
vt 0.637642 0.922093
vt 0.637642 0.960913
vt 0.789710 0.920375
vt 0.789710 0.916608
vt 0.796707 0.916608
vt 0.796707 0.920375
vt 0.789710 0.825746
vt 0.796707 0.825746
vt 0.789710 0.734883
vt 0.796707 0.734883
vt 0.789710 0.729806
vt 0.796707 0.729806
vt 0.789710 0.499041
vt 0.796707 0.499041
vt 0.789710 0.492819
vt 0.796707 0.492819
vt 0.601328 0.918153
vt 0.601328 0.827291
vt 0.698988 0.827291
vt 0.698988 0.918153
vt 0.601328 0.736428
vt 0.698988 0.736428
vt 0.708092 0.827291
vt 0.708092 0.918153
vt 0.601328 0.731351
vt 0.698988 0.731351
vt 0.708092 0.736428
vt 0.783655 0.827291
vt 0.601328 0.500586
vt 0.698988 0.500586
vt 0.708092 0.731351
vt 0.783655 0.736428
vt 0.708092 0.500586
vt 0.783655 0.731351
vt 0.698988 0.492819
vt 0.708092 0.492819
vt 0.783655 0.500586
vt 0.783655 0.492819
vt 0.185408 0.683388
vt 0.185408 0.679621
vt 0.192404 0.679621
vt 0.192404 0.683388
vt 0.185408 0.588758
vt 0.192404 0.588758
vt 0.185408 0.497896
vt 0.192404 0.497896
vt 0.185408 0.492819
vt 0.192404 0.492819
vt 0.081693 0.674544
vt 0.012574 0.583681
vt 0.179352 0.583681
vt 0.179352 0.674544
vt 0.179352 0.492819
vt 0.081693 0.492819
vt 0.205456 0.729806
vt 0.198460 0.729806
vt 0.198460 0.499041
vt 0.205456 0.499041
vt 0.198460 0.492819
vt 0.205456 0.492819
vt 0.406891 0.500586
vt 0.406891 0.731351
vt 0.370481 0.678024
vt 0.370481 0.639203
vt 0.370481 0.588466
vt 0.370481 0.549646
vt 0.331661 0.549646
vt 0.309231 0.500586
vt 0.331661 0.639203
vt 0.331661 0.678024
vt 0.309231 0.731351
vt 0.331661 0.588466
vt 0.406891 0.736428
vt 0.309231 0.736428
vt 0.300127 0.731351
vt 0.300127 0.500586
vt 0.300127 0.736428
vt 0.224564 0.731351
vt 0.224564 0.500586
vt 0.300127 0.492819
vt 0.309231 0.492819
vt 0.224564 0.736428
vt 0.224564 0.492819
vt 0.224564 0.827291
vt 0.001966 0.769346
vt 0.017515 0.769346
vt 0.086633 0.860208
vt 0.077528 0.860208
vt 0.086633 0.678483
vt 0.077528 0.678483
vt 0.406537 0.831230
vt 0.406537 0.870051
vt 0.402293 0.870051
vt 0.402293 0.831230
vt 0.471893 0.942792
vt 0.433073 0.942792
vt 0.433073 0.903972
vt 0.471893 0.903972
vt 0.495028 0.903972
vt 0.495028 0.942792
vt 0.490784 0.942792
vt 0.490784 0.903972
vt 0.598859 0.960913
vt 0.560038 0.960913
vt 0.560038 0.922093
vt 0.598859 0.922093
vt 0.259938 0.976729
vt 0.259938 0.903980
vt 0.267705 0.903980
vt 0.267705 0.976729
vt 0.259938 0.831230
vt 0.267705 0.831230
vt 0.367666 0.900349
vt 0.367666 0.831230
vt 0.375433 0.831230
vt 0.375433 0.900349
vt 0.367666 0.831230
vt 0.375433 0.831230
vn 0.000000 0.000000 1.000000
vn 0.000000 0.000000 1.000000
vn 0.000000 0.000000 1.000000
vn 0.000000 0.000000 1.000000
vn -1.000000 0.000000 0.000000
vn -1.000000 0.000000 0.000000
vn -1.000000 0.000000 0.000000
vn -1.000000 0.000000 0.000000
vn 0.000000 -1.000000 0.000000
vn 0.000000 -1.000000 0.000000
vn 0.000000 -1.000000 0.000000
vn 0.000000 -1.000000 0.000000
vn 0.000000 0.000000 1.000000
vn 0.000000 0.000000 1.000000
vn 0.000000 0.000000 1.000000
vn 0.000000 0.000000 1.000000
vn 0.000000 1.000000 0.000000
vn 0.000000 1.000000 0.000000
vn 0.000000 1.000000 0.000000
vn 0.000000 1.000000 0.000000
vn -1.000000 0.000000 0.000000
vn -1.000000 0.000000 0.000000
vn -1.000000 0.000000 0.000000
vn -1.000000 0.000000 0.000000
vn 0.000000 -1.000000 0.000000
vn 0.000000 -1.000000 0.000000
vn 0.000000 -1.000000 0.000000
vn 0.000000 -1.000000 0.000000
vn 0.000000 -1.000000 0.000000
vn 0.000000 -1.000000 0.000000
vn 0.000000 -1.000000 0.000000
vn 0.000000 -1.000000 0.000000
vn 0.000000 1.000000 0.000000
vn 0.000000 1.000000 0.000000
vn 0.000000 1.000000 0.000000
vn 0.000000 1.000000 0.000000
vn 0.000000 0.000000 1.000000
vn 0.000000 0.000000 1.000000
vn 0.000000 0.000000 1.000000
vn 0.000000 0.000000 1.000000
vn 0.000000 1.000000 0.000000
vn 0.000000 1.000000 0.000000
vn 0.000000 1.000000 0.000000
vn 0.000000 1.000000 0.000000
vn -1.000000 0.000000 0.000000
vn -1.000000 0.000000 0.000000
vn -1.000000 0.000000 0.000000
vn -1.000000 0.000000 0.000000
vn 0.000000 -1.000000 0.000000
vn 0.000000 -1.000000 0.000000
vn 0.000000 -1.000000 0.000000
vn 0.000000 -1.000000 0.000000
vn 0.000000 -1.000000 0.000000
vn 0.000000 -1.000000 0.000000
vn 0.000000 -1.000000 0.000000
vn 0.000000 -1.000000 0.000000
vn 0.000000 -1.000000 0.000000
vn 0.000000 -1.000000 0.000000
vn 0.000000 -1.000000 0.000000
vn 0.000000 -1.000000 0.000000
vn 0.000000 0.000000 1.000000
vn 0.000000 0.000000 1.000000
vn 0.000000 0.000000 1.000000
vn 0.000000 0.000000 1.000000
vn 0.000000 1.000000 0.000000
vn 0.000000 1.000000 0.000000
vn 0.000000 1.000000 0.000000
vn 0.000000 1.000000 0.000000
vn 0.000000 0.000000 1.000000
vn 0.000000 0.000000 1.000000
vn 0.000000 0.000000 1.000000
vn 0.000000 0.000000 1.000000
vn -1.000000 0.000000 0.000000
vn -1.000000 0.000000 0.000000
vn -1.000000 0.000000 0.000000
vn -1.000000 0.000000 0.000000
vn 0.000000 1.000000 0.000000
vn 0.000000 1.000000 0.000000
vn 0.000000 1.000000 0.000000
vn 0.000000 1.000000 0.000000
vn -1.000000 0.000000 0.000000
vn -1.000000 0.000000 0.000000
vn -1.000000 0.000000 0.000000
vn -1.000000 0.000000 0.000000
vn 0.000000 -1.000000 0.000000
vn 0.000000 -1.000000 0.000000
vn 0.000000 -1.000000 0.000000
vn 0.000000 -1.000000 0.000000
vn 0.000000 -1.000000 0.000000
vn 0.000000 -1.000000 0.000000
vn 0.000000 -1.000000 0.000000
vn 0.000000 -1.000000 0.000000
vn 0.000000 -1.000000 0.000000
vn 0.000000 -1.000000 0.000000
vn 0.000000 -1.000000 0.000000
vn 0.000000 -1.000000 0.000000
vn 0.000000 -1.000000 0.000000
vn 0.000000 -1.000000 0.000000
vn 0.000000 -1.000000 0.000000
vn 0.000000 -1.000000 0.000000
vn 0.000000 0.000000 1.000000
vn 0.000000 0.000000 1.000000
vn 0.000000 0.000000 1.000000
vn 0.000000 0.000000 1.000000
vn 0.000000 0.000000 1.000000
vn 0.000000 0.000000 1.000000
vn 0.000000 1.000000 0.000000
vn 0.000000 1.000000 0.000000
vn 0.000000 1.000000 0.000000
vn 0.000000 1.000000 0.000000
vn 0.000000 0.000000 1.000000
vn 0.000000 0.000000 1.000000
vn 0.000000 0.000000 1.000000
vn 0.000000 0.000000 1.000000
vn -1.000000 0.000000 0.000000
vn -1.000000 0.000000 0.000000
vn -1.000000 0.000000 0.000000
vn -1.000000 0.000000 0.000000
vn -1.000000 0.000000 0.000000
vn -1.000000 0.000000 0.000000
vn 0.000000 1.000000 0.000000
vn 0.000000 1.000000 0.000000
vn 0.000000 1.000000 0.000000
vn 0.000000 1.000000 0.000000
vn -1.000000 0.000000 0.000000
vn -1.000000 0.000000 0.000000
vn -1.000000 0.000000 0.000000
vn -1.000000 0.000000 0.000000
vn 0.000000 -1.000000 0.000000
vn 0.000000 -1.000000 0.000000
vn 0.000000 -1.000000 0.000000
vn 0.000000 -1.000000 0.000000
vn 0.000000 -1.000000 0.000000
vn 0.000000 -1.000000 0.000000
vn 0.000000 -1.000000 0.000000
vn 0.000000 -1.000000 0.000000
vn 0.000000 -1.000000 0.000000
vn 0.000000 -1.000000 0.000000
vn 0.000000 -1.000000 0.000000
vn 0.000000 -1.000000 0.000000
vn 0.000000 -1.000000 0.000000
vn 0.000000 -1.000000 0.000000
vn 0.000000 -1.000000 0.000000
vn 0.000000 -1.000000 0.000000
vn 0.000000 -1.000000 0.000000
vn 0.000000 -1.000000 0.000000
vn 0.000000 -1.000000 0.000000
vn 0.000000 -1.000000 0.000000
vn 0.000000 0.000000 1.000000
vn 0.000000 0.000000 1.000000
vn 0.000000 0.000000 1.000000
vn 0.000000 0.000000 1.000000
vn 0.000000 0.000000 1.000000
vn 0.000000 0.000000 1.000000
vn 0.000000 0.693570 0.720389
vn 0.000000 0.693570 0.720389
vn 0.000000 0.693570 0.720389
vn 0.000000 1.000000 0.000000
vn 0.000000 1.000000 0.000000
vn 0.000000 1.000000 0.000000
vn 0.000000 1.000000 0.000000
vn 0.000000 0.000000 1.000000
vn 0.000000 0.000000 1.000000
vn 0.000000 0.000000 1.000000
vn 0.000000 0.000000 1.000000
vn -1.000000 0.000000 0.000000
vn -1.000000 0.000000 0.000000
vn -1.000000 0.000000 0.000000
vn -1.000000 0.000000 0.000000
vn -1.000000 0.000000 0.000000
vn -1.000000 0.000000 0.000000
vn -0.639403 0.768872 0.000000
vn -0.639403 0.768872 0.000000
vn -0.639403 0.768872 0.000000
vn 0.000000 1.000000 0.000000
vn 0.000000 1.000000 0.000000
vn 0.000000 1.000000 0.000000
vn 0.000000 1.000000 0.000000
vn -1.000000 0.000000 0.000000
vn -1.000000 0.000000 0.000000
vn -1.000000 0.000000 0.000000
vn -1.000000 0.000000 0.000000
vn 0.000000 -1.000000 0.000000
vn 0.000000 -1.000000 0.000000
vn 0.000000 -1.000000 0.000000
vn 0.000000 -1.000000 0.000000
vn 0.000000 -1.000000 0.000000
vn 0.000000 -1.000000 0.000000
vn 0.000000 -1.000000 0.000000
vn 0.000000 -1.000000 0.000000
vn 0.000000 -1.000000 0.000000
vn 0.000000 -1.000000 0.000000
vn 0.000000 -1.000000 0.000000
vn 0.000000 -1.000000 0.000000
vn 0.000000 -1.000000 0.000000
vn 0.000000 -1.000000 0.000000
vn 0.000000 -1.000000 0.000000
vn 0.000000 -1.000000 0.000000
vn 0.000000 -1.000000 0.000000
vn 0.000000 -1.000000 0.000000
vn 0.000000 -1.000000 0.000000
vn 0.000000 -1.000000 0.000000
vn 0.000000 -1.000000 0.000000
vn 0.000000 -1.000000 0.000000
vn 0.000000 -1.000000 0.000000
vn 0.000000 -1.000000 0.000000
vn 0.000000 0.000000 1.000000
vn 0.000000 0.000000 1.000000
vn 0.000000 0.000000 1.000000
vn 0.000000 0.000000 1.000000
vn 0.000000 0.000000 1.000000
vn 0.000000 0.000000 1.000000
vn 0.000000 0.693571 0.720389
vn 0.000000 0.693571 0.720389
vn 0.000000 0.693571 0.720389
vn 0.000000 0.693571 0.720389
vn 0.000000 1.000000 0.000000
vn 0.000000 1.000000 0.000000
vn 0.000000 1.000000 0.000000
vn 0.000000 1.000000 0.000000
vn 1.000000 -0.000001 0.000002
vn 1.000000 -0.000001 0.000002
vn 1.000000 -0.000001 0.000002
vn 1.000000 -0.000001 0.000002
vn -1.000000 0.000000 0.000000
vn -1.000000 0.000000 0.000000
vn -1.000000 0.000000 0.000000
vn -1.000000 0.000000 0.000000
vn -1.000000 0.000000 0.000000
vn -1.000000 0.000000 0.000000
vn -0.639402 0.768872 0.000000
vn -0.639402 0.768872 0.000000
vn -0.639402 0.768872 0.000000
vn -0.639402 0.768872 0.000000
vn 0.000000 1.000000 0.000000
vn 0.000000 1.000000 0.000000
vn 0.000000 1.000000 0.000000
vn 0.000000 1.000000 0.000000
vn 0.000000 0.000000 -1.000000
vn 0.000000 0.000000 -1.000000
vn 0.000000 0.000000 -1.000000
vn 0.000000 0.000000 -1.000000
vn 0.000000 -1.000000 0.000000
vn 0.000000 -1.000000 0.000000
vn 0.000000 -1.000000 0.000000
vn 0.000000 -1.000000 0.000000
vn 0.000000 -1.000000 0.000000
vn 0.000000 -1.000000 0.000000
vn 0.000000 -1.000000 0.000000
vn 0.000000 -1.000000 0.000000
vn 0.000000 -1.000000 0.000000
vn 0.000000 -1.000000 0.000000
vn 0.000000 -1.000000 0.000000
vn 0.000000 -1.000000 0.000000
vn 0.000000 -1.000000 0.000000
vn 0.000000 -1.000000 0.000000
vn 0.000000 -1.000000 0.000000
vn 0.000000 -1.000000 0.000000
vn 0.000000 -1.000000 0.000000
vn 0.000000 -1.000000 0.000000
vn 0.000000 -1.000000 0.000000
vn 0.000000 -1.000000 0.000000
vn 1.000000 0.000000 0.000000
vn 1.000000 0.000000 0.000000
vn 1.000000 0.000000 0.000000
vn 1.000000 0.000000 0.000000
vn 0.000000 0.000000 1.000000
vn 0.000000 0.000000 1.000000
vn 0.000000 0.693569 0.720390
vn 0.000000 0.693569 0.720390
vn 0.000000 0.693569 0.720390
vn 0.000000 0.693569 0.720390
vn 0.000000 0.693571 -0.720388
vn 0.000000 0.693571 -0.720388
vn 0.000000 0.693571 -0.720388
vn 0.000000 1.000000 0.000000
vn 0.000000 1.000000 0.000000
vn 0.000000 1.000000 0.000000
vn 0.000000 1.000000 0.000000
vn 1.000000 -0.000002 -0.000000
vn 1.000000 -0.000002 -0.000000
vn 1.000000 -0.000002 -0.000000
vn 1.000000 -0.000002 -0.000000
vn -0.000000 0.000000 -1.000000
vn -0.000000 0.000000 -1.000000
vn -0.000000 0.000000 -1.000000
vn -0.000000 0.000000 -1.000000
vn -1.000000 0.000000 0.000000
vn -1.000000 0.000000 0.000000
vn -0.639405 0.768870 0.000000
vn -0.639405 0.768870 0.000000
vn -0.639405 0.768870 0.000000
vn -0.639405 0.768870 0.000000
vn 0.639403 0.768872 0.000000
vn 0.639402 0.768872 0.000000
vn 0.639403 0.768872 0.000000
vn 0.000000 1.000000 0.000000
vn 0.000000 1.000000 0.000000
vn 0.000000 1.000000 0.000000
vn 0.000000 1.000000 0.000000
vn 0.000000 0.000000 -1.000000
vn 0.000000 0.000000 -1.000000
vn 0.000000 0.000000 -1.000000
vn 0.000000 0.000000 -1.000000
vn 0.000000 -1.000000 0.000000
vn 0.000000 -1.000000 0.000000
vn 0.000000 -1.000000 0.000000
vn 0.000000 -1.000000 0.000000
vn 0.000000 -1.000000 0.000000
vn 0.000000 -1.000000 0.000000
vn 0.000000 -1.000000 0.000000
vn 0.000000 -1.000000 0.000000
vn 0.000000 -1.000000 0.000000
vn 0.000000 -1.000000 0.000000
vn 0.000000 -1.000000 0.000000
vn 0.000000 -1.000000 0.000000
vn 0.000000 -1.000000 0.000000
vn 0.000000 -1.000000 0.000000
vn 0.000000 -1.000000 0.000000
vn 0.000000 -1.000000 0.000000
vn 1.000000 0.000000 0.000000
vn 1.000000 0.000000 0.000000
vn 1.000000 0.000000 0.000000
vn 1.000000 0.000000 0.000000
vn 0.000000 -0.724967 -0.688784
vn 0.000000 -0.724967 -0.688784
vn 0.000000 -0.724967 -0.688784
vn 0.000000 -0.724967 -0.688784
vn 0.000000 0.000000 1.000000
vn 0.000000 0.000000 1.000000
vn 0.000000 0.693571 0.720389
vn 0.000000 0.693571 0.720389
vn 0.000000 0.693571 0.720389
vn 0.000000 0.693571 0.720389
vn 0.000000 0.693569 -0.720390
vn 0.000000 0.693569 -0.720390
vn 0.000000 0.693569 -0.720390
vn 0.000000 0.693569 -0.720390
vn 0.000000 1.000000 0.000000
vn 0.000000 1.000000 0.000000
vn 0.000000 1.000000 0.000000
vn 0.000000 1.000000 0.000000
vn 1.000000 0.000000 0.000000
vn 1.000000 0.000000 0.000000
vn 1.000000 0.000000 0.000000
vn 1.000000 0.000000 0.000000
vn 0.605432 -0.795897 0.000000
vn 0.605432 -0.795897 0.000000
vn 0.605432 -0.795897 0.000000
vn 0.605432 -0.795897 0.000000
vn 0.000000 0.000000 -1.000000
vn 0.000000 0.000000 -1.000000
vn 0.000000 0.000000 -1.000000
vn 0.000000 0.000000 -1.000000
vn -1.000000 0.000000 0.000000
vn -1.000000 0.000000 0.000000
vn -0.639402 0.768873 0.000000
vn -0.639402 0.768872 0.000000
vn -0.639402 0.768872 0.000000
vn -0.639402 0.768873 0.000000
vn 0.639405 0.768870 0.000000
vn 0.639405 0.768870 0.000000
vn 0.639405 0.768870 0.000000
vn 0.639405 0.768870 0.000000
vn 0.000000 1.000000 0.000000
vn 0.000000 1.000000 0.000000
vn 0.000000 1.000000 0.000000
vn 0.000000 1.000000 0.000000
vn 0.000000 0.000000 -1.000000
vn 0.000000 0.000000 -1.000000
vn 0.000000 0.000000 -1.000000
vn 0.000000 0.000000 -1.000000
vn 0.000000 -1.000000 0.000000
vn 0.000000 -1.000000 0.000000
vn 0.000000 -1.000000 0.000000
vn 0.000000 -1.000000 0.000000
vn 1.000000 0.000000 0.000000
vn 1.000000 0.000000 0.000000
vn 1.000000 0.000000 0.000000
vn 1.000000 0.000000 0.000000
vn 0.000000 -1.000000 0.000000
vn 0.000000 -1.000000 0.000000
vn 0.000000 -1.000000 0.000000
vn 0.000000 -1.000000 0.000000
vn 0.000000 0.000000 -1.000000
vn 0.000000 0.000000 -1.000000
vn 0.000000 0.000000 -1.000000
vn 0.000000 0.000000 -1.000000
vn 0.000000 -0.724967 0.688783
vn 0.000000 -0.724967 0.688783
vn 0.000000 -0.724967 0.688783
vn 0.000000 -0.724967 0.688783
vn 0.000000 0.000000 -1.000000
vn 0.000000 0.000000 -1.000000
vn 0.000000 0.000000 -1.000000
vn 0.000000 0.000000 -1.000000
vn 0.000000 0.000000 -1.000000
vn 0.000000 0.000000 -1.000000
vn 0.000000 0.000000 -1.000000
vn 0.000000 0.000000 -1.000000
vn 0.000000 0.000000 -1.000000
vn 0.000000 0.000000 -1.000000
vn 1.000000 0.000000 0.000000
vn 1.000000 0.000000 0.000000
vn 1.000000 0.000000 0.000000
vn 1.000000 0.000000 0.000000
vn 0.000000 0.693570 0.720389
vn 0.000000 0.693570 0.720389
vn -0.000000 0.693571 -0.720388
vn -0.000000 0.693571 -0.720388
vn -0.000000 0.693571 -0.720388
vn -0.000000 0.693571 -0.720388
vn 0.000000 0.000000 -1.000000
vn 0.000000 0.000000 -1.000000
vn 0.000000 0.000000 -1.000000
vn 0.000000 0.000000 -1.000000
vn 0.000000 1.000000 0.000000
vn 0.000000 1.000000 0.000000
vn 0.000000 1.000000 0.000000
vn 0.000000 1.000000 0.000000
vn 1.000000 0.000000 0.000000
vn 1.000000 0.000000 0.000000
vn 1.000000 0.000000 0.000000
vn 1.000000 0.000000 0.000000
vn -0.605432 -0.795897 0.000000
vn -0.605432 -0.795897 0.000000
vn -0.605432 -0.795897 0.000000
vn -0.605432 -0.795897 0.000000
vn 0.000000 0.000000 -1.000000
vn 0.000000 0.000000 -1.000000
vn 0.000000 0.000000 -1.000000
vn 0.000000 0.000000 -1.000000
vn 1.000000 0.000000 0.000000
vn 1.000000 0.000000 0.000000
vn 1.000000 0.000000 0.000000
vn 1.000000 0.000000 0.000000
vn 1.000000 0.000000 0.000000
vn -0.639402 0.768872 0.000000
vn -0.639402 0.768872 0.000000
vn 0.639402 0.768873 0.000000
vn 0.639402 0.768872 0.000000
vn 0.639402 0.768872 0.000000
vn 0.639402 0.768873 0.000000
vn 1.000000 0.000000 0.000000
vn 1.000000 0.000000 0.000000
vn 1.000000 0.000000 0.000000
vn 1.000000 0.000000 0.000000
vn 0.000000 1.000000 0.000000
vn 0.000000 1.000000 0.000000
vn 0.000000 1.000000 0.000000
vn 0.000000 1.000000 0.000000
vn 0.000000 0.000000 -1.000000
vn 0.000000 0.000000 -1.000000
vn 0.000000 0.000000 -1.000000
vn 0.000000 0.000000 -1.000000
vn 1.000000 0.000000 0.000000
vn 1.000000 0.000000 0.000000
vn 1.000000 0.000000 0.000000
vn 1.000000 0.000000 0.000000
vn 0.000000 1.000000 0.000000
vn 0.000000 1.000000 0.000000
vn 0.000000 1.000000 0.000000
vn 0.000000 1.000000 0.000000
vn 0.000000 0.000000 -1.000000
vn 0.000000 0.000000 -1.000000
vn 0.000000 0.000000 -1.000000
vn 0.000000 0.000000 -1.000000
vn 0.000000 1.000000 0.000000
vn 0.000000 1.000000 0.000000
vn 0.000000 1.000000 0.000000
vn 0.000000 1.000000 0.000000
vn 0.000000 0.000000 -1.000000
vn 0.000000 0.000000 -1.000000
vn 0.000000 0.000000 -1.000000
vn 1.000000 0.000000 0.000000
vn 1.000000 0.000000 0.000000
vn 1.000000 0.000000 0.000000
vn 1.000000 0.000000 0.000000
vn 0.000000 0.000000 -1.000000
vn 0.000000 0.000000 -1.000000
vn 0.000000 1.000000 0.000000
vn 0.000000 1.000000 0.000000
vn 0.000000 1.000000 0.000000
vn 0.000000 1.000000 0.000000
vn -1.000000 0.000000 0.000000
vn -1.000000 0.000000 0.000000
vn -1.000000 0.000000 0.000000
vn -1.000000 0.000000 0.000000
vn 0.000000 0.693571 -0.720388
vn 0.000000 0.693571 -0.720388
vn 0.000000 0.000000 -1.000000
vn 0.000000 0.000000 -1.000000
vn 0.000000 0.000000 -1.000000
vn 1.000000 0.000000 0.000000
vn 1.000000 0.000000 0.000000
vn 1.000000 0.000000 0.000000
vn 0.000000 0.000000 -1.000000
vn 0.000000 0.000000 -1.000000
vn 0.000000 0.000000 -1.000000
vn 0.000000 0.000000 -1.000000
vn 1.000000 0.000000 0.000000
vn 1.000000 0.000000 0.000000
vn 1.000000 0.000000 0.000000
vn 0.000000 0.000000 1.000000
vn 0.000000 0.000000 1.000000
vn 0.000000 0.000000 1.000000
vn 0.000000 0.000000 1.000000
vn 1.000000 0.000000 0.000000
vn 0.639403 0.768872 0.000000
vn 0.639403 0.768872 0.000000
vn 1.000000 0.000000 0.000000
vn 1.000000 0.000000 0.000000
vn 0.000000 1.000000 0.000000
vn 0.000000 1.000000 0.000000
vn 0.000000 1.000000 0.000000
vn 0.000000 1.000000 0.000000
vn 0.000000 -1.000000 0.000000
vn 0.000000 -1.000000 0.000000
vn 0.000000 -1.000000 0.000000
vn 0.000000 -1.000000 0.000000
vn 1.000000 0.000000 0.000000
vn 1.000000 0.000000 0.000000
vn 1.000000 0.000000 0.000000
vn 1.000000 0.000000 0.000000
vn 0.000000 0.000000 -1.000000
vn 0.000000 0.000000 -1.000000
vn 0.000000 0.000000 -1.000000
vn 0.000000 0.000000 -1.000000
vn 0.000000 1.000000 0.000000
vn 0.000000 1.000000 0.000000
vn 0.000000 1.000000 0.000000
vn 0.000000 1.000000 0.000000
vn 0.000000 0.000000 -1.000000
vn 0.000000 0.000000 -1.000000
vn 0.000000 0.000000 -1.000000
vn 0.000000 0.000000 -1.000000
vn 0.000000 -1.000000 0.000000
vn 0.000000 -1.000000 0.000000
vn 0.000000 -1.000000 0.000000
vn 0.000000 -1.000000 0.000000
vn 1.000000 0.000000 0.000000
vn 1.000000 0.000000 0.000000
vn 1.000000 0.000000 0.000000
vn 1.000000 0.000000 0.000000
vn 0.000000 0.000000 -1.000000
vn 0.000000 0.000000 -1.000000
vn 0.000000 0.000000 -1.000000
vn 0.000000 0.000000 -1.000000
vn 1.000000 0.000000 0.000000
vn 1.000000 0.000000 0.000000
vn 1.000000 0.000000 0.000000
vn 1.000000 0.000000 0.000000
vn 0.000000 1.000000 0.000000
vn 0.000000 1.000000 0.000000
vn 0.000000 1.000000 0.000000
vn 0.000000 1.000000 0.000000
vn -1.000000 0.000000 0.000000
vn -1.000000 0.000000 0.000000
vn -1.000000 0.000000 0.000000
vn -1.000000 0.000000 0.000000
vn 0.000000 -1.000000 0.000000
vn 0.000000 -1.000000 0.000000
vn 0.000000 -1.000000 0.000000
vn 0.000000 -1.000000 0.000000
s off
g pCube137
usemtl phongE1SG
f 1/214/1 2/215/2 3/216/3 4/217/4
f 5/1/5 1/2/6 4/3/7 6/4/8
f 5/105/9 7/106/10 2/107/11 1/108/12
f 3/216/13 2/215/14 8/218/15 9/219/16
f 4/150/17 3/151/18 10/152/19 6/153/20
f 11/5/21 5/1/22 6/4/23 12/6/24
f 11/109/25 13/110/26 7/106/27 5/105/28
f 2/107/29 7/106/30 14/111/31 8/112/32
f 10/152/33 3/151/34 9/154/35 15/155/36
f 9/219/37 8/218/38 16/220/39 17/221/40
f 6/153/41 10/152/42 18/156/43 12/157/44
f 19/7/45 11/5/46 12/6/47 20/8/48
f 19/113/49 21/114/50 13/110/51 11/109/52
f 7/106/53 13/110/54 22/115/55 14/111/56
f 8/112/57 14/111/58 23/116/59 16/117/60
s 1
f 10/228/61 15/229/62 24/230/63 25/231/64
s off
f 15/155/65 9/154/66 17/158/67 26/159/68
f 17/221/69 16/220/70 27/222/71 28/223/72
s 2
f 18/15/73 10/16/74 25/17/75 29/18/76
s off
f 12/157/77 18/156/78 30/160/79 20/161/80
f 31/9/81 19/7/82 20/8/83 32/10/84
f 31/118/85 33/119/86 21/114/87 19/113/88
f 34/120/89 22/115/90 13/110/91 21/114/92
f 14/111/93 22/115/94 35/121/95 23/116/96
f 16/117/97 23/116/98 36/122/99 27/123/100
s 3
f 15/229/101 26/232/102 37/233/103 24/230/104
s 1
f 25/231/64 24/230/63 38/234/105 39/235/106
s off
f 26/159/107 17/158/108 28/162/109 40/163/110
f 28/223/111 27/222/112 41/224/113 42/225/114
s 4
f 30/21/115 18/15/116 29/18/117 43/22/118
s 2
f 29/18/76 25/17/75 39/19/119 44/20/120
s off
f 20/161/121 30/160/122 45/164/123 32/165/124
f 46/11/125 31/9/126 32/10/127 47/12/128
f 46/124/129 48/125/130 33/119/131 31/118/132
f 21/114/133 33/119/134 49/126/135 34/120/136
f 35/121/137 22/115/138 34/120/139 50/127/140
f 23/116/141 35/121/142 51/128/143 36/122/144
f 27/123/145 36/122/146 52/129/147 41/130/148
s 5
f 26/232/149 40/236/150 53/237/151 37/233/152
s 3
f 24/230/104 37/233/103 54/238/153 38/234/154
s off
f 55/239/155 39/235/156 38/234/157
f 40/163/158 28/162/159 42/166/160 56/167/161
f 42/225/162 41/224/163 57/226/164 58/227/165
s 6
f 45/25/166 30/21/167 43/22/168 59/26/169
s 4
f 43/22/118 29/18/117 44/20/170 60/24/171
s off
f 44/20/172 39/19/173 55/23/174
f 32/165/175 45/164/176 61/168/177 47/169/178
f 62/13/179 46/11/180 47/12/181 63/14/182
f 62/131/183 64/132/184 48/125/185 46/124/186
f 33/119/187 48/125/188 65/133/189 49/126/190
f 34/120/191 49/126/192 66/134/193 50/127/194
f 51/128/195 35/121/196 50/127/197 67/135/198
f 52/129/199 36/122/200 51/128/201 68/136/202
f 41/130/203 52/129/204 69/137/205 57/138/206
s 7
f 40/236/207 56/240/208 70/241/209 53/237/210
s 5
f 37/233/152 53/237/151 71/242/211 54/238/212
s off
f 55/239/213 38/234/214 54/238/215 72/243/216
f 56/167/217 42/166/218 58/170/219 73/171/220
f 57/37/221 69/38/222 73/39/223 58/40/224
s 8
f 61/29/225 45/25/226 59/26/227 74/30/228
s 6
f 59/26/169 43/22/168 60/24/229 75/28/230
s off
f 60/24/231 44/20/232 55/23/233 76/27/234
f 47/169/235 61/168/236 77/172/237 63/173/238
f 63/250/239 77/251/240 64/252/241 62/253/242
f 78/139/243 65/133/244 48/125/245 64/132/246
f 49/126/247 65/133/248 79/140/249 66/134/250
f 50/127/251 66/134/252 80/141/253 67/135/254
f 68/136/255 51/128/256 67/135/257 81/142/258
f 69/137/259 52/129/260 68/136/261 82/143/262
f 56/47/263 83/48/264 84/49/265 70/50/266
s 7
f 53/237/210 70/241/209 85/244/267 71/242/268
s off
f 72/243/269 54/238/270 71/242/271 86/245/272
f 87/288/273 55/295/274 72/293/275
f 83/174/276 56/167/277 73/171/278 88/175/279
f 73/39/280 69/38/281 82/41/282 88/42/283
f 74/260/284 89/261/285 90/262/286 61/263/287
s 8
f 74/30/228 59/26/227 75/28/288 91/32/289
s off
f 75/28/290 60/24/291 76/27/292 92/31/293
f 76/83/294 55/84/295 87/81/296
f 77/172/297 61/168/298 90/176/299 93/177/300
f 77/251/301 93/254/302 78/255/303 64/252/304
f 79/140/305 65/133/306 78/139/307 94/144/308
f 66/134/309 79/140/310 95/145/311 80/141/312
f 81/142/313 67/135/314 80/141/315 96/146/316
f 82/143/317 68/136/318 81/142/319 97/147/320
f 84/49/321 83/48/322 98/51/323 99/52/324
f 70/318/325 84/319/326 100/320/327 101/321/328
s 7
f 85/244/267 70/241/209 101/246/329 102/247/330
s 9
f 86/245/331 71/242/332 85/244/333 103/248/334
s off
f 87/288/335 72/293/336 86/289/337 104/286/338
f 98/178/339 83/174/340 88/175/341 105/179/342
f 88/42/343 82/41/344 97/43/345 105/44/346
f 89/324/347 74/325/348 106/326/349 107/327/350
f 108/264/351 90/262/352 89/261/353 109/265/354
s 8
f 74/30/228 91/32/289 110/34/355 106/35/356
s 10
f 91/32/357 75/28/358 92/31/359 111/33/360
s off
f 92/80/361 76/83/362 87/81/363 112/74/364
f 93/177/365 90/176/366 108/180/367 113/181/368
f 93/254/369 113/256/370 94/257/371 78/255/372
f 95/145/373 79/140/374 94/144/375 114/148/376
f 115/53/377 80/54/378 95/55/379 116/56/380
f 97/147/381 81/142/382 96/146/383 117/149/384
f 80/266/385 115/267/386 118/268/387 96/269/388
f 84/319/389 99/322/390 119/323/391 100/320/392
s 11
f 98/272/393 120/273/394 121/274/395 122/275/396 123/276/397 124/277/398 125/278/399 99/279/400
f 125/278/399 126/283/401 123/276/397 122/275/396 127/280/402 99/279/400
s off
f 101/59/403 100/60/404 128/61/405 102/62/406
s 9
f 103/248/334 85/244/333 102/247/407 128/249/408
s 12
f 104/286/409 86/289/410 103/290/411 129/287/412
s 13
f 130/282/413 131/285/414 87/288/415 104/286/416
s off
f 118/182/417 98/178/418 105/179/419 132/183/420
f 105/44/421 97/43/422 117/45/423 132/46/424
f 109/328/425 89/324/426 107/327/427 133/329/428
f 134/296/429 107/297/430 106/298/431 110/299/432
s 14
f 135/65/433 136/66/434 108/67/435 109/68/436 137/69/437
s 10
f 91/32/357 111/33/360 134/36/438 110/34/439
s 15
f 111/79/440 92/80/441 112/74/442 138/73/443
s 16
f 131/76/444 137/69/445 112/74/446 87/81/447
s off
f 113/181/448 108/180/449 116/184/450 139/185/451
f 113/256/452 139/258/453 114/259/454 94/257/455
f 116/56/456 95/55/457 114/57/458 139/58/459
f 108/180/460 140/188/461 115/186/462 116/184/463
f 96/269/464 118/268/465 132/270/466 117/271/467
f 115/186/468 120/187/469 98/178/470 118/182/471
s 11
f 99/279/400 129/287/472 141/291/473 119/292/474
s off
f 128/61/475 100/60/476 119/63/477 141/64/478
s 11
f 127/280/402 142/281/479 121/274/395 120/273/394 130/282/480 99/279/400
s off
f 122/190/481 121/191/482 143/192/483 144/193/484
f 127/85/485 122/86/486 144/87/487 145/88/488
s 12
f 129/287/412 103/290/411 128/294/489 141/291/490
s 11
f 99/279/400 130/282/480 104/286/491 129/287/472
s 13
f 120/273/492 146/284/493 131/285/414 130/282/413
s 14
f 138/73/494 109/68/436 133/77/495 147/78/496
s off
f 133/300/497 107/297/498 134/296/499 147/301/500
s 14
f 140/70/501 108/67/435 136/66/434 148/71/502 149/72/503 135/65/433 137/69/437
s off
f 136/302/504 135/303/505 150/304/506 151/305/507
s 14
f 137/69/437 109/68/436 138/73/494 112/74/508
s 15
f 111/79/440 138/73/443 147/78/509 134/82/510
s 16
f 146/75/511 140/70/512 137/69/445 131/76/444
s off
f 140/188/513 146/189/514 120/187/515 115/186/516
f 142/194/517 127/195/518 145/196/519 152/197/520
f 121/89/521 142/90/522 152/91/523 143/92/524
f 143/306/525 152/307/526 145/308/527 144/309/528
f 148/198/529 136/199/530 151/200/531 153/201/532
f 149/310/533 148/311/534 153/312/535 154/313/536
f 135/202/537 149/203/538 154/204/539 150/205/540
f 151/93/541 150/94/542 154/95/543 153/96/544
f 155/314/545 156/315/546 157/316/547 158/317/548
f 123/97/549 126/98/550 156/99/551 155/100/552
f 124/206/553 123/207/554 155/208/555 158/209/556
f 125/101/557 124/102/558 158/103/559 157/104/560
f 126/210/561 125/211/562 157/212/563 156/213/564
g default
v -12.057257 3.893069 18.469204
v -12.057257 3.851402 18.469204
v -12.057257 3.830568 18.426878
v -12.057257 3.851402 18.384550
v -12.057257 3.893069 18.384550
v -12.057257 3.913902 18.426878
v -12.080791 3.893069 18.469204
v -12.080791 3.851402 18.469204
v -12.080791 3.830568 18.426878
v -12.080791 3.851402 18.384550
v -12.080791 3.893069 18.384550
v -12.080791 3.913902 18.426878
v -12.057257 3.872235 18.426878
v -12.080791 3.872235 18.426878
v -12.008827 3.881017 18.008812
v -12.008827 3.866306 18.008812
v -12.008827 3.858951 18.023756
v -12.008827 3.866306 18.038700
v -12.008827 3.881017 18.038700
v -12.008827 3.888372 18.023756
v -12.019597 3.886401 17.997873
v -12.019597 3.860922 17.997873
v -12.019597 3.848181 18.023756
v -12.019597 3.860922 18.049641
v -12.019597 3.886401 18.049641
v -12.019597 3.899142 18.023756
v -12.034307 3.888372 17.993870
v -12.034307 3.858951 17.993870
v -12.034307 3.844240 18.023756
v -12.034307 3.858951 18.053644
v -12.034307 3.888372 18.053644
v -12.034307 3.903083 18.023756
v -12.049018 3.886401 17.997873
v -12.049018 3.860922 17.997873
v -12.049018 3.848181 18.023756
v -12.049018 3.860922 18.049641
v -12.049018 3.886401 18.049641
v -12.049018 3.899142 18.023756
v -12.059788 3.881017 18.008812
v -12.059788 3.866306 18.008812
v -12.059788 3.858951 18.023756
v -12.059788 3.866306 18.038700
v -12.059788 3.881017 18.038700
v -12.059788 3.888372 18.023756
v -12.004886 3.873662 18.023756
v -12.063729 3.873662 18.023756
v -12.126024 2.812403 18.227325
v -12.026488 2.812403 18.227325
v -12.126024 5.050137 18.227325
v -12.026488 5.050137 18.227325
v -12.126024 5.050137 19.491558
v -12.026488 5.050137 19.491558
v -12.126024 2.812403 19.491558
v -12.026488 2.812403 19.491558
v -12.026488 2.900845 19.396366
v -12.026488 2.900845 18.322514
v -12.026488 4.961695 19.396366
v -12.026488 4.961695 18.322514
v -12.111755 2.900845 19.396366
v -12.111755 2.900845 18.322514
v -12.111755 4.961695 19.396366
v -12.111755 4.961695 18.322514
v -12.126024 2.812403 18.224178
v -12.026488 2.812403 18.224178
v -12.126024 5.050137 18.224178
v -12.026488 5.050137 18.224178
v -12.126024 5.050137 16.959944
v -12.026488 5.050137 16.959944
v -12.126024 2.812403 16.959944
v -12.026488 2.812403 16.959944
v -12.026488 2.900845 17.055136
v -12.026488 2.900845 18.128988
v -12.026488 4.961695 17.055136
v -12.026488 4.961695 18.128988
v -12.111755 2.900845 17.055136
v -12.111755 2.900845 18.128988
v -12.111755 4.961695 17.055136
v -12.111755 4.961695 18.128988
v -12.008827 3.881017 18.442690
v -12.008827 3.866306 18.442690
v -12.008827 3.858951 18.427746
v -12.008827 3.866306 18.412804
v -12.008827 3.881017 18.412804
v -12.008827 3.888372 18.427746
v -12.019597 3.886401 18.453630
v -12.019597 3.860922 18.453630
v -12.019597 3.848181 18.427746
v -12.019597 3.860922 18.401863
v -12.019597 3.886401 18.401863
v -12.019597 3.899142 18.427746
v -12.034307 3.888372 18.457634
v -12.034307 3.858951 18.457634
v -12.034307 3.844240 18.427746
v -12.034307 3.858951 18.397858
v -12.034307 3.888372 18.397858
v -12.034307 3.903083 18.427746
v -12.049018 3.886401 18.453630
v -12.049018 3.860922 18.453630
v -12.049018 3.848181 18.427746
v -12.049018 3.860922 18.401863
v -12.049018 3.886401 18.401863
v -12.049018 3.899142 18.427746
v -12.059788 3.881017 18.442690
v -12.059788 3.866306 18.442690
v -12.059788 3.858951 18.427746
v -12.059788 3.866306 18.412804
v -12.059788 3.881017 18.412804
v -12.059788 3.888372 18.427746
v -12.004886 3.873662 18.427746
v -12.063729 3.873662 18.427746
v -12.057257 3.893069 17.982298
v -12.057257 3.851402 17.982298
v -12.057257 3.830568 18.024626
v -12.057257 3.851402 18.066952
v -12.057257 3.893069 18.066952
v -12.057257 3.913902 18.024626
v -12.080791 3.893069 17.982298
v -12.080791 3.851402 17.982298
v -12.080791 3.830568 18.024626
v -12.080791 3.851402 18.066952
v -12.080791 3.893069 18.066952
v -12.080791 3.913902 18.024626
v -12.057257 3.872235 18.024626
v -12.080791 3.872235 18.024626
vt 0.055186 0.706765
vt 0.059461 0.698079
vt 0.063736 0.706765
vt 0.050911 0.698079
vt 0.068012 0.698079
vt 0.055186 0.689393
vt 0.063736 0.689393
vt 0.087124 0.728460
vt 0.082849 0.737146
vt 0.078573 0.728460
vt 0.091399 0.737146
vt 0.074298 0.737146
vt 0.087124 0.745832
vt 0.078573 0.745832
vt 0.226138 0.894178
vt 0.229156 0.894178
vt 0.227647 0.897245
vt 0.225032 0.891933
vt 0.230261 0.891933
vt 0.230666 0.897245
vt 0.224628 0.897245
vt 0.222418 0.897245
vt 0.232876 0.897245
vt 0.229156 0.900311
vt 0.226138 0.900311
vt 0.225032 0.902556
vt 0.230261 0.902556
vt 0.246697 0.900312
vt 0.243678 0.900312
vt 0.245188 0.897245
vt 0.247802 0.902556
vt 0.242573 0.902556
vt 0.242169 0.897245
vt 0.248206 0.897245
vt 0.239959 0.897245
vt 0.250416 0.897245
vt 0.243678 0.894178
vt 0.246697 0.894178
vt 0.242573 0.891933
vt 0.247802 0.891933
vt 0.732441 0.465038
vt 0.732441 0.887942
vt 0.512077 0.887942
vt 0.512077 0.465038
vt 0.316189 0.001845
vt 0.316189 0.461047
vt 0.056758 0.461047
vt 0.056758 0.001845
vt 0.583195 0.001845
vt 0.563662 0.019994
vt 0.343298 0.019994
vt 0.323764 0.001845
vt 0.583195 0.461047
vt 0.563662 0.442897
vt 0.343298 0.442897
vt 0.323764 0.461047
vt 0.238314 0.465038
vt 0.458677 0.465038
vt 0.458677 0.887942
vt 0.238314 0.887942
vt 0.645341 0.001845
vt 0.904773 0.001845
vt 0.904773 0.461047
vt 0.645341 0.461047
vt 0.738576 0.465038
vt 0.998008 0.465038
vt 0.978474 0.483187
vt 0.758110 0.483187
vt 0.998008 0.924240
vt 0.978474 0.906091
vt 0.738576 0.924240
vt 0.758110 0.906091
vt 0.261219 0.900311
vt 0.262728 0.897245
vt 0.264238 0.900311
vt 0.259709 0.897245
vt 0.265747 0.897245
vt 0.265343 0.902556
vt 0.260114 0.902556
vt 0.261219 0.894178
vt 0.257500 0.897245
vt 0.264238 0.894178
vt 0.267957 0.897245
vt 0.260114 0.891933
vt 0.265343 0.891933
vt 0.281778 0.894178
vt 0.280269 0.897245
vt 0.278759 0.894178
vt 0.283288 0.897245
vt 0.277250 0.897245
vt 0.282883 0.891933
vt 0.277654 0.891933
vt 0.281778 0.900311
vt 0.285497 0.897245
vt 0.278759 0.900311
vt 0.275040 0.897245
vt 0.282883 0.902556
vt 0.277654 0.902556
vt 0.125348 0.728461
vt 0.133899 0.728461
vt 0.129623 0.737147
vt 0.138174 0.737147
vt 0.121073 0.737147
vt 0.133899 0.745833
vt 0.125348 0.745833
vt 0.157286 0.745833
vt 0.148735 0.745833
vt 0.153011 0.737147
vt 0.144460 0.737147
vt 0.161561 0.737147
vt 0.148735 0.728461
vt 0.157286 0.728461
vt 0.032353 0.706764
vt 0.027523 0.706764
vt 0.027523 0.698079
vt 0.032353 0.698079
vt 0.027523 0.689393
vt 0.032353 0.689393
vt 0.044046 0.706765
vt 0.039217 0.706765
vt 0.039217 0.698078
vt 0.044046 0.698078
vt 0.039217 0.689393
vt 0.044046 0.689393
vt 0.173885 0.729283
vt 0.173885 0.734594
vt 0.170867 0.734594
vt 0.170867 0.728461
vt 0.173885 0.739906
vt 0.170867 0.740727
vt 0.167848 0.734594
vt 0.167848 0.729283
vt 0.167848 0.739906
vt 0.187528 0.892755
vt 0.187528 0.898067
vt 0.184509 0.898067
vt 0.184509 0.891933
vt 0.187528 0.903378
vt 0.184509 0.904200
vt 0.181490 0.898067
vt 0.181490 0.892755
vt 0.181490 0.903378
vt 0.111366 0.724469
vt 0.111366 0.465038
vt 0.131792 0.465038
vt 0.131792 0.724469
vt 0.084805 0.724469
vt 0.084805 0.465038
vt 0.105231 0.465038
vt 0.105231 0.724469
vt 0.078670 0.685402
vt 0.061173 0.685402
vt 0.061173 0.465038
vt 0.078670 0.465038
vt 0.055038 0.685402
vt 0.037540 0.685402
vt 0.037540 0.465038
vt 0.055038 0.465038
vt 0.164487 0.465038
vt 0.184913 0.465038
vt 0.184913 0.724470
vt 0.164487 0.724470
vt 0.137927 0.465038
vt 0.158352 0.465038
vt 0.158352 0.724470
vt 0.137927 0.724470
vt 0.031405 0.465038
vt 0.031405 0.685401
vt 0.013907 0.685401
vt 0.013907 0.465038
vt 0.019489 0.689393
vt 0.019489 0.909756
vt 0.001992 0.909756
vt 0.001992 0.689393
vt 0.201170 0.903378
vt 0.198152 0.904200
vt 0.198152 0.898066
vt 0.201170 0.898066
vt 0.195133 0.903378
vt 0.195133 0.898066
vt 0.198152 0.891933
vt 0.201170 0.892755
vt 0.195133 0.892755
vt 0.214813 0.903378
vt 0.211794 0.904200
vt 0.211794 0.898067
vt 0.214813 0.898067
vt 0.208776 0.903378
vt 0.208776 0.898067
vt 0.211794 0.891933
vt 0.214813 0.892755
vt 0.208776 0.892755
vt 0.102515 0.728460
vt 0.102515 0.737146
vt 0.097686 0.737146
vt 0.097686 0.728460
vt 0.102515 0.745832
vt 0.097686 0.745832
vt 0.114209 0.728460
vt 0.114209 0.737146
vt 0.109379 0.737146
vt 0.109379 0.728460
vt 0.114209 0.745832
vt 0.109379 0.745832
vt 0.297410 0.900484
vt 0.292581 0.900484
vt 0.292581 0.891933
vt 0.297410 0.891933
vt 0.309104 0.900484
vt 0.304274 0.900484
vt 0.304274 0.891933
vt 0.309104 0.891933
vt 0.345393 0.892338
vt 0.345393 0.897566
vt 0.342374 0.897971
vt 0.342374 0.891933
vt 0.339355 0.897566
vt 0.339355 0.892338
vt 0.359036 0.892338
vt 0.359036 0.897566
vt 0.356017 0.897971
vt 0.356017 0.891933
vt 0.352998 0.897566
vt 0.352998 0.892338
vt 0.001992 0.461046
vt 0.001992 0.001845
vt 0.022418 0.001845
vt 0.022418 0.461046
vt 0.029472 0.461047
vt 0.029472 0.001845
vt 0.049898 0.001845
vt 0.049898 0.461047
vt 0.505942 0.887942
vt 0.488445 0.887942
vt 0.488445 0.465038
vt 0.505942 0.465038
vt 0.482310 0.887942
vt 0.464812 0.887942
vt 0.464812 0.465038
vt 0.482310 0.465038
vt 0.590770 0.001845
vt 0.611196 0.001845
vt 0.611196 0.461047
vt 0.590770 0.461047
vt 0.618056 0.001845
vt 0.638481 0.001845
vt 0.638481 0.461046
vt 0.618056 0.461046
vt 0.232178 0.465038
vt 0.232178 0.887942
vt 0.214681 0.887942
vt 0.214681 0.465038
vt 0.208546 0.465038
vt 0.208546 0.887942
vt 0.191048 0.887942
vt 0.191048 0.465038
vt 0.372678 0.897566
vt 0.369660 0.897971
vt 0.369660 0.891933
vt 0.372678 0.892338
vt 0.366641 0.897566
vt 0.366641 0.892338
vt 0.386321 0.897566
vt 0.383302 0.897971
vt 0.383302 0.891933
vt 0.386321 0.892338
vt 0.380283 0.897566
vt 0.380283 0.892338
vt 0.320797 0.891933
vt 0.320797 0.900484
vt 0.315968 0.900484
vt 0.315968 0.891933
vt 0.332491 0.891933
vt 0.332491 0.900484
vt 0.327662 0.900484
vt 0.327662 0.891933
vn 0.000000 0.000000 1.000000
vn 0.000000 0.000000 1.000000
vn 0.000000 0.000000 1.000000
vn 0.000000 0.000000 1.000000
vn 0.000000 -0.897201 0.441622
vn 0.000000 -0.897201 0.441622
vn 0.000000 -0.897201 0.441622
vn 0.000000 -0.897201 0.441622
vn 0.000000 -0.897212 -0.441600
vn 0.000000 -0.897212 -0.441600
vn 0.000000 -0.897212 -0.441600
vn 0.000000 -0.897212 -0.441600
vn 0.000000 0.000000 -1.000000
vn 0.000000 0.000000 -1.000000
vn 0.000000 0.000000 -1.000000
vn 0.000000 0.000000 -1.000000
vn 0.000000 0.897215 -0.441595
vn 0.000000 0.897215 -0.441595
vn 0.000000 0.897215 -0.441595
vn 0.000000 0.897215 -0.441595
vn 0.000000 0.897204 0.441616
vn 0.000000 0.897204 0.441616
vn 0.000000 0.897204 0.441616
vn 0.000000 0.897204 0.441616
vn 1.000000 0.000000 0.000000
vn 1.000000 0.000000 0.000000
vn 1.000000 0.000000 0.000000
vn 1.000000 0.000000 0.000000
vn 1.000000 0.000000 0.000000
vn 1.000000 0.000000 0.000000
vn 1.000000 0.000000 0.000000
vn 1.000000 0.000000 0.000000
vn 1.000000 0.000000 0.000000
vn 1.000000 0.000000 0.000000
vn 1.000000 0.000000 0.000000
vn 1.000000 0.000000 0.000000
vn 1.000000 0.000000 0.000000
vn 1.000000 0.000000 0.000000
vn 1.000000 0.000000 0.000000
vn 1.000000 0.000000 0.000000
vn 1.000000 0.000000 0.000000
vn 1.000000 0.000000 0.000000
vn -1.000000 0.000000 0.000000
vn -1.000000 0.000000 0.000000
vn -1.000000 0.000000 0.000000
vn -1.000000 0.000000 0.000000
vn -1.000000 0.000000 0.000000
vn -1.000000 0.000000 0.000000
vn -1.000000 0.000000 0.000000
vn -1.000000 0.000000 0.000000
vn -1.000000 0.000000 0.000000
vn -1.000000 0.000000 0.000000
vn -1.000000 0.000000 0.000000
vn -1.000000 0.000000 0.000000
vn -1.000000 0.000000 0.000000
vn -1.000000 0.000000 0.000000
vn -1.000000 0.000000 0.000000
vn -1.000000 0.000000 0.000000
vn -1.000000 0.000000 0.000000
vn -1.000000 0.000000 0.000000
vn 0.712586 0.000000 -0.701585
vn 0.712586 0.000000 -0.701585
vn 0.712586 0.000000 -0.701585
vn 0.712586 0.000000 -0.701585
vn 0.667808 -0.667830 -0.328688
vn 0.667808 -0.667830 -0.328688
vn 0.667808 -0.667830 -0.328687
vn 0.667808 -0.667830 -0.328687
vn 0.667790 -0.667836 0.328712
vn 0.667790 -0.667836 0.328712
vn 0.667790 -0.667836 0.328712
vn 0.667790 -0.667836 0.328712
vn 0.712681 0.000000 0.701488
vn 0.712681 0.000000 0.701488
vn 0.712681 0.000000 0.701488
vn 0.712681 0.000000 0.701488
vn 0.667732 0.667891 0.328717
vn 0.667732 0.667891 0.328717
vn 0.667732 0.667891 0.328717
vn 0.667732 0.667891 0.328717
vn 0.667800 0.667845 -0.328673
vn 0.667800 0.667845 -0.328673
vn 0.667800 0.667845 -0.328673
vn 0.667800 0.667845 -0.328673
vn 0.262630 0.000000 -0.964897
vn 0.262630 0.000000 -0.964897
vn 0.262630 0.000000 -0.964897
vn 0.262630 0.000000 -0.964897
vn 0.233751 -0.872335 -0.429409
vn 0.233751 -0.872335 -0.429409
vn 0.233751 -0.872335 -0.429409
vn 0.233751 -0.872335 -0.429409
vn 0.233801 -0.872333 0.429385
vn 0.233801 -0.872333 0.429385
vn 0.233801 -0.872333 0.429385
vn 0.233801 -0.872333 0.429385
vn 0.262663 0.000000 0.964888
vn 0.262663 0.000000 0.964888
vn 0.262663 0.000000 0.964888
vn 0.262663 0.000000 0.964888
vn 0.233768 0.872344 0.429382
vn 0.233768 0.872344 0.429382
vn 0.233768 0.872344 0.429382
vn 0.233768 0.872344 0.429382
vn 0.233754 0.872331 -0.429415
vn 0.233754 0.872331 -0.429415
vn 0.233754 0.872331 -0.429415
vn 0.233754 0.872331 -0.429415
vn -0.262630 0.000000 -0.964897
vn -0.262630 0.000000 -0.964897
vn -0.262630 0.000000 -0.964897
vn -0.262630 0.000000 -0.964897
vn -0.233744 -0.872343 -0.429398
vn -0.233744 -0.872343 -0.429398
vn -0.233744 -0.872343 -0.429398
vn -0.233744 -0.872343 -0.429398
vn -0.233758 -0.872355 0.429365
vn -0.233758 -0.872355 0.429365
vn -0.233758 -0.872355 0.429365
vn -0.233758 -0.872355 0.429365
vn -0.262597 0.000000 0.964906
vn -0.262597 0.000000 0.964906
vn -0.262597 0.000000 0.964906
vn -0.262597 0.000000 0.964906
vn -0.233791 0.872345 0.429367
vn -0.233791 0.872345 0.429367
vn -0.233791 0.872345 0.429367
vn -0.233791 0.872345 0.429367
vn -0.233741 0.872346 -0.429392
vn -0.233741 0.872346 -0.429392
vn -0.233741 0.872346 -0.429392
vn -0.233741 0.872346 -0.429392
vn -0.712586 0.000000 -0.701585
vn -0.712586 0.000000 -0.701585
vn -0.712586 0.000000 -0.701585
vn -0.712586 0.000000 -0.701585
vn -0.667828 -0.667805 -0.328697
vn -0.667828 -0.667805 -0.328697
vn -0.667828 -0.667805 -0.328697
vn -0.667828 -0.667805 -0.328697
vn -0.667770 -0.667861 0.328702
vn -0.667770 -0.667861 0.328702
vn -0.667770 -0.667861 0.328702
vn -0.667770 -0.667861 0.328702
vn -0.712681 0.000000 0.701488
vn -0.712681 0.000000 0.701488
vn -0.712681 0.000000 0.701488
vn -0.712681 0.000000 0.701488
vn -0.667758 0.667871 0.328707
vn -0.667758 0.667871 0.328707
vn -0.667758 0.667871 0.328707
vn -0.667758 0.667871 0.328707
vn -0.667815 0.667815 -0.328702
vn -0.667815 0.667815 -0.328702
vn -0.667815 0.667815 -0.328702
vn -0.667815 0.667815 -0.328702
vn 0.966942 0.000000 -0.254997
vn 0.966942 0.000000 -0.254997
vn 0.966942 0.000000 -0.254997
vn 0.958174 -0.256760 -0.126399
vn 0.958174 -0.256761 -0.126399
vn 0.958174 -0.256761 -0.126399
vn 0.958195 -0.256697 0.126367
vn 0.958195 -0.256697 0.126367
vn 0.958195 -0.256697 0.126367
vn 0.966942 0.000000 0.254997
vn 0.966942 0.000000 0.254997
vn 0.966942 0.000000 0.254997
vn 0.958195 0.256697 0.126367
vn 0.958195 0.256697 0.126367
vn 0.958195 0.256697 0.126367
vn 0.958174 0.256761 -0.126399
vn 0.958174 0.256760 -0.126399
vn 0.958174 0.256761 -0.126399
vn -0.966942 0.000000 -0.254997
vn -0.966942 0.000000 -0.254997
vn -0.966942 0.000000 -0.254997
vn -0.958174 -0.256761 -0.126399
vn -0.958174 -0.256760 -0.126399
vn -0.958174 -0.256761 -0.126399
vn -0.958195 -0.256697 0.126367
vn -0.958195 -0.256697 0.126367
vn -0.958195 -0.256697 0.126367
vn -0.966942 0.000000 0.254997
vn -0.966942 0.000000 0.254997
vn -0.966942 0.000000 0.254997
vn -0.958195 0.256697 0.126367
vn -0.958195 0.256697 0.126367
vn -0.958195 0.256697 0.126367
vn -0.958174 0.256760 -0.126399
vn -0.958174 0.256761 -0.126399
vn -0.958174 0.256761 -0.126399
vn 0.000000 0.000000 -1.000000
vn 0.000000 0.000000 -1.000000
vn 0.000000 0.000000 -1.000000
vn 0.000000 0.000000 -1.000000
vn 0.000000 1.000000 0.000000
vn 0.000000 1.000000 0.000000
vn 0.000000 1.000000 0.000000
vn 0.000000 1.000000 0.000000
vn 0.000000 0.000000 1.000000
vn 0.000000 0.000000 1.000000
vn 0.000000 0.000000 1.000000
vn 0.000000 0.000000 1.000000
vn 0.000000 -1.000000 0.000000
vn 0.000000 -1.000000 0.000000
vn 0.000000 -1.000000 0.000000
vn 0.000000 -1.000000 0.000000
vn 1.000000 0.000000 0.000000
vn 1.000000 0.000000 0.000000
vn 1.000000 0.000000 0.000000
vn 1.000000 0.000000 0.000000
vn -1.000000 0.000000 0.000000
vn -1.000000 0.000000 0.000000
vn -1.000000 0.000000 0.000000
vn -1.000000 0.000000 0.000000
vn 1.000000 0.000000 0.000000
vn 1.000000 0.000000 0.000000
vn 1.000000 0.000000 0.000000
vn 1.000000 0.000000 0.000000
vn 1.000000 0.000000 0.000000
vn 1.000000 0.000000 0.000000
vn 1.000000 0.000000 0.000000
vn 1.000000 0.000000 0.000000
vn 1.000000 0.000000 0.000000
vn 1.000000 0.000000 0.000000
vn 1.000000 0.000000 0.000000
vn 1.000000 0.000000 0.000000
vn 1.000000 0.000000 0.000000
vn 1.000000 0.000000 0.000000
vn 1.000000 0.000000 0.000000
vn 1.000000 0.000000 0.000000
vn 0.000000 1.000000 0.000000
vn 0.000000 1.000000 0.000000
vn 0.000000 1.000000 0.000000
vn 0.000000 1.000000 0.000000
vn 0.000000 0.000000 -1.000000
vn 0.000000 0.000000 -1.000000
vn 0.000000 0.000000 -1.000000
vn 0.000000 0.000000 -1.000000
vn 0.000000 -1.000000 0.000000
vn 0.000000 -1.000000 0.000000
vn 0.000000 -1.000000 0.000000
vn 0.000000 -1.000000 0.000000
vn 0.000000 0.000000 1.000000
vn 0.000000 0.000000 1.000000
vn 0.000000 0.000000 1.000000
vn 0.000000 0.000000 1.000000
vn 0.000000 0.000000 1.000000
vn 0.000000 0.000000 1.000000
vn 0.000000 0.000000 1.000000
vn 0.000000 0.000000 1.000000
vn 0.000000 1.000000 0.000000
vn 0.000000 1.000000 0.000000
vn 0.000000 1.000000 0.000000
vn 0.000000 1.000000 0.000000
vn 0.000000 0.000000 -1.000000
vn 0.000000 0.000000 -1.000000
vn 0.000000 0.000000 -1.000000
vn 0.000000 0.000000 -1.000000
vn 0.000000 -1.000000 0.000000
vn 0.000000 -1.000000 0.000000
vn 0.000000 -1.000000 0.000000
vn 0.000000 -1.000000 0.000000
vn 1.000000 0.000000 0.000000
vn 1.000000 0.000000 0.000000
vn 1.000000 0.000000 0.000000
vn 1.000000 0.000000 0.000000
vn -1.000000 0.000000 0.000000
vn -1.000000 0.000000 0.000000
vn -1.000000 0.000000 0.000000
vn -1.000000 0.000000 0.000000
vn 1.000000 -0.000001 0.000000
vn 1.000000 -0.000001 0.000000
vn 1.000000 -0.000001 0.000000
vn 1.000000 -0.000001 0.000000
vn 1.000000 0.000000 0.000000
vn 1.000000 0.000000 0.000000
vn 1.000000 0.000000 0.000000
vn 1.000000 0.000000 0.000000
vn 1.000000 0.000000 0.000000
vn 1.000000 0.000000 0.000000
vn 1.000000 0.000000 0.000000
vn 1.000000 0.000000 0.000000
vn 1.000000 0.000000 0.000000
vn 1.000000 0.000000 0.000000
vn 1.000000 0.000000 0.000000
vn 1.000000 0.000000 0.000000
vn 0.000000 1.000000 0.000000
vn 0.000000 1.000000 0.000000
vn 0.000000 1.000000 0.000000
vn 0.000000 1.000000 0.000000
vn 0.000000 0.000000 1.000000
vn 0.000000 0.000000 1.000000
vn 0.000000 0.000000 1.000000
vn 0.000000 0.000000 1.000000
vn 0.000000 -1.000000 0.000000
vn 0.000000 -1.000000 0.000000
vn 0.000000 -1.000000 0.000000
vn 0.000000 -1.000000 0.000000
vn 0.000000 0.000000 -1.000000
vn 0.000000 0.000000 -1.000000
vn 0.000000 0.000000 -1.000000
vn 0.000000 0.000000 -1.000000
vn 0.712646 0.000000 0.701524
vn 0.712646 0.000000 0.701524
vn 0.712646 0.000000 0.701524
vn 0.712646 0.000000 0.701524
vn 0.667820 -0.667820 0.328683
vn 0.667820 -0.667820 0.328683
vn 0.667820 -0.667820 0.328683
vn 0.667820 -0.667820 0.328683
vn 0.667765 -0.667856 -0.328722
vn 0.667765 -0.667856 -0.328722
vn 0.667765 -0.667856 -0.328722
vn 0.667765 -0.667856 -0.328722
vn 0.712646 0.000000 -0.701524
vn 0.712646 0.000000 -0.701524
vn 0.712646 0.000000 -0.701524
vn 0.712646 0.000000 -0.701524
vn 0.667765 0.667856 -0.328722
vn 0.667765 0.667856 -0.328722
vn 0.667765 0.667856 -0.328722
vn 0.667765 0.667856 -0.328722
vn 0.667795 0.667840 0.328692
vn 0.667795 0.667840 0.328692
vn 0.667795 0.667840 0.328692
vn 0.667795 0.667840 0.328692
vn 0.262497 0.000000 0.964933
vn 0.262497 0.000000 0.964933
vn 0.262497 0.000000 0.964933
vn 0.262497 0.000000 0.964933
vn 0.233771 -0.872340 0.429388
vn 0.233771 -0.872340 0.429388
vn 0.233771 -0.872340 0.429388
vn 0.233771 -0.872340 0.429388
vn 0.233741 -0.872346 -0.429392
vn 0.233741 -0.872346 -0.429392
vn 0.233741 -0.872346 -0.429392
vn 0.233741 -0.872346 -0.429392
vn 0.262763 0.000000 -0.964861
vn 0.262763 0.000000 -0.964861
vn 0.262763 0.000000 -0.964861
vn 0.262763 0.000000 -0.964861
vn 0.233741 0.872346 -0.429392
vn 0.233741 0.872346 -0.429392
vn 0.233741 0.872346 -0.429392
vn 0.233741 0.872346 -0.429392
vn 0.233741 0.872346 0.429392
vn 0.233741 0.872346 0.429392
vn 0.233741 0.872346 0.429392
vn 0.233741 0.872346 0.429392
vn -0.262497 0.000000 0.964933
vn -0.262497 0.000000 0.964933
vn -0.262497 0.000000 0.964933
vn -0.262497 0.000000 0.964933
vn -0.233728 -0.872361 0.429368
vn -0.233728 -0.872361 0.429368
vn -0.233728 -0.872361 0.429368
vn -0.233728 -0.872361 0.429368
vn -0.233741 -0.872346 -0.429392
vn -0.233741 -0.872346 -0.429392
vn -0.233741 -0.872346 -0.429392
vn -0.233741 -0.872346 -0.429392
vn -0.262763 0.000000 -0.964861
vn -0.262763 0.000000 -0.964861
vn -0.262763 0.000000 -0.964861
vn -0.262763 0.000000 -0.964861
vn -0.233741 0.872346 -0.429392
vn -0.233741 0.872346 -0.429392
vn -0.233741 0.872346 -0.429392
vn -0.233741 0.872346 -0.429392
vn -0.233728 0.872361 0.429368
vn -0.233728 0.872361 0.429368
vn -0.233728 0.872361 0.429368
vn -0.233728 0.872361 0.429368
vn -0.712646 0.000000 0.701524
vn -0.712646 0.000000 0.701524
vn -0.712646 0.000000 0.701524
vn -0.712646 0.000000 0.701524
vn -0.667775 -0.667866 0.328683
vn -0.667775 -0.667866 0.328683
vn -0.667775 -0.667866 0.328683
vn -0.667775 -0.667866 0.328683
vn -0.667765 -0.667856 -0.328722
vn -0.667765 -0.667856 -0.328722
vn -0.667765 -0.667856 -0.328722
vn -0.667765 -0.667856 -0.328722
vn -0.712646 0.000000 -0.701524
vn -0.712646 0.000000 -0.701524
vn -0.712646 0.000000 -0.701524
vn -0.712646 0.000000 -0.701524
vn -0.667765 0.667856 -0.328722
vn -0.667765 0.667856 -0.328722
vn -0.667765 0.667856 -0.328722
vn -0.667765 0.667856 -0.328722
vn -0.667800 0.667845 0.328673
vn -0.667800 0.667845 0.328673
vn -0.667800 0.667845 0.328673
vn -0.667800 0.667845 0.328673
vn 0.966925 0.000000 0.255062
vn 0.966925 0.000000 0.255062
vn 0.966925 0.000000 0.255062
vn 0.958217 -0.256633 0.126336
vn 0.958217 -0.256633 0.126336
vn 0.958217 -0.256633 0.126336
vn 0.958195 -0.256697 -0.126367
vn 0.958195 -0.256697 -0.126367
vn 0.958195 -0.256697 -0.126367
vn 0.966925 0.000000 -0.255062
vn 0.966925 0.000000 -0.255062
vn 0.966925 0.000000 -0.255062
vn 0.958195 0.256697 -0.126367
vn 0.958195 0.256697 -0.126367
vn 0.958195 0.256697 -0.126367
vn 0.958217 0.256633 0.126336
vn 0.958217 0.256633 0.126336
vn 0.958217 0.256633 0.126336
vn -0.966925 0.000000 0.255062
vn -0.966925 0.000000 0.255062
vn -0.966925 0.000000 0.255062
vn -0.958217 -0.256633 0.126336
vn -0.958217 -0.256633 0.126336
vn -0.958217 -0.256633 0.126336
vn -0.958195 -0.256697 -0.126367
vn -0.958195 -0.256697 -0.126367
vn -0.958195 -0.256697 -0.126367
vn -0.966925 0.000000 -0.255062
vn -0.966925 0.000000 -0.255062
vn -0.966925 0.000000 -0.255062
vn -0.958195 0.256697 -0.126367
vn -0.958195 0.256697 -0.126367
vn -0.958195 0.256697 -0.126367
vn -0.958217 0.256633 0.126336
vn -0.958217 0.256633 0.126336
vn -0.958217 0.256633 0.126336
vn 0.000000 0.000000 -1.000000
vn 0.000000 0.000000 -1.000000
vn 0.000000 0.000000 -1.000000
vn 0.000000 0.000000 -1.000000
vn 0.000000 -0.897212 -0.441600
vn 0.000000 -0.897212 -0.441600
vn 0.000000 -0.897212 -0.441600
vn 0.000000 -0.897212 -0.441600
vn 0.000000 -0.897201 0.441622
vn 0.000000 -0.897201 0.441622
vn 0.000000 -0.897201 0.441622
vn 0.000000 -0.897201 0.441622
vn 0.000000 0.000000 1.000000
vn 0.000000 0.000000 1.000000
vn 0.000000 0.000000 1.000000
vn 0.000000 0.000000 1.000000
vn 0.000000 0.897204 0.441616
vn 0.000000 0.897204 0.441616
vn 0.000000 0.897204 0.441616
vn 0.000000 0.897204 0.441616
vn 0.000000 0.897215 -0.441595
vn 0.000000 0.897215 -0.441595
vn 0.000000 0.897215 -0.441595
vn 0.000000 0.897215 -0.441595
vn 1.000000 0.000000 0.000000
vn 1.000000 0.000000 0.000000
vn 1.000000 0.000000 0.000000
vn 1.000000 0.000000 0.000000
vn 1.000000 0.000000 0.000000
vn 1.000000 0.000000 0.000000
vn 1.000000 0.000000 0.000000
vn 1.000000 0.000000 0.000000
vn 1.000000 0.000000 0.000000
vn 1.000000 0.000000 0.000000
vn 1.000000 0.000000 0.000000
vn 1.000000 0.000000 0.000000
vn 1.000000 0.000000 0.000000
vn 1.000000 0.000000 0.000000
vn 1.000000 0.000000 0.000000
vn 1.000000 0.000000 0.000000
vn 1.000000 0.000000 0.000000
vn 1.000000 0.000000 0.000000
vn -1.000000 0.000000 0.000000
vn -1.000000 0.000000 0.000000
vn -1.000000 0.000000 0.000000
vn -1.000000 0.000000 0.000000
vn -1.000000 0.000000 0.000000
vn -1.000000 0.000000 0.000000
vn -1.000000 0.000000 0.000000
vn -1.000000 0.000000 0.000000
vn -1.000000 0.000000 0.000000
vn -1.000000 0.000000 0.000000
vn -1.000000 0.000000 0.000000
vn -1.000000 0.000000 0.000000
vn -1.000000 0.000000 0.000000
vn -1.000000 0.000000 0.000000
vn -1.000000 0.000000 0.000000
vn -1.000000 0.000000 0.000000
vn -1.000000 0.000000 0.000000
vn -1.000000 0.000000 0.000000
s off
g polySurface423
usemtl lambert2SG
f 159/534/565 165/535/566 166/536/567 160/537/568
f 160/442/569 166/443/570 167/444/571 161/445/572
f 161/445/573 167/444/574 168/446/575 162/447/576
f 162/538/577 168/539/578 169/540/579 163/541/580
f 163/448/581 169/449/582 170/450/583 164/451/584
f 164/451/585 170/450/586 165/452/587 159/453/588
f 160/330/589 171/331/590 159/332/591
f 161/333/592 171/331/593 160/330/594
f 162/335/595 171/331/596 161/333/597
f 163/336/598 171/331/599 162/335/600
f 164/334/601 171/331/602 163/336/603
f 159/332/604 171/331/605 164/334/606
f 165/337/607 172/338/608 166/339/609
f 166/339/610 172/338/611 167/341/612
f 167/341/613 172/338/614 168/343/615
f 168/343/616 172/338/617 169/342/618
f 169/342/619 172/338/620 170/340/621
f 170/340/622 172/338/623 165/337/624
f 173/345/625 174/344/626 180/347/627 179/348/628
f 174/344/629 175/350/630 181/351/631 180/347/632
f 175/350/633 176/354/634 182/355/635 181/351/636
f 176/354/637 177/353/638 183/356/639 182/355/640
f 177/353/641 178/349/642 184/352/643 183/356/644
f 178/349/645 173/345/646 179/348/647 184/352/648
f 179/542/649 180/543/650 186/544/651 185/545/652
f 180/454/653 181/455/654 187/456/655 186/457/656
f 181/455/657 182/458/658 188/459/659 187/456/660
f 182/548/661 183/549/662 189/550/663 188/551/664
f 183/463/665 184/464/666 190/465/667 189/466/668
f 184/464/669 179/467/670 185/468/671 190/465/672
f 185/545/673 186/544/674 192/546/675 191/547/676
f 186/457/677 187/456/678 193/460/679 192/461/680
f 187/456/681 188/459/682 194/462/683 193/460/684
f 188/551/685 189/550/686 195/552/687 194/553/688
f 189/466/689 190/465/690 196/469/691 195/470/692
f 190/465/693 185/468/694 191/471/695 196/469/696
f 191/360/697 192/361/698 198/358/699 197/357/700
f 192/361/701 193/364/702 199/362/703 198/358/704
f 193/364/705 194/368/706 200/366/707 199/362/708
f 194/368/709 195/369/710 201/367/711 200/366/712
f 195/369/713 196/365/714 202/363/715 201/367/716
f 196/365/717 191/360/718 197/357/719 202/363/720
f 174/344/721 173/345/722 203/346/723
f 175/350/724 174/344/725 203/346/726
f 176/354/727 175/350/728 203/346/729
f 177/353/730 176/354/731 203/346/732
f 178/349/733 177/353/734 203/346/735
f 173/345/736 178/349/737 203/346/738
f 197/357/739 198/358/740 204/359/741
f 198/358/742 199/362/743 204/359/744
f 199/362/745 200/366/746 204/359/747
f 200/366/748 201/367/749 204/359/750
f 201/367/751 202/363/752 204/359/753
f 202/363/754 197/357/755 204/359/756
f 205/554/757 207/555/758 208/556/759 206/557/760
f 207/472/761 209/473/762 210/474/763 208/475/764
f 209/558/765 211/559/766 212/560/767 210/561/768
f 211/476/769 205/477/770 206/478/771 212/479/772
f 218/370/773 220/371/774 219/372/775 217/373/776
f 211/374/777 209/375/778 207/376/779 205/377/780
f 206/378/781 214/379/782 213/380/783 212/381/784
f 212/381/785 213/380/786 215/384/787 210/385/788
f 210/385/789 215/384/790 216/383/791 208/382/792
f 208/382/793 216/383/794 214/379/795 206/378/796
f 214/480/797 218/481/798 217/482/799 213/483/800
f 213/562/801 217/563/802 219/564/803 215/565/804
f 215/484/805 219/485/806 220/486/807 216/487/808
f 216/566/809 220/567/810 218/568/811 214/569/812
f 221/570/813 222/571/814 224/572/815 223/573/816
f 223/488/817 224/489/818 226/490/819 225/491/820
f 225/574/821 226/575/822 228/576/823 227/577/824
f 227/492/825 228/493/826 222/494/827 221/495/828
f 234/386/829 233/387/830 235/388/831 236/389/832
f 227/390/833 221/391/834 223/392/835 225/393/836
f 222/394/837 228/395/838 229/396/839 230/397/840
f 228/395/841 226/398/842 231/399/843 229/396/844
f 226/398/845 224/400/846 232/401/847 231/399/848
f 224/400/849 222/394/850 230/397/851 232/401/852
f 230/496/853 229/497/854 233/498/855 234/499/856
f 229/578/857 231/579/858 235/580/859 233/581/860
f 231/500/861 232/501/862 236/502/863 235/503/864
f 232/582/865 230/583/866 234/584/867 236/585/868
f 237/404/869 243/407/870 244/408/871 238/402/872
f 238/402/873 244/408/874 245/410/875 239/405/876
f 239/405/877 245/410/878 246/413/879 240/409/880
f 240/409/881 246/413/882 247/414/883 241/411/884
f 241/411/885 247/414/886 248/412/887 242/406/888
f 242/406/889 248/412/890 243/407/891 237/404/892
f 243/586/893 249/587/894 250/588/895 244/589/896
f 244/504/897 250/505/898 251/506/899 245/507/900
f 245/507/901 251/506/902 252/510/903 246/511/904
f 246/592/905 252/593/906 253/594/907 247/595/908
f 247/513/909 253/514/910 254/515/911 248/516/912
f 248/516/913 254/515/914 249/519/915 243/520/916
f 249/587/917 255/590/918 256/591/919 250/588/920
f 250/505/921 256/508/922 257/509/923 251/506/924
f 251/506/925 257/509/926 258/512/927 252/510/928
f 252/593/929 258/596/930 259/597/931 253/594/932
f 253/514/933 259/517/934 260/518/935 254/515/936
f 254/515/937 260/518/938 255/521/939 249/519/940
f 255/420/941 261/415/942 262/417/943 256/421/944
f 256/421/945 262/417/946 263/419/947 257/425/948
f 257/425/949 263/419/950 264/424/951 258/427/952
f 258/427/953 264/424/954 265/422/955 259/426/956
f 259/426/957 265/422/958 266/418/959 260/423/960
f 260/423/961 266/418/962 261/415/963 255/420/964
f 238/402/965 267/403/966 237/404/967
f 239/405/968 267/403/969 238/402/970
f 240/409/971 267/403/972 239/405/973
f 241/411/974 267/403/975 240/409/976
f 242/406/977 267/403/978 241/411/979
f 237/404/980 267/403/981 242/406/982
f 261/415/983 268/416/984 262/417/985
f 262/417/986 268/416/987 263/419/988
f 263/419/989 268/416/990 264/424/991
f 264/424/992 268/416/993 265/422/994
f 265/422/995 268/416/996 266/418/997
f 266/418/998 268/416/999 261/415/1000
f 269/598/1001 270/599/1002 276/600/1003 275/601/1004
f 270/522/1005 271/523/1006 277/524/1007 276/525/1008
f 271/523/1009 272/526/1010 278/527/1011 277/524/1012
f 272/602/1013 273/603/1014 279/604/1015 278/605/1016
f 273/528/1017 274/529/1018 280/530/1019 279/531/1020
f 274/529/1021 269/532/1022 275/533/1023 280/530/1024
f 270/428/1025 269/429/1026 281/430/1027
f 271/432/1028 270/428/1029 281/430/1030
f 272/434/1031 271/432/1032 281/430/1033
f 273/433/1034 272/434/1035 281/430/1036
f 274/431/1037 273/433/1038 281/430/1039
f 269/429/1040 274/431/1041 281/430/1042
f 275/435/1043 276/436/1044 282/437/1045
f 276/436/1046 277/438/1047 282/437/1048
f 277/438/1049 278/440/1050 282/437/1051
f 278/440/1052 279/441/1053 282/437/1054
f 279/441/1055 280/439/1056 282/437/1057
f 280/439/1058 275/435/1059 282/437/1060
